%!PS-Adobe-3.0 EPSF-3.0
%%Creator: cairo 1.10.2 (http://cairographics.org)
%%CreationDate: Fri Sep 19 21:56:04 2014
%%Pages: 1
%%BoundingBox: 0 -1 311 31
%%DocumentData: Clean7Bit
%%LanguageLevel: 2
%%EndComments
%%BeginProlog
/cairo_eps_state save def
/dict_count countdictstack def
/op_count count 1 sub def
userdict begin
/q { gsave } bind def
/Q { grestore } bind def
/cm { 6 array astore concat } bind def
/w { setlinewidth } bind def
/J { setlinecap } bind def
/j { setlinejoin } bind def
/M { setmiterlimit } bind def
/d { setdash } bind def
/m { moveto } bind def
/l { lineto } bind def
/c { curveto } bind def
/h { closepath } bind def
/re { exch dup neg 3 1 roll 5 3 roll moveto 0 rlineto
      0 exch rlineto 0 rlineto closepath } bind def
/S { stroke } bind def
/f { fill } bind def
/f* { eofill } bind def
/n { newpath } bind def
/W { clip } bind def
/W* { eoclip } bind def
/BT { } bind def
/ET { } bind def
/pdfmark where { pop globaldict /?pdfmark /exec load put }
    { globaldict begin /?pdfmark /pop load def /pdfmark
    /cleartomark load def end } ifelse
/BDC { mark 3 1 roll /BDC pdfmark } bind def
/EMC { mark /EMC pdfmark } bind def
/cairo_store_point { /cairo_point_y exch def /cairo_point_x exch def } def
/Tj { show currentpoint cairo_store_point } bind def
/TJ {
  {
    dup
    type /stringtype eq
    { show } { -0.001 mul 0 cairo_font_matrix dtransform rmoveto } ifelse
  } forall
  currentpoint cairo_store_point
} bind def
/cairo_selectfont { cairo_font_matrix aload pop pop pop 0 0 6 array astore
    cairo_font exch selectfont cairo_point_x cairo_point_y moveto } bind def
/Tf { pop /cairo_font exch def /cairo_font_matrix where
      { pop cairo_selectfont } if } bind def
/Td { matrix translate cairo_font_matrix matrix concatmatrix dup
      /cairo_font_matrix exch def dup 4 get exch 5 get cairo_store_point
      /cairo_font where { pop cairo_selectfont } if } bind def
/Tm { 2 copy 8 2 roll 6 array astore /cairo_font_matrix exch def
      cairo_store_point /cairo_font where { pop cairo_selectfont } if } bind def
/g { setgray } bind def
/rg { setrgbcolor } bind def
/d1 { setcachedevice } bind def
%%EndProlog
%%Page: 1 1
%%BeginPageSetup
%%PageBoundingBox: 0 -1 311 31
%%EndPageSetup
q 0 -1 311 32 rectclip q
0 30.402 311 -31 re W n
0.6 0.846275 0.952941 rg
0.395 29.992 93.602 -29.598 re f
0.0235294 0.0117647 0.027451 rg
0.8 w
1 J
1 j
[] 0.0 d
4.2 M q 1 0 0 -1 0 30.402296 cm
0.395 0.41 93.602 29.598 re S Q
0 g
6.605 12.836 m 7.262 12.43 8.168 12.055 9.309 12.055 c 10.965 12.055 
11.965 13.211 11.965 14.336 c 11.965 15.461 11.09 16.148 10.355 16.43 c 
9.98 16.57 8.902 16.773 8.496 16.914 c 7.809 17.164 7.449 17.664 7.449 
18.18 c 7.449 18.898 8.199 19.586 9.387 19.586 c 10.434 19.586 10.965 
19.195 11.402 18.898 c 11.527 19.664 l 10.824 20.039 10.246 20.211 
9.387 20.211 c 7.699 20.211 6.73 19.102 6.73 18.086 c 6.73 17.648 6.902 
17.289 7.059 17.055 c 7.855 15.93 9.246 16.023 10.152 15.664 c 10.855 
15.383 11.246 14.82 11.246 14.258 c 11.246 13.445 10.48 12.695 9.309 
12.695 c 8.121 12.695 7.324 13.18 6.746 13.602 c h
13.082 14.883 m 13.082 13.258 14.285 12.148 15.566 12.148 c 16.941 
12.148 18.035 13.367 18.035 14.883 c 18.035 16.477 16.879 17.664 15.566 
17.664 c 14.129 17.664 13.082 16.352 13.082 14.883 c h
13.801 14.992 m 13.801 16.695 14.863 17.102 15.566 17.102 c 16.27 
17.102 17.316 16.68 17.316 14.992 c 17.316 13.18 16.27 12.742 15.566 
12.742 c 14.863 12.742 13.801 13.18 13.801 14.992 c h
19.406 13.727 m 19.406 13.133 19.453 12.148 20.719 12.148 c 21.516 
12.148 22.297 12.555 22.688 13.211 c 22.688 12.242 l 23.391 12.242 l 
23.391 17.523 l 22.672 17.523 l 22.672 14.195 l 22.672 13.273 22.047 
12.68 21.172 12.68 c 20.141 12.68 20.141 13.117 20.141 13.633 c 20.141 
17.523 l 19.406 17.523 l h
25.203 12.242 m 25.922 12.242 l 25.922 14.883 l 25.922 15.055 25.922 
15.211 25.953 15.383 c 26.109 16.195 26.859 16.977 28.016 16.992 c 
28.016 17.617 l 26.719 17.602 26.109 16.648 25.891 16.148 c 25.875 
16.68 l 25.875 17.523 l 25.203 17.523 l h
28.699 14.898 m 28.699 13.367 29.762 12.148 31.137 12.148 c 31.996 
12.148 32.574 12.461 33.074 12.852 c 33.027 13.492 l 32.699 13.211 
32.168 12.742 31.152 12.742 c 30.121 12.742 29.434 13.602 29.434 14.914 
c 29.434 16.242 30.121 17.086 31.168 17.086 c 32.043 17.086 32.371 
16.898 32.902 16.57 c 33.012 17.195 l 32.355 17.555 31.996 17.68 31.168 
17.68 c 29.699 17.68 28.699 16.336 28.699 14.898 c h
33.879 14.93 m 33.879 13.352 35.004 12.148 36.363 12.148 c 37.145 
12.148 37.77 12.477 38.238 12.867 c 38.176 13.492 l 37.77 13.102 37.207 
12.711 36.363 12.711 c 35.379 12.711 34.551 13.648 34.551 14.961 c 
34.551 15.039 l 38.254 15.039 l 38.254 17.258 36.988 17.664 36.191 
17.664 c 34.832 17.664 33.879 16.336 33.879 14.93 c h
34.613 15.492 m 34.785 16.398 35.41 17.102 36.191 17.102 c 37.066 
17.102 37.566 16.414 37.66 15.492 c h
43.473 12.242 m 48.238 12.242 l 48.238 12.836 l 44.254 12.836 l 44.254 
20.023 l 43.473 20.023 l h
49.332 13.523 m 49.332 13.102 49.582 12.148 50.582 12.148 c 51.379 
12.148 52.129 12.414 52.629 13.008 c 52.629 12.242 l 53.332 12.242 l 
53.332 15.617 l 53.316 15.992 l 53.254 16.883 52.535 17.68 51.504 17.68 
c 50.754 17.68 50.207 17.508 49.645 17.195 c 49.691 16.57 l 50.066 
16.789 50.566 17.148 51.473 17.148 c 51.598 17.148 51.988 17.133 52.301 
16.758 c 52.582 16.414 52.598 16.086 52.598 15.68 c 52.598 15.211 l 
49.926 15.148 49.332 14.195 49.332 13.523 c h
50.035 13.555 m 50.035 14.336 51.098 14.852 52.598 14.867 c 52.598 
13.867 l 52.598 12.93 51.676 12.711 51.191 12.711 c 50.645 12.711 
50.035 12.977 50.035 13.555 c h
55.125 12.242 m 55.859 12.242 l 55.859 15.18 l 55.859 15.32 55.844 
15.461 55.875 15.602 c 55.906 15.977 56.109 17.055 57.141 17.055 c 
58.172 17.055 58.391 16.539 58.391 15.727 c 58.391 12.242 l 59.109 
12.242 l 59.109 15.773 l 59.109 16.414 59.078 17.617 57.5 17.617 c 
56.609 17.617 56.078 17.008 55.828 16.445 c 55.828 17.523 l 55.125 
17.523 l h
60.547 14.898 m 60.547 13.383 61.594 12.43 62.625 12.43 c 63.5 12.43 
63.969 13.133 64.172 13.648 c 64.188 13.258 l 64.188 12.383 l 64.188 
11.086 63.422 10.742 62.891 10.742 c 62.031 10.742 61.5 10.961 60.844 
11.289 c 60.844 10.68 l 61.516 10.367 62.062 10.18 62.906 10.18 c 64 
10.18 64.906 10.992 64.906 12.336 c 64.906 17.617 l 64.203 17.617 l 
64.203 16.648 l 64 17.008 63.578 17.617 62.766 17.617 c 61.438 17.617 
60.547 16.258 60.547 14.898 c h
61.281 14.898 m 61.281 16.133 62.141 17.055 63.078 17.055 c 63.891 
17.055 64.203 16.18 64.203 15.789 c 64.203 15.039 l 64.188 15.039 l 
64.172 14.164 63.922 12.992 62.938 12.992 c 61.984 12.992 61.281 13.898 
61.281 14.898 c h
66.719 13.727 m 66.719 13.133 66.766 12.148 68.031 12.148 c 68.828 
12.148 69.609 12.555 70 13.211 c 70 12.242 l 70.703 12.242 l 70.703 
17.523 l 69.984 17.523 l 69.984 14.195 l 69.984 13.273 69.359 12.68 
68.484 12.68 c 67.453 12.68 67.453 13.117 67.453 13.633 c 67.453 17.523 
l 66.719 17.523 l h
72.234 13.523 m 72.234 13.102 72.484 12.148 73.484 12.148 c 74.281 
12.148 75.031 12.414 75.531 13.008 c 75.531 12.242 l 76.234 12.242 l 
76.234 15.617 l 76.219 15.992 l 76.156 16.883 75.438 17.68 74.406 17.68 
c 73.656 17.68 73.109 17.508 72.547 17.195 c 72.594 16.57 l 72.969 
16.789 73.469 17.148 74.375 17.148 c 74.5 17.148 74.891 17.133 75.203 
16.758 c 75.484 16.414 75.5 16.086 75.5 15.68 c 75.5 15.211 l 72.828 
15.148 72.234 14.195 72.234 13.523 c h
72.938 13.555 m 72.938 14.336 74 14.852 75.5 14.867 c 75.5 13.867 l 
75.5 12.93 74.578 12.711 74.094 12.711 c 73.547 12.711 72.938 12.977 
72.938 13.555 c h
77.656 14.898 m 77.656 13.383 78.703 12.43 79.734 12.43 c 80.609 12.43 
81.078 13.133 81.281 13.648 c 81.297 13.258 l 81.297 12.383 l 81.297 
11.086 80.531 10.742 80 10.742 c 79.141 10.742 78.609 10.961 77.953 
11.289 c 77.953 10.68 l 78.625 10.367 79.172 10.18 80.016 10.18 c 
81.109 10.18 82.016 10.992 82.016 12.336 c 82.016 17.617 l 81.312 
17.617 l 81.312 16.648 l 81.109 17.008 80.688 17.617 79.875 17.617 c 
78.547 17.617 77.656 16.258 77.656 14.898 c h
78.391 14.898 m 78.391 16.133 79.25 17.055 80.188 17.055 c 81 17.055 
81.312 16.18 81.312 15.789 c 81.312 15.039 l 81.297 15.039 l 81.281 
14.164 81.031 12.992 80.047 12.992 c 79.094 12.992 78.391 13.898 78.391 
14.898 c h
83.406 14.93 m 83.406 13.352 84.531 12.148 85.891 12.148 c 86.672 
12.148 87.297 12.477 87.766 12.867 c 87.703 13.492 l 87.297 13.102 
86.734 12.711 85.891 12.711 c 84.906 12.711 84.078 13.648 84.078 14.961 
c 84.078 15.039 l 87.781 15.039 l 87.781 17.258 86.516 17.664 85.719 
17.664 c 84.359 17.664 83.406 16.336 83.406 14.93 c h
84.141 15.492 m 84.312 16.398 84.938 17.102 85.719 17.102 c 86.594 
17.102 87.094 16.414 87.188 15.492 c h
84.141 15.492 m f
0.6 0.846275 0.952941 rg
216.238 29.992 93.602 -29.598 re f
0.0235294 0.0117647 0.027451 rg
0.800484 w
q 0.998791 0 0 -1 0 30.402296 cm
216.5 0.41 93.715 29.598 re S Q
0 g
222.742 18.465 m 225.992 18.465 l 225.992 11.309 l 226.773 11.309 l 
226.773 18.465 l 230.008 18.465 l 230.008 19.059 l 222.742 19.059 l h
230.066 12.59 m 230.066 12.168 230.316 11.215 231.316 11.215 c 232.113 
11.215 232.863 11.48 233.348 12.074 c 233.348 11.309 l 234.051 11.309 l 
234.051 15.059 l 233.988 15.949 233.27 16.746 232.238 16.746 c 231.488 
16.746 230.941 16.574 230.379 16.262 c 230.426 15.637 l 230.801 15.855 
231.285 16.215 232.191 16.215 c 232.316 16.215 232.707 16.199 233.02 
15.824 c 233.301 15.48 233.332 15.152 233.332 14.746 c 233.332 14.277 l 
230.66 14.215 230.066 13.262 230.066 12.59 c h
230.77 12.621 m 230.77 13.402 231.832 13.918 233.332 13.934 c 233.332 
12.934 l 233.332 11.996 232.41 11.777 231.926 11.777 c 231.379 11.777 
230.77 12.043 230.77 12.621 c h
235.527 11.309 m 236.23 11.309 l 236.23 13.949 l 236.23 14.121 236.23 
14.277 236.277 14.449 c 236.434 15.262 237.184 16.043 238.324 16.059 c 
238.324 16.684 l 237.043 16.668 236.434 15.715 236.215 15.215 c 236.199 
15.746 l 236.199 16.59 l 235.527 16.59 l h
239.02 13.965 m 239.02 12.449 240.066 11.496 241.098 11.496 c 241.957 
11.496 242.441 12.199 242.645 12.715 c 242.66 12.324 l 242.66 11.449 l 
242.66 10.152 241.879 9.809 241.363 9.809 c 240.504 9.809 239.973 
10.027 239.316 10.355 c 239.316 9.746 l 239.988 9.434 240.535 9.246 
241.379 9.246 c 242.457 9.246 243.363 10.059 243.363 11.402 c 243.363 
16.684 l 242.66 16.684 l 242.66 15.715 l 242.457 16.074 242.051 16.684 
241.238 16.684 c 239.91 16.684 239.02 15.324 239.02 13.965 c h
239.738 13.965 m 239.738 15.199 240.613 16.121 241.551 16.121 c 242.363 
16.121 242.66 15.246 242.66 14.855 c 242.66 14.105 l 242.645 13.23 
242.379 12.059 241.41 12.059 c 240.457 12.059 239.738 12.965 239.738 
13.965 c h
244.762 13.996 m 244.762 12.418 245.887 11.215 247.246 11.215 c 248.027 
11.215 248.652 11.543 249.121 11.934 c 249.059 12.559 l 248.652 12.168 
248.09 11.777 247.246 11.777 c 246.262 11.777 245.434 12.715 245.434 
14.027 c 245.434 14.105 l 249.137 14.105 l 249.137 16.324 247.855 16.73 
247.074 16.73 c 245.715 16.73 244.762 15.402 244.762 13.996 c h
245.496 14.559 m 245.668 15.465 246.293 16.168 247.074 16.168 c 247.949 
16.168 248.449 15.48 248.527 14.559 c h
249.734 16.043 m 250.797 16.043 l 250.797 12.777 l 250.797 12.293 
250.828 11.215 251.719 11.215 c 252.406 11.215 252.953 11.418 253.422 
11.715 c 253.281 12.262 l 253.234 12.262 252.844 11.809 252.125 11.809 
c 251.5 11.809 251.484 12.543 251.484 12.855 c 251.484 16.043 l 253.219 
16.043 l 253.219 16.59 l 251.484 16.59 l 251.484 18.105 l 250.797 
18.105 l 250.797 16.59 l 249.734 16.59 l h
258.582 11.309 m 263.332 11.309 l 263.332 11.902 l 259.363 11.902 l 
259.363 19.09 l 258.582 19.09 l h
264.434 12.59 m 264.434 12.168 264.684 11.215 265.684 11.215 c 266.48 
11.215 267.23 11.48 267.715 12.074 c 267.715 11.309 l 268.418 11.309 l 
268.418 15.059 l 268.355 15.949 267.637 16.746 266.605 16.746 c 265.855 
16.746 265.309 16.574 264.746 16.262 c 264.793 15.637 l 265.168 15.855 
265.652 16.215 266.559 16.215 c 266.684 16.215 267.074 16.199 267.387 
15.824 c 267.668 15.48 267.699 15.152 267.699 14.746 c 267.699 14.277 l 
265.027 14.215 264.434 13.262 264.434 12.59 c h
265.137 12.621 m 265.137 13.402 266.199 13.918 267.699 13.934 c 267.699 
12.934 l 267.699 11.996 266.777 11.777 266.293 11.777 c 265.746 11.777 
265.137 12.043 265.137 12.621 c h
270.223 11.309 m 270.957 11.309 l 270.957 14.246 l 270.957 14.387 
270.941 14.527 270.973 14.668 c 271.004 15.043 271.207 16.121 272.223 
16.121 c 273.254 16.121 273.488 15.605 273.488 14.793 c 273.488 11.309 
l 274.191 11.309 l 274.191 14.84 l 274.191 15.48 274.176 16.684 272.598 
16.684 c 271.707 16.684 271.176 16.074 270.926 15.512 c 270.926 16.59 l 
270.223 16.59 l h
275.637 13.965 m 275.637 12.449 276.684 11.496 277.715 11.496 c 278.574 
11.496 279.059 12.199 279.262 12.715 c 279.277 12.324 l 279.277 11.449 
l 279.277 10.152 278.496 9.809 277.98 9.809 c 277.121 9.809 276.59 
10.027 275.934 10.355 c 275.934 9.746 l 276.605 9.434 277.152 9.246 
277.996 9.246 c 279.074 9.246 279.98 10.059 279.98 11.402 c 279.98 
16.684 l 279.277 16.684 l 279.277 15.715 l 279.074 16.074 278.668 
16.684 277.855 16.684 c 276.527 16.684 275.637 15.324 275.637 13.965 c 
h
276.355 13.965 m 276.355 15.199 277.23 16.121 278.168 16.121 c 278.98 
16.121 279.277 15.246 279.277 14.855 c 279.277 14.105 l 279.262 13.23 
278.996 12.059 278.027 12.059 c 277.074 12.059 276.355 12.965 276.355 
13.965 c h
281.801 12.793 m 281.801 12.199 281.832 11.215 283.098 11.215 c 283.91 
11.215 284.676 11.621 285.066 12.277 c 285.066 11.309 l 285.77 11.309 l 
285.77 16.59 l 285.066 16.59 l 285.066 13.262 l 285.066 12.34 284.441 
11.746 283.566 11.746 c 282.535 11.746 282.535 12.184 282.535 12.699 c 
282.535 16.59 l 281.801 16.59 l h
287.309 12.59 m 287.309 12.168 287.559 11.215 288.559 11.215 c 289.355 
11.215 290.105 11.48 290.59 12.074 c 290.59 11.309 l 291.293 11.309 l 
291.293 15.059 l 291.23 15.949 290.512 16.746 289.48 16.746 c 288.73 
16.746 288.184 16.574 287.621 16.262 c 287.668 15.637 l 288.043 15.855 
288.527 16.215 289.434 16.215 c 289.559 16.215 289.949 16.199 290.262 
15.824 c 290.543 15.48 290.574 15.152 290.574 14.746 c 290.574 14.277 l 
287.902 14.215 287.309 13.262 287.309 12.59 c h
288.012 12.621 m 288.012 13.402 289.074 13.918 290.574 13.934 c 290.574 
12.934 l 290.574 11.996 289.652 11.777 289.168 11.777 c 288.621 11.777 
288.012 12.043 288.012 12.621 c h
292.723 13.965 m 292.723 12.449 293.77 11.496 294.801 11.496 c 295.66 
11.496 296.145 12.199 296.348 12.715 c 296.363 12.324 l 296.363 11.449 
l 296.363 10.152 295.582 9.809 295.066 9.809 c 294.207 9.809 293.676 
10.027 293.02 10.355 c 293.02 9.746 l 293.691 9.434 294.238 9.246 
295.082 9.246 c 296.16 9.246 297.066 10.059 297.066 11.402 c 297.066 
16.684 l 296.363 16.684 l 296.363 15.715 l 296.16 16.074 295.754 16.684 
294.941 16.684 c 293.613 16.684 292.723 15.324 292.723 13.965 c h
293.441 13.965 m 293.441 15.199 294.316 16.121 295.254 16.121 c 296.066 
16.121 296.363 15.246 296.363 14.855 c 296.363 14.105 l 296.348 13.23 
296.082 12.059 295.113 12.059 c 294.16 12.059 293.441 12.965 293.441 
13.965 c h
298.465 13.996 m 298.465 12.418 299.59 11.215 300.949 11.215 c 301.73 
11.215 302.355 11.543 302.824 11.934 c 302.762 12.559 l 302.355 12.168 
301.793 11.777 300.949 11.777 c 299.965 11.777 299.137 12.715 299.137 
14.027 c 299.137 14.105 l 302.84 14.105 l 302.84 16.324 301.559 16.73 
300.777 16.73 c 299.418 16.73 298.465 15.402 298.465 13.996 c h
299.199 14.559 m 299.371 15.465 299.996 16.168 300.777 16.168 c 301.652 
16.168 302.152 15.48 302.23 14.559 c h
299.199 14.559 m f
0.8 w
0 J
0 j
4 M q 1 0 0 -1 0 30.402296 cm
93.363 15.215 m 215.996 15.215 l S Q
211.812 17.121 m 217.059 15.195 l 211.812 13.266 l 212.652 14.402 
212.645 15.961 211.812 17.121 c h
211.812 17.121 m f*
107.641 22.168 m 108.359 22.168 l 108.359 29.23 l 108.359 29.23 108.547 
28.668 108.75 28.152 c 111.109 22.355 l 111.781 22.355 l 113.672 26.98 
l 114.547 29.23 l 114.547 22.168 l 115.25 22.168 l 115.25 29.949 l 
114.219 29.949 l 111.609 23.527 l 111.531 23.309 111.453 23.074 111.453 
23.074 c 111.453 23.074 111.156 23.887 110.938 24.402 c 108.672 29.949 
l 107.641 29.949 l h
117.016 23.449 m 117.016 23.027 117.266 22.074 118.266 22.074 c 119.062 
22.074 119.812 22.34 120.312 22.934 c 120.312 22.168 l 121.016 22.168 l 
121.016 25.543 l 121 25.918 l 120.938 26.809 120.219 27.605 119.188 
27.605 c 118.438 27.605 117.891 27.434 117.328 27.121 c 117.375 26.496 
l 117.75 26.715 118.25 27.074 119.156 27.074 c 119.281 27.074 119.672 
27.059 119.984 26.684 c 120.266 26.34 120.281 26.012 120.281 25.605 c 
120.281 25.137 l 117.609 25.074 117.016 24.121 117.016 23.449 c h
117.719 23.48 m 117.719 24.262 118.781 24.777 120.281 24.793 c 120.281 
23.793 l 120.281 22.855 119.359 22.637 118.875 22.637 c 118.328 22.637 
117.719 22.902 117.719 23.48 c h
122.434 24.824 m 122.434 23.293 123.496 22.074 124.871 22.074 c 125.73 
22.074 126.309 22.387 126.809 22.777 c 126.762 23.418 l 126.434 23.137 
125.902 22.668 124.887 22.668 c 123.855 22.668 123.168 23.527 123.168 
24.84 c 123.168 26.168 123.855 27.012 124.902 27.012 c 125.777 27.012 
126.105 26.824 126.637 26.496 c 126.746 27.121 l 126.09 27.48 125.73 
27.605 124.902 27.605 c 123.434 27.605 122.434 26.262 122.434 24.824 c 
h
128.035 22.168 m 128.77 22.168 l 128.77 25.105 l 128.77 25.246 128.754 
25.387 128.785 25.527 c 128.816 25.902 129.02 26.98 130.051 26.98 c 
131.082 26.98 131.301 26.465 131.301 25.652 c 131.301 22.168 l 132.02 
22.168 l 132.02 25.699 l 132.02 26.355 131.988 27.543 130.41 27.543 c 
129.426 27.543 128.926 26.793 128.754 26.402 c 128.754 29.949 l 128.035 
29.949 l h
133.832 22.168 m 134.551 22.168 l 134.551 27.449 l 133.832 27.449 l h
133.832 29.23 m 134.551 29.23 l 134.551 29.949 l 133.832 29.949 l h
136.348 22.168 m 137.082 22.168 l 137.082 25.105 l 137.082 25.246 
137.066 25.387 137.098 25.527 c 137.129 25.902 137.332 26.98 138.363 
26.98 c 139.395 26.98 139.613 26.465 139.613 25.652 c 139.613 22.168 l 
140.332 22.168 l 140.332 25.699 l 140.332 26.34 140.301 27.543 138.723 
27.543 c 137.832 27.543 137.301 26.934 137.051 26.371 c 137.051 27.449 
l 136.348 27.449 l h
141.723 24.855 m 141.723 23.277 142.848 22.074 144.207 22.074 c 144.988 
22.074 145.613 22.402 146.082 22.793 c 146.02 23.418 l 145.613 23.027 
145.051 22.637 144.207 22.637 c 143.223 22.637 142.395 23.574 142.395 
24.887 c 142.395 24.965 l 146.098 24.965 l 146.098 27.184 144.832 27.59 
144.035 27.59 c 142.676 27.59 141.723 26.262 141.723 24.855 c h
142.457 25.418 m 142.629 26.324 143.254 27.027 144.035 27.027 c 144.91 
27.027 145.41 26.34 145.504 25.418 c h
150.645 29.324 m 153.879 29.324 l 153.879 22.168 l 154.676 22.168 l 
154.676 29.324 l 157.91 29.324 l 157.91 29.918 l 150.645 29.918 l h
158.246 22.168 m 158.965 22.168 l 158.965 24.809 l 158.965 24.98 
158.965 25.137 158.996 25.309 c 159.152 26.121 159.902 26.902 161.059 
26.918 c 161.059 27.543 l 159.762 27.527 159.152 26.574 158.934 26.074 
c 158.918 26.605 l 158.918 27.449 l 158.246 27.449 l h
161.836 23.449 m 161.836 23.027 162.086 22.074 163.086 22.074 c 163.883 
22.074 164.633 22.34 165.133 22.934 c 165.133 22.168 l 165.836 22.168 l 
165.836 25.543 l 165.82 25.918 l 165.758 26.809 165.039 27.605 164.008 
27.605 c 163.258 27.605 162.711 27.434 162.148 27.121 c 162.195 26.496 
l 162.57 26.715 163.07 27.074 163.977 27.074 c 164.102 27.074 164.492 
27.059 164.805 26.684 c 165.086 26.34 165.102 26.012 165.102 25.605 c 
165.102 25.137 l 162.43 25.074 161.836 24.121 161.836 23.449 c h
162.539 23.48 m 162.539 24.262 163.602 24.777 165.102 24.793 c 165.102 
23.793 l 165.102 22.855 164.18 22.637 163.695 22.637 c 163.148 22.637 
162.539 22.902 162.539 23.48 c h
167.629 22.168 m 168.363 22.168 l 168.363 25.105 l 168.363 25.246 
168.348 25.387 168.379 25.527 c 168.41 25.902 168.613 26.98 169.645 
26.98 c 170.676 26.98 170.895 26.465 170.895 25.652 c 170.895 22.168 l 
171.613 22.168 l 171.613 25.699 l 171.613 26.34 171.582 27.543 170.004 
27.543 c 169.113 27.543 168.582 26.934 168.332 26.371 c 168.332 27.449 
l 167.629 27.449 l h
172.863 22.605 m 173.426 22.293 174.066 22.074 174.863 22.074 c 176.426 
22.074 176.77 23.012 176.77 23.652 c 176.77 24.449 176.145 24.918 
175.613 25.121 c 175.004 25.34 173.582 25.277 173.582 26.199 c 173.582 
26.496 173.754 27.043 174.754 27.043 c 175.441 27.043 175.848 26.918 
176.457 26.605 c 176.566 27.215 l 175.941 27.496 175.52 27.605 174.863 
27.605 c 174.832 27.605 l 173.27 27.59 172.926 26.699 172.926 26.105 c 
172.926 25.793 173.035 25.559 173.191 25.355 c 173.754 24.59 174.738 
24.637 175.348 24.449 c 175.629 24.355 176.113 24.09 176.113 23.574 c 
176.113 23.215 175.879 22.668 174.848 22.668 c 174.004 22.668 173.488 
22.934 172.973 23.262 c h
177.934 22.168 m 178.652 22.168 l 178.652 29.949 l 177.934 29.949 l h
180.168 23.449 m 180.168 23.027 180.418 22.074 181.418 22.074 c 182.215 
22.074 182.965 22.34 183.465 22.934 c 183.465 22.168 l 184.168 22.168 l 
184.168 25.543 l 184.152 25.918 l 184.09 26.809 183.371 27.605 182.34 
27.605 c 181.59 27.605 181.043 27.434 180.48 27.121 c 180.527 26.496 l 
180.902 26.715 181.402 27.074 182.309 27.074 c 182.434 27.074 182.824 
27.059 183.137 26.684 c 183.418 26.34 183.434 26.012 183.434 25.605 c 
183.434 25.137 l 180.762 25.074 180.168 24.121 180.168 23.449 c h
180.871 23.48 m 180.871 24.262 181.934 24.777 183.434 24.793 c 183.434 
23.793 l 183.434 22.855 182.512 22.637 182.027 22.637 c 181.48 22.637 
180.871 22.902 180.871 23.48 c h
185.289 26.902 m 186.352 26.902 l 186.352 23.637 l 186.352 23.152 
186.383 22.074 187.273 22.074 c 187.961 22.074 188.508 22.277 188.977 
22.574 c 188.836 23.121 l 188.789 23.121 188.414 22.668 187.68 22.668 c 
187.07 22.668 187.039 23.402 187.039 23.715 c 187.039 26.902 l 188.773 
26.902 l 188.773 27.449 l 187.039 27.449 l 187.039 28.965 l 186.352 
28.965 l 186.352 27.449 l 185.289 27.449 l h
190.203 22.168 m 190.922 22.168 l 190.922 27.449 l 190.203 27.449 l h
190.203 29.23 m 190.922 29.23 l 190.922 29.949 l 190.203 29.949 l h
192.281 24.809 m 192.281 23.184 193.484 22.074 194.766 22.074 c 196.141 
22.074 197.234 23.293 197.234 24.809 c 197.234 26.402 196.078 27.59 
194.766 27.59 c 193.328 27.59 192.281 26.277 192.281 24.809 c h
193 24.918 m 193 26.621 194.062 27.027 194.766 27.027 c 195.469 27.027 
196.516 26.605 196.516 24.918 c 196.516 23.105 195.469 22.668 194.766 
22.668 c 194.062 22.668 193 23.105 193 24.918 c h
198.605 22.168 m 199.34 22.168 l 199.34 25.105 l 199.34 25.246 199.324 
25.387 199.355 25.527 c 199.387 25.902 199.59 26.98 200.621 26.98 c 
201.652 26.98 201.871 26.465 201.871 25.652 c 201.871 22.168 l 202.59 
22.168 l 202.59 25.699 l 202.59 26.34 202.559 27.543 200.98 27.543 c 
200.09 27.543 199.559 26.934 199.309 26.371 c 199.309 27.449 l 198.605 
27.449 l h
198.605 22.168 m f
Q Q
showpage
%%Trailer
count op_count sub {pop} repeat
countdictstack dict_count sub {end} repeat
cairo_eps_state restore
%%EOF
