<?xml version="1.0" encoding="UTF-8" standalone="no"?>
<?xml-stylesheet type="text/css" href="../css/theme/blendernetwork.css" ?><svg
   xmlns:dc="http://purl.org/dc/elements/1.1/"
   xmlns:cc="http://creativecommons.org/ns#"
   xmlns:rdf="http://www.w3.org/1999/02/22-rdf-syntax-ns#"
   xmlns:svg="http://www.w3.org/2000/svg"
   xmlns="http://www.w3.org/2000/svg"
   xmlns:sodipodi="http://sodipodi.sourceforge.net/DTD/sodipodi-0.dtd"
   xmlns:inkscape="http://www.inkscape.org/namespaces/inkscape"
   width="956.61444"
   height="393.9595"
   id="svg2"
   version="1.1"
   inkscape:version="0.48.5 r10040"
   sodipodi:docname="architecture.svg">
  <defs
     id="defs4">
    <marker
       inkscape:stockid="Arrow2Mstart"
       orient="auto"
       refY="0"
       refX="0"
       id="Arrow2Mstart"
       style="overflow:visible">
      <path
         id="path4257"
         style="fill-rule:evenodd;stroke-width:0.625;stroke-linejoin:round"
         d="M 8.7185878,4.0337352 -2.2072895,0.01601326 8.7185884,-4.0017078 c -1.7454984,2.3720609 -1.7354408,5.6174519 -6e-7,8.035443 z"
         transform="scale(0.6,0.6)"
         inkscape:connector-curvature="0" />
    </marker>
    <marker
       inkscape:stockid="Arrow2Mend"
       orient="auto"
       refY="0"
       refX="0"
       id="Arrow2Mend"
       style="overflow:visible">
      <path
         id="path4260"
         style="fill-rule:evenodd;stroke-width:0.625;stroke-linejoin:round"
         d="M 8.7185878,4.0337352 -2.2072895,0.01601326 8.7185884,-4.0017078 c -1.7454984,2.3720609 -1.7354408,5.6174519 -6e-7,8.035443 z"
         transform="scale(-0.6,-0.6)"
         inkscape:connector-curvature="0" />
    </marker>
    <marker
       inkscape:stockid="CurveOut"
       orient="auto"
       refY="0"
       refX="0"
       id="CurveOut"
       style="overflow:visible">
      <path
         id="path4420"
         d="m -5.4129913,-5.0456926 c 2.76,0 4.99999999,2.24 4.99999999,5.00000002 0,2.75999998 -2.23999999,4.99999998 -4.99999999,4.99999998"
         style="fill:none;stroke:#000000;stroke-width:1pt"
         transform="scale(0.6,0.6)"
         inkscape:connector-curvature="0" />
    </marker>
    <marker
       inkscape:stockid="Arrow1Mend"
       orient="auto"
       refY="0"
       refX="0"
       id="Arrow1Mend"
       style="overflow:visible">
      <path
         id="path4242"
         d="M 0,0 5,-5 -12.5,0 5,5 0,0 z"
         style="fill-rule:evenodd;stroke:#000000;stroke-width:1pt"
         transform="matrix(-0.4,0,0,-0.4,-4,0)"
         inkscape:connector-curvature="0" />
    </marker>
    <marker
       inkscape:stockid="Tail"
       orient="auto"
       refY="0"
       refX="0"
       id="Tail"
       style="overflow:visible">
      <g
         id="g4269"
         transform="scale(-1.2,-1.2)">
        <path
           id="path4271"
           d="M -3.8048674,-3.9585227 0.54352094,0"
           style="fill:none;stroke:#000000;stroke-width:0.80000001;stroke-linecap:round"
           inkscape:connector-curvature="0" />
        <path
           id="path4273"
           d="M -1.2866832,-3.9585227 3.0617053,0"
           style="fill:none;stroke:#000000;stroke-width:0.80000001;stroke-linecap:round"
           inkscape:connector-curvature="0" />
        <path
           id="path4275"
           d="M 1.3053582,-3.9585227 5.6537466,0"
           style="fill:none;stroke:#000000;stroke-width:0.80000001;stroke-linecap:round"
           inkscape:connector-curvature="0" />
        <path
           id="path4277"
           d="M -3.8048674,4.1775838 0.54352094,0.21974226"
           style="fill:none;stroke:#000000;stroke-width:0.80000001;stroke-linecap:round"
           inkscape:connector-curvature="0" />
        <path
           id="path4279"
           d="M -1.2866832,4.1775838 3.0617053,0.21974226"
           style="fill:none;stroke:#000000;stroke-width:0.80000001;stroke-linecap:round"
           inkscape:connector-curvature="0" />
        <path
           id="path4281"
           d="M 1.3053582,4.1775838 5.6537466,0.21974226"
           style="fill:none;stroke:#000000;stroke-width:0.80000001;stroke-linecap:round"
           inkscape:connector-curvature="0" />
      </g>
    </marker>
    <marker
       inkscape:stockid="Arrow2Lend"
       orient="auto"
       refY="0"
       refX="0"
       id="Arrow2Lend"
       style="overflow:visible">
      <path
         id="path4254"
         style="fill-rule:evenodd;stroke-width:0.625;stroke-linejoin:round"
         d="M 8.7185878,4.0337352 -2.2072895,0.01601326 8.7185884,-4.0017078 c -1.7454984,2.3720609 -1.7354408,5.6174519 -6e-7,8.035443 z"
         transform="matrix(-1.1,0,0,-1.1,-1.1,0)"
         inkscape:connector-curvature="0" />
    </marker>
    <marker
       inkscape:stockid="Arrow1Lend"
       orient="auto"
       refY="0"
       refX="0"
       id="Arrow1Lend"
       style="overflow:visible">
      <path
         id="path4236"
         d="M 0,0 5,-5 -12.5,0 5,5 0,0 z"
         style="fill-rule:evenodd;stroke:#000000;stroke-width:1pt"
         transform="matrix(-0.8,0,0,-0.8,-10,0)"
         inkscape:connector-curvature="0" />
    </marker>
    <marker
       inkscape:stockid="Arrow2Mend"
       orient="auto"
       refY="0"
       refX="0"
       id="Arrow2Mend-9"
       style="overflow:visible">
      <path
         inkscape:connector-curvature="0"
         id="path4260-5"
         style="fill-rule:evenodd;stroke-width:0.625;stroke-linejoin:round"
         d="M 8.7185878,4.0337352 -2.2072895,0.01601326 8.7185884,-4.0017078 c -1.7454984,2.3720609 -1.7354408,5.6174519 -6e-7,8.035443 z"
         transform="scale(-0.6,-0.6)" />
    </marker>
    <marker
       inkscape:stockid="Arrow2Mend"
       orient="auto"
       refY="0"
       refX="0"
       id="Arrow2Mend-1"
       style="overflow:visible">
      <path
         inkscape:connector-curvature="0"
         id="path4260-3"
         style="fill-rule:evenodd;stroke-width:0.625;stroke-linejoin:round"
         d="M 8.7185878,4.0337352 -2.2072895,0.01601326 8.7185884,-4.0017078 c -1.7454984,2.3720609 -1.7354408,5.6174519 -6e-7,8.035443 z"
         transform="scale(-0.6,-0.6)" />
    </marker>
    <marker
       inkscape:stockid="Arrow2Mend"
       orient="auto"
       refY="0"
       refX="0"
       id="Arrow2Mend-3"
       style="overflow:visible">
      <path
         inkscape:connector-curvature="0"
         id="path4260-32"
         style="fill-rule:evenodd;stroke-width:0.625;stroke-linejoin:round"
         d="M 8.7185878,4.0337352 -2.2072895,0.01601326 8.7185884,-4.0017078 c -1.7454984,2.3720609 -1.7354408,5.6174519 -6e-7,8.035443 z"
         transform="scale(-0.6,-0.6)" />
    </marker>
    <marker
       inkscape:stockid="Arrow2Mend"
       orient="auto"
       refY="0"
       refX="0"
       id="Arrow2Mend-14"
       style="overflow:visible">
      <path
         inkscape:connector-curvature="0"
         id="path4260-0"
         style="fill-rule:evenodd;stroke-width:0.625;stroke-linejoin:round"
         d="M 8.7185878,4.0337352 -2.2072895,0.01601326 8.7185884,-4.0017078 c -1.7454984,2.3720609 -1.7354408,5.6174519 -6e-7,8.035443 z"
         transform="scale(-0.6,-0.6)" />
    </marker>
    <marker
       inkscape:stockid="Arrow2Mend"
       orient="auto"
       refY="0"
       refX="0"
       id="Arrow2Mend-2"
       style="overflow:visible">
      <path
         inkscape:connector-curvature="0"
         id="path4260-6"
         style="fill-rule:evenodd;stroke-width:0.625;stroke-linejoin:round"
         d="M 8.7185878,4.0337352 -2.2072895,0.01601326 8.7185884,-4.0017078 c -1.7454984,2.3720609 -1.7354408,5.6174519 -6e-7,8.035443 z"
         transform="scale(-0.6,-0.6)" />
    </marker>
    <marker
       inkscape:stockid="Arrow2Mend"
       orient="auto"
       refY="0"
       refX="0"
       id="Arrow2Mend-6"
       style="overflow:visible">
      <path
         inkscape:connector-curvature="0"
         id="path4260-7"
         style="fill-rule:evenodd;stroke-width:0.625;stroke-linejoin:round"
         d="M 8.7185878,4.0337352 -2.2072895,0.01601326 8.7185884,-4.0017078 c -1.7454984,2.3720609 -1.7354408,5.6174519 -6e-7,8.035443 z"
         transform="scale(-0.6,-0.6)" />
    </marker>
    <marker
       inkscape:stockid="Arrow2Mend"
       orient="auto"
       refY="0"
       refX="0"
       id="Arrow2Mend-8"
       style="overflow:visible">
      <path
         inkscape:connector-curvature="0"
         id="path4260-9"
         style="fill-rule:evenodd;stroke-width:0.625;stroke-linejoin:round"
         d="M 8.7185878,4.0337352 -2.2072895,0.01601326 8.7185884,-4.0017078 c -1.7454984,2.3720609 -1.7354408,5.6174519 -6e-7,8.035443 z"
         transform="scale(-0.6,-0.6)" />
    </marker>
    <marker
       inkscape:stockid="Arrow2Mend"
       orient="auto"
       refY="0"
       refX="0"
       id="Arrow2Mend-20"
       style="overflow:visible">
      <path
         inkscape:connector-curvature="0"
         id="path4260-2"
         style="fill-rule:evenodd;stroke-width:0.625;stroke-linejoin:round"
         d="M 8.7185878,4.0337352 -2.2072895,0.01601326 8.7185884,-4.0017078 c -1.7454984,2.3720609 -1.7354408,5.6174519 -6e-7,8.035443 z"
         transform="scale(-0.6,-0.6)" />
    </marker>
    <marker
       inkscape:stockid="Arrow2Mend"
       orient="auto"
       refY="0"
       refX="0"
       id="marker3138"
       style="overflow:visible">
      <path
         inkscape:connector-curvature="0"
         id="path3140"
         style="fill-rule:evenodd;stroke-width:0.625;stroke-linejoin:round"
         d="M 8.7185878,4.0337352 -2.2072895,0.01601326 8.7185884,-4.0017078 c -1.7454984,2.3720609 -1.7354408,5.6174519 -6e-7,8.035443 z"
         transform="scale(-0.6,-0.6)" />
    </marker>
    <marker
       inkscape:stockid="Arrow2Mstart"
       orient="auto"
       refY="0"
       refX="0"
       id="Arrow2Mstart-7"
       style="overflow:visible">
      <path
         inkscape:connector-curvature="0"
         id="path4257-6"
         style="fill-rule:evenodd;stroke-width:0.625;stroke-linejoin:round"
         d="M 8.7185878,4.0337352 -2.2072895,0.01601326 8.7185884,-4.0017078 c -1.7454984,2.3720609 -1.7354408,5.6174519 -6e-7,8.035443 z"
         transform="scale(0.6,0.6)" />
    </marker>
    <marker
       inkscape:stockid="Arrow2Mend"
       orient="auto"
       refY="0"
       refX="0"
       id="Arrow2Mend-7"
       style="overflow:visible">
      <path
         inkscape:connector-curvature="0"
         id="path4260-36"
         style="fill-rule:evenodd;stroke-width:0.625;stroke-linejoin:round"
         d="M 8.7185878,4.0337352 -2.2072895,0.01601326 8.7185884,-4.0017078 c -1.7454984,2.3720609 -1.7354408,5.6174519 -6e-7,8.035443 z"
         transform="scale(-0.6,-0.6)" />
    </marker>
    <marker
       inkscape:stockid="Arrow2Mend"
       orient="auto"
       refY="0"
       refX="0"
       id="Arrow2Mend-22"
       style="overflow:visible">
      <path
         inkscape:connector-curvature="0"
         id="path4260-61"
         style="fill-rule:evenodd;stroke-width:0.625;stroke-linejoin:round"
         d="M 8.7185878,4.0337352 -2.2072895,0.01601326 8.7185884,-4.0017078 c -1.7454984,2.3720609 -1.7354408,5.6174519 -6e-7,8.035443 z"
         transform="scale(-0.6,-0.6)" />
    </marker>
    <marker
       inkscape:stockid="Arrow2Mend"
       orient="auto"
       refY="0"
       refX="0"
       id="Arrow2Mend-94"
       style="overflow:visible">
      <path
         inkscape:connector-curvature="0"
         id="path4260-8"
         style="fill-rule:evenodd;stroke-width:0.625;stroke-linejoin:round"
         d="M 8.7185878,4.0337352 -2.2072895,0.01601326 8.7185884,-4.0017078 c -1.7454984,2.3720609 -1.7354408,5.6174519 -6e-7,8.035443 z"
         transform="scale(-0.6,-0.6)" />
    </marker>
    <marker
       inkscape:stockid="Arrow2Mend"
       orient="auto"
       refY="0"
       refX="0"
       id="Arrow2Mend-77"
       style="overflow:visible">
      <path
         inkscape:connector-curvature="0"
         id="path4260-64"
         style="fill-rule:evenodd;stroke-width:0.625;stroke-linejoin:round"
         d="M 8.7185878,4.0337352 -2.2072895,0.01601326 8.7185884,-4.0017078 c -1.7454984,2.3720609 -1.7354408,5.6174519 -6e-7,8.035443 z"
         transform="scale(-0.6,-0.6)" />
    </marker>
    <marker
       inkscape:stockid="Arrow2Mend"
       orient="auto"
       refY="0"
       refX="0"
       id="Arrow2Mend-62"
       style="overflow:visible">
      <path
         inkscape:connector-curvature="0"
         id="path4260-618"
         style="fill-rule:evenodd;stroke-width:0.625;stroke-linejoin:round"
         d="M 8.7185878,4.0337352 -2.2072895,0.01601326 8.7185884,-4.0017078 c -1.7454984,2.3720609 -1.7354408,5.6174519 -6e-7,8.035443 z"
         transform="scale(-0.6,-0.6)" />
    </marker>
    <marker
       inkscape:stockid="Arrow2Mstart"
       orient="auto"
       refY="0"
       refX="0"
       id="Arrow2Mstart-79"
       style="overflow:visible">
      <path
         inkscape:connector-curvature="0"
         id="path4257-2"
         style="fill-rule:evenodd;stroke-width:0.625;stroke-linejoin:round"
         d="M 8.7185878,4.0337352 -2.2072895,0.01601326 8.7185884,-4.0017078 c -1.7454984,2.3720609 -1.7354408,5.6174519 -6e-7,8.035443 z"
         transform="scale(0.6,0.6)" />
    </marker>
    <marker
       inkscape:stockid="Arrow2Mend"
       orient="auto"
       refY="0"
       refX="0"
       id="marker3264"
       style="overflow:visible">
      <path
         inkscape:connector-curvature="0"
         id="path3266"
         style="fill-rule:evenodd;stroke-width:0.625;stroke-linejoin:round"
         d="M 8.7185878,4.0337352 -2.2072895,0.01601326 8.7185884,-4.0017078 c -1.7454984,2.3720609 -1.7354408,5.6174519 -6e-7,8.035443 z"
         transform="scale(-0.6,-0.6)" />
    </marker>
    <marker
       inkscape:stockid="Arrow2Mend"
       orient="auto"
       refY="0"
       refX="0"
       id="marker3268"
       style="overflow:visible">
      <path
         inkscape:connector-curvature="0"
         id="path3270"
         style="fill-rule:evenodd;stroke-width:0.625;stroke-linejoin:round"
         d="M 8.7185878,4.0337352 -2.2072895,0.01601326 8.7185884,-4.0017078 c -1.7454984,2.3720609 -1.7354408,5.6174519 -6e-7,8.035443 z"
         transform="scale(-0.6,-0.6)" />
    </marker>
    <marker
       inkscape:stockid="Arrow2Mend"
       orient="auto"
       refY="0"
       refX="0"
       id="marker3272"
       style="overflow:visible">
      <path
         inkscape:connector-curvature="0"
         id="path3274"
         style="fill-rule:evenodd;stroke-width:0.625;stroke-linejoin:round"
         d="M 8.7185878,4.0337352 -2.2072895,0.01601326 8.7185884,-4.0017078 c -1.7454984,2.3720609 -1.7354408,5.6174519 -6e-7,8.035443 z"
         transform="scale(-0.6,-0.6)" />
    </marker>
    <clipPath
       clipPathUnits="userSpaceOnUse"
       id="clipPath5357">
      <rect
         style="color:#000000;fill:#009de1;fill-opacity:0.4;fill-rule:nonzero;stroke:#060307;stroke-width:0.99999994;stroke-linecap:round;stroke-linejoin:round;stroke-miterlimit:4.19999981;stroke-opacity:1;stroke-dasharray:none;stroke-dashoffset:0;marker:none;visibility:visible;display:inline;overflow:visible;enable-background:accumulate"
         id="rect5359"
         width="159.60411"
         height="37.375645"
         x="1055.6094"
         y="1138.2251" />
    </clipPath>
    <marker
       inkscape:stockid="Arrow2Mend"
       orient="auto"
       refY="0"
       refX="0"
       id="Arrow2Mend-0"
       style="overflow:visible">
      <path
         inkscape:connector-curvature="0"
         id="path4260-34"
         style="fill-rule:evenodd;stroke-width:0.625;stroke-linejoin:round"
         d="M 8.7185878,4.0337352 -2.2072895,0.01601326 8.7185884,-4.0017078 c -1.7454984,2.3720609 -1.7354408,5.6174519 -6e-7,8.035443 z"
         transform="scale(-0.6,-0.6)" />
    </marker>
    <marker
       inkscape:stockid="Arrow2Mend"
       orient="auto"
       refY="0"
       refX="0"
       id="Arrow2Mend-0-1"
       style="overflow:visible">
      <path
         inkscape:connector-curvature="0"
         id="path4260-34-5"
         style="fill-rule:evenodd;stroke-width:0.625;stroke-linejoin:round"
         d="M 8.7185878,4.0337352 -2.2072895,0.01601326 8.7185884,-4.0017078 c -1.7454984,2.3720609 -1.7354408,5.6174519 -6e-7,8.035443 z"
         transform="scale(-0.6,-0.6)" />
    </marker>
    <marker
       inkscape:stockid="Arrow2Mend"
       orient="auto"
       refY="0"
       refX="0"
       id="Arrow2Mend-37"
       style="overflow:visible">
      <path
         inkscape:connector-curvature="0"
         id="path4260-87"
         style="fill-rule:evenodd;stroke-width:0.625;stroke-linejoin:round"
         d="M 8.7185878,4.0337352 -2.2072895,0.01601326 8.7185884,-4.0017078 c -1.7454984,2.3720609 -1.7354408,5.6174519 -6e-7,8.035443 z"
         transform="scale(-0.6,-0.6)" />
    </marker>
    <marker
       inkscape:stockid="Arrow2Mend"
       orient="auto"
       refY="0"
       refX="0"
       id="Arrow2Mend-19"
       style="overflow:visible">
      <path
         inkscape:connector-curvature="0"
         id="path4260-09"
         style="fill-rule:evenodd;stroke-width:0.625;stroke-linejoin:round"
         d="M 8.7185878,4.0337352 -2.2072895,0.01601326 8.7185884,-4.0017078 c -1.7454984,2.3720609 -1.7354408,5.6174519 -6e-7,8.035443 z"
         transform="scale(-0.6,-0.6)" />
    </marker>
    <clipPath
       clipPathUnits="userSpaceOnUse"
       id="clipPath5843">
      <rect
         style="color:#000000;fill:#323232;fill-opacity:1;fill-rule:nonzero;stroke:none;stroke-width:0.99999994;marker:none;visibility:visible;display:inline;overflow:visible;enable-background:accumulate"
         id="rect5845"
         width="27.142857"
         height="97.14286"
         x="547.14288"
         y="1103.0764" />
    </clipPath>
  </defs>
  <sodipodi:namedview
     id="base"
     pagecolor="#ffffff"
     bordercolor="#666666"
     borderopacity="1.0"
     inkscape:pageopacity="0.0"
     inkscape:pageshadow="2"
     inkscape:zoom="0.98994949"
     inkscape:cx="417.93373"
     inkscape:cy="272.8736"
     inkscape:document-units="px"
     inkscape:current-layer="layer1"
     showgrid="false"
     showborder="true"
     borderlayer="true"
     inkscape:showpageshadow="false"
     inkscape:window-width="1366"
     inkscape:window-height="700"
     inkscape:window-x="-2"
     inkscape:window-y="21"
     inkscape:window-maximized="1"
     showguides="true"
     inkscape:guide-bbox="true"
     fit-margin-top="0"
     fit-margin-left="0"
     fit-margin-right="0"
     fit-margin-bottom="0" />
  <metadata
     id="metadata7">
    <rdf:RDF>
      <cc:Work
         rdf:about="">
        <dc:format>image/svg+xml</dc:format>
        <dc:type
           rdf:resource="http://purl.org/dc/dcmitype/StillImage" />
        <dc:title></dc:title>
      </cc:Work>
    </rdf:RDF>
  </metadata>
  <g
     inkscape:label="Layer 1"
     inkscape:groupmode="layer"
     id="layer1"
     transform="translate(-1.0911442,-558.89226)">
    <g
       class="diagram"
       id="g3961-5"
       transform="matrix(1.0771347,0,0,1.0771347,8.3577761,214.39315)"
       inkscape:export-filename="/home/stitch/Tese3/document/images/system/architecture_1.png"
       inkscape:export-xdpi="300"
       inkscape:export-ydpi="300">
      <rect
         y="493.2193"
         x="317.14285"
         height="37"
         width="117"
         id="rect3050-7-0"
         style="color:#000000;fill:#009de1;fill-opacity:0.4;fill-rule:nonzero;stroke:#060307;stroke-width:0.99999994;stroke-linecap:round;stroke-linejoin:round;stroke-miterlimit:4.19999981;stroke-opacity:1;stroke-dasharray:none;stroke-dashoffset:0;marker:none;visibility:visible;display:inline;overflow:visible;enable-background:accumulate" />
      <text
         sodipodi:linespacing="125%"
         id="text3004-2"
         y="515.41528"
         x="375.29691"
         style="font-size:14px;font-style:normal;font-variant:normal;font-weight:500;font-stretch:normal;text-align:center;line-height:125%;letter-spacing:0px;word-spacing:0px;text-anchor:middle;fill:#000000;fill-opacity:1;stroke:none;font-family:CMU Bright;-inkscape-font-specification:CMU Bright Medium"
         xml:space="preserve"><tspan
           y="515.41528"
           x="375.29691"
           id="tspan3006-7"
           sodipodi:role="line">Lookup</tspan></text>
    </g>
    <g
       class="diagram"
       id="g3966-2"
       transform="matrix(1.0771347,0,0,1.0771347,25.524716,248.16707)"
       inkscape:export-filename="/home/stitch/Tese3/document/images/system/architecture_1.png"
       inkscape:export-xdpi="300"
       inkscape:export-ydpi="300">
      <rect
         y="493.2193"
         x="455.71429"
         height="37"
         width="117"
         id="rect3050-89-8"
         style="color:#000000;fill:#009de1;fill-opacity:0.4;fill-rule:nonzero;stroke:#060307;stroke-width:0.99999994;stroke-linecap:round;stroke-linejoin:round;stroke-miterlimit:4.19999981;stroke-opacity:1;stroke-dasharray:none;stroke-dashoffset:0;marker:none;visibility:visible;display:inline;overflow:visible;enable-background:accumulate" />
      <text
         sodipodi:linespacing="125%"
         id="text3008-1"
         y="516.58429"
         x="514.24786"
         style="font-size:14px;font-style:normal;font-variant:normal;font-weight:500;font-stretch:normal;text-align:center;line-height:125%;letter-spacing:0px;word-spacing:0px;text-anchor:middle;fill:#000000;fill-opacity:1;stroke:none;font-family:CMU Bright;-inkscape-font-specification:CMU Bright Medium"
         xml:space="preserve"><tspan
           y="516.58429"
           x="514.24786"
           id="tspan3010-7"
           sodipodi:role="line">Animate</tspan></text>
    </g>
    <g
       class="diagram"
       id="g3971-7"
       transform="matrix(1.0771347,0,0,1.0771347,17.851542,250.16746)"
       inkscape:export-filename="/home/stitch/Tese3/document/images/system/architecture_1.png"
       inkscape:export-xdpi="300"
       inkscape:export-ydpi="300">
      <path
         transform="matrix(0.86076078,0,0,0.97999997,584.61118,19.647241)"
         d="m 135.71428,500.21933 c 0,9.86223 -25.26393,17.85714 -56.428567,17.85714 -31.164638,0 -56.42857,-7.99491 -56.42857,-17.85714 0,-9.86223 25.263932,-17.85714 56.42857,-17.85714 31.164637,0 56.428567,7.99491 56.428567,17.85714 z"
         sodipodi:ry="17.857143"
         sodipodi:rx="56.42857"
         sodipodi:cy="500.21933"
         sodipodi:cx="79.285713"
         id="path3048-9-9"
         style="color:#000000;fill:#009de1;fill-opacity:0.4;fill-rule:nonzero;stroke:#060307;stroke-width:1.08879399;stroke-linecap:round;stroke-linejoin:round;stroke-miterlimit:4.19999981;stroke-opacity:1;stroke-dasharray:none;stroke-dashoffset:0;marker:none;visibility:visible;display:inline;overflow:visible;enable-background:accumulate"
         sodipodi:type="arc" />
      <text
         sodipodi:linespacing="125%"
         id="text3012-7"
         y="513.5022"
         x="652.28308"
         style="font-size:14px;font-style:normal;font-variant:normal;font-weight:500;font-stretch:normal;text-align:center;line-height:125%;letter-spacing:0px;word-spacing:0px;text-anchor:middle;fill:#000000;fill-opacity:1;stroke:none;font-family:CMU Bright;-inkscape-font-specification:CMU Bright Medium"
         xml:space="preserve"><tspan
           y="513.5022"
           x="652.28308"
           id="tspan3014-9"
           sodipodi:role="line">Display</tspan></text>
    </g>
    <g
       class="diagram"
       id="g3956-8"
       transform="matrix(1.0758322,0,0,1.0771347,-9.0290396,181.58621)"
       inkscape:export-filename="/home/stitch/Tese3/document/images/system/architecture_1.png"
       inkscape:export-xdpi="300"
       inkscape:export-ydpi="300">
      <rect
         y="491.35202"
         x="170.90036"
         height="37"
         width="117.14286"
         id="rect3050-898"
         style="color:#000000;fill:#009de1;fill-opacity:0.4;fill-rule:nonzero;stroke:#060307;stroke-width:1.00060511;stroke-linecap:round;stroke-linejoin:round;stroke-miterlimit:4.19999981;stroke-opacity:1;stroke-dasharray:none;stroke-dashoffset:0;marker:none;visibility:visible;display:inline;overflow:visible;enable-background:accumulate" />
      <text
         sodipodi:linespacing="125%"
         id="text3016-0"
         y="514.71002"
         x="229.14137"
         style="font-size:15px;font-style:normal;font-variant:normal;font-weight:500;font-stretch:normal;text-align:center;line-height:125%;letter-spacing:0px;word-spacing:0px;text-anchor:middle;fill:#000000;fill-opacity:1;stroke:none;font-family:CMU Bright;-inkscape-font-specification:CMU Bright Medium"
         xml:space="preserve"><tspan
           y="514.71002"
           x="229.14137"
           id="tspan3018-5"
           sodipodi:role="line"
           style="font-size:14px;text-align:center;text-anchor:middle">Gloss Translate</tspan></text>
    </g>
    <g
       class="diagram"
       id="g3951-2"
       transform="matrix(1.0771347,0,0,1.0771347,11.323119,181.6756)"
       inkscape:export-filename="/home/stitch/Tese3/document/images/system/architecture_1.png"
       inkscape:export-xdpi="300"
       inkscape:export-ydpi="300">
      <path
         transform="matrix(0.86075949,0,0,0.97999997,10.534439,19.554099)"
         d="m 135.71428,500.21933 c 0,9.86223 -25.26393,17.85714 -56.428567,17.85714 -31.164638,0 -56.42857,-7.99491 -56.42857,-17.85714 0,-9.86223 25.263932,-17.85714 56.42857,-17.85714 31.164637,0 56.428567,7.99491 56.428567,17.85714 z"
         sodipodi:ry="17.857143"
         sodipodi:rx="56.42857"
         sodipodi:cy="500.21933"
         sodipodi:cx="79.285713"
         id="path3048-0"
         style="color:#000000;fill:#009de1;fill-opacity:0.4;fill-rule:nonzero;stroke:#060307;stroke-width:1.08879483;stroke-linecap:round;stroke-linejoin:round;stroke-miterlimit:4.19999981;stroke-opacity:1;stroke-dasharray:none;stroke-dashoffset:0;marker:none;visibility:visible;display:inline;overflow:visible;enable-background:accumulate"
         sodipodi:type="arc" />
      <text
         sodipodi:linespacing="125%"
         id="text3020-2"
         y="513.46503"
         x="78.730713"
         style="font-size:14px;font-style:normal;font-variant:normal;font-weight:500;font-stretch:normal;text-align:center;line-height:125%;letter-spacing:0px;word-spacing:0px;text-anchor:middle;fill:#000000;fill-opacity:1;stroke:none;font-family:CMU Bright;-inkscape-font-specification:CMU Bright Medium"
         xml:space="preserve"><tspan
           y="513.46503"
           x="78.730713"
           id="tspan3022-4"
           sodipodi:role="line">Text Input</tspan></text>
    </g>
    <g
       class="diagram"
       id="g4494"
       transform="matrix(0.76190159,0,0,0.76190159,3.6270196,146.638)">
      <path
         style="font-size:medium;font-style:normal;font-variant:normal;font-weight:normal;font-stretch:normal;text-indent:0;text-align:start;text-decoration:none;line-height:normal;letter-spacing:normal;word-spacing:normal;text-transform:none;direction:ltr;block-progression:tb;writing-mode:lr-tb;text-anchor:start;baseline-shift:baseline;color:#000000;fill:#000000;fill-opacity:1;stroke:none;stroke-width:1.41374516px;marker:none;visibility:visible;display:inline;overflow:visible;enable-background:accumulate;font-family:Sans;-inkscape-font-specification:Sans"
         d="m 189.59375,767.5625 0,1.40625 33.34375,0 0,-1.40625 -33.34375,0 z"
         id="path5655"
         inkscape:connector-curvature="0" />
      <path
         inkscape:connector-curvature="0"
         d="m 215.53501,764.84723 9.26785,3.40802 -9.26785,3.40802 c 1.48062,-2.0121 1.47209,-4.76499 0,-6.81604 z"
         style="fill-rule:evenodd;stroke-width:0.625;stroke-linejoin:round"
         id="path4500" />
    </g>
    <g
       class="diagram"
       id="g4422"
       transform="matrix(0.76190159,0,0,0.76190159,3.6270196,146.638)">
      <text
         inkscape:export-ydpi="300"
         inkscape:export-xdpi="300"
         inkscape:export-filename="/home/stitch/Tese3/document/images/system/architecture_1.png"
         xml:space="preserve"
         style="font-size:19.79243279px;font-style:normal;font-variant:normal;font-weight:500;font-stretch:normal;line-height:125%;letter-spacing:0px;word-spacing:0px;fill:#000000;fill-opacity:1;stroke:none;font-family:CMU Bright;-inkscape-font-specification:CMU Bright Medium"
         x="405.22491"
         y="758.0285"
         id="text3016-9-1"
         sodipodi:linespacing="125%"><tspan
           sodipodi:role="line"
           id="tspan3018-3-4"
           x="405.22491"
           y="758.0285">sequence of glosses</tspan></text>
      <g
         id="g4458">
        <path
           style="font-size:medium;font-style:normal;font-variant:normal;font-weight:normal;font-stretch:normal;text-indent:0;text-align:start;text-decoration:none;line-height:normal;letter-spacing:normal;word-spacing:normal;text-transform:none;direction:ltr;block-progression:tb;writing-mode:lr-tb;text-anchor:start;baseline-shift:baseline;color:#000000;fill:#000000;fill-opacity:1;stroke:none;stroke-width:1.41374516px;marker:none;visibility:visible;display:inline;overflow:visible;enable-background:accumulate;font-family:Sans;-inkscape-font-specification:Sans"
           d="m 479.15625,766.1875 c -12.67617,-0.20313 -26.75976,0.22236 -39.9375,0.875 -26.35547,1.30529 -49,3.53125 -49,3.53125 l 0.125,1.40625 c 0,0 22.62158,-2.22792 48.9375,-3.53125 26.31592,-1.30333 56.40322,-1.64537 71,2 12.38839,3.09385 24.0625,15.0625 24.0625,15.0625 l 1.03125,-1 c 0,0 -11.74219,-12.1577 -24.75,-15.40625 -7.52717,-1.87982 -18.79258,-2.73437 -31.46875,-2.9375 z"
           id="path5655-2"
           inkscape:connector-curvature="0" />
        <path
           inkscape:connector-curvature="0"
           d="m 532.1613,777.34145 4.0104,9.02353 -8.90088,-4.27573 c 2.47501,-0.33922 4.44426,-2.2629 4.89048,-4.7478 z"
           style="fill-rule:evenodd;stroke-width:0.625;stroke-linejoin:round"
           id="path4464" />
      </g>
    </g>
    <path
       style="fill:none;stroke:#000000;stroke-width:1.07713473px;stroke-linecap:butt;stroke-linejoin:miter;stroke-opacity:1;marker-end:url(#Arrow2Mend)"
       d="m 642.49971,801.35516 25.3896,0"
       id="path5655-3"
       inkscape:connector-curvature="0"
       inkscape:export-filename="/home/stitch/Tese3/document/images/system/architecture_1.png"
       inkscape:export-xdpi="300"
       inkscape:export-ydpi="300" />
    <g
       class="diagram"
       id="g4427"
       transform="matrix(0.76190159,0,0,0.76190159,3.6270196,146.638)">
      <text
         inkscape:export-ydpi="300"
         inkscape:export-xdpi="300"
         inkscape:export-filename="/home/stitch/Tese3/document/images/system/architecture_1.png"
         xml:space="preserve"
         style="font-size:19.79243279px;font-style:normal;font-variant:normal;font-weight:500;font-stretch:normal;line-height:125%;letter-spacing:0px;word-spacing:0px;fill:#000000;fill-opacity:1;stroke:none;font-family:CMU Bright;-inkscape-font-specification:CMU Bright Medium"
         x="637.72192"
         y="805.3761"
         id="text3016-3-2"
         sodipodi:linespacing="125%"><tspan
           sodipodi:role="line"
           id="tspan3018-6-0"
           x="637.72192"
           y="805.3761">sequence of actions</tspan></text>
      <g
         class="diagram"
         id="g4476">
        <path
           style="font-size:medium;font-style:normal;font-variant:normal;font-weight:normal;font-stretch:normal;text-indent:0;text-align:start;text-decoration:none;line-height:normal;letter-spacing:normal;word-spacing:normal;text-transform:none;direction:ltr;block-progression:tb;writing-mode:lr-tb;text-anchor:start;baseline-shift:baseline;color:#000000;fill:#000000;fill-opacity:1;stroke:none;stroke-width:1.41374516px;marker:none;visibility:visible;display:inline;overflow:visible;enable-background:accumulate;font-family:Sans;-inkscape-font-specification:Sans"
           d="m 708.28125,811.15625 c -12.67617,-0.20313 -26.75976,0.22236 -39.9375,0.875 -26.35547,1.30529 -49,3.53125 -49,3.53125 l 0.15625,1.40625 c 0,0 22.59033,-2.22792 48.90625,-3.53125 26.31592,-1.30333 56.40323,-1.64537 71,2 C 751.79464,818.53135 763.5,830.5 763.5,830.5 l 1,-1 c 0,0 -11.74219,-12.1577 -24.75,-15.40625 -7.52717,-1.87982 -18.79258,-2.73437 -31.46875,-2.9375 z"
           id="path5655-2-4"
           inkscape:connector-curvature="0" />
        <path
           inkscape:connector-curvature="0"
           d="m 761.30183,822.30991 4.0104,9.02353 -8.90088,-4.27573 c 2.47501,-0.33922 4.44426,-2.2629 4.89048,-4.7478 z"
           style="fill-rule:evenodd;stroke-width:0.625;stroke-linejoin:round"
           id="path4482" />
      </g>
    </g>
    <g
       class="diagram"
       id="g4466"
       transform="matrix(0.76190159,0,0,0.76190159,3.6270196,146.638)">
      <path
         style="font-size:medium;font-style:normal;font-variant:normal;font-weight:normal;font-stretch:normal;text-indent:0;text-align:start;text-decoration:none;line-height:normal;letter-spacing:normal;word-spacing:normal;text-transform:none;direction:ltr;block-progression:tb;writing-mode:lr-tb;text-anchor:start;baseline-shift:baseline;color:#000000;fill:#000000;fill-opacity:1;stroke:none;stroke-width:1.41374516px;marker:none;visibility:visible;display:inline;overflow:visible;enable-background:accumulate;font-family:Sans;-inkscape-font-specification:Sans"
         d="m 492.28125,840.25 -32.625,41.125 1.125,0.875 32.625,-41.09375 -1.125,-0.90625 z"
         id="path5655-3-7"
         inkscape:connector-curvature="0" />
      <path
         inkscape:connector-curvature="0"
         d="m 468.21078,876.71436 -8.43074,5.14102 3.09169,-9.37811 c 0.65568,2.41056 2.81735,4.11518 5.33905,4.23709 z"
         style="fill-rule:evenodd;stroke-width:0.625;stroke-linejoin:round"
         id="path4472"
         sodipodi:nodetypes="cccc" />
      <path
         inkscape:connector-curvature="0"
         d="m 485.56429,844.36776 8.43074,-5.14102 -3.09169,9.37811 c -0.65568,-2.41056 -2.81735,-4.11518 -5.33905,-4.23709 z"
         style="fill-rule:evenodd;stroke-width:0.625;stroke-linejoin:round"
         id="path4474" />
    </g>
    <g
       class="diagram"
       id="g4432"
       transform="matrix(0.76190159,0,0,0.76190159,3.6270196,146.638)">
      <text
         inkscape:export-ydpi="300"
         inkscape:export-xdpi="300"
         inkscape:export-filename="/home/stitch/Tese3/document/images/system/architecture_1.png"
         sodipodi:linespacing="125%"
         id="text3024-3"
         y="704.2182"
         x="669.41089"
         style="font-size:18.37868881px;font-style:oblique;font-variant:normal;font-weight:500;font-stretch:normal;line-height:125%;letter-spacing:0px;word-spacing:0px;fill:#323232;fill-opacity:1;stroke:none;font-family:CMU Bright;-inkscape-font-specification:CMU Bright Medium Oblique"
         xml:space="preserve"><tspan
           y="704.2182"
           x="669.41089"
           id="tspan3026-7"
           sodipodi:role="line">SignWritting</tspan></text>
      <text
         inkscape:export-ydpi="300"
         inkscape:export-xdpi="300"
         inkscape:export-filename="/home/stitch/Tese3/document/images/system/architecture_1.png"
         sodipodi:linespacing="125%"
         id="text3028-3"
         y="647.66852"
         x="514.90869"
         style="font-size:18.37868881px;font-style:oblique;font-variant:normal;font-weight:500;font-stretch:normal;line-height:125%;letter-spacing:0px;word-spacing:0px;fill:#323232;fill-opacity:1;stroke:none;font-family:CMU Bright;-inkscape-font-specification:CMU Bright Medium Oblique"
         xml:space="preserve"><tspan
           y="647.66852"
           x="514.90869"
           id="tspan3030-0"
           sodipodi:role="line">HamNoSys</tspan></text>
      <text
         inkscape:export-ydpi="300"
         inkscape:export-xdpi="300"
         inkscape:export-filename="/home/stitch/Tese3/document/images/system/architecture_1.png"
         sodipodi:linespacing="125%"
         id="text3032-0"
         y="668.87457"
         x="513.89886"
         style="font-size:18.37868881px;font-style:oblique;font-variant:normal;font-weight:500;font-stretch:normal;line-height:125%;letter-spacing:0px;word-spacing:0px;fill:#323232;fill-opacity:1;stroke:none;font-family:CMU Bright;-inkscape-font-specification:CMU Bright Medium Oblique"
         xml:space="preserve"><tspan
           y="668.87457"
           x="513.89886"
           id="tspan3034-1"
           sodipodi:role="line">Other sign notations</tspan></text>
      <g
         id="g4486">
        <path
           style="font-size:medium;font-style:normal;font-variant:normal;font-weight:normal;font-stretch:normal;text-indent:0;text-align:start;text-decoration:none;line-height:normal;letter-spacing:normal;word-spacing:normal;text-transform:none;direction:ltr;block-progression:tb;writing-mode:lr-tb;text-anchor:start;baseline-shift:baseline;color:#000000;fill:#323232;fill-opacity:1;stroke:none;stroke-width:1.13099623;marker:none;visibility:visible;display:inline;overflow:visible;enable-background:accumulate;font-family:Sans;-inkscape-font-specification:Sans"
           d="m 662.8125,697.71875 c 0,0 -13.10234,1.21812 -27.375,12.78125 -14.27266,11.56313 -29.74176,33.4766 -34.78125,74.71875 L 601.75,785.375 c 5.01155,-41.01344 20.36505,-62.62439 34.40625,-74 14.0412,-11.37561 26.75,-12.53125 26.75,-12.53125 l -0.0937,-1.125 z"
           id="path4202-2-3"
           inkscape:connector-curvature="0" />
        <path
           inkscape:connector-curvature="0"
           d="m 604.63806,779.75548 -3.60557,7.02885 -1.80701,-7.69022 c 1.45413,1.37098 3.64101,1.63133 5.41258,0.66137 z"
           style="fill-rule:evenodd;stroke-width:0.625;stroke-linejoin:round"
           id="path4492" />
      </g>
      <path
         style="font-size:medium;font-style:normal;font-variant:normal;font-weight:normal;font-stretch:normal;text-indent:0;text-align:start;text-decoration:none;line-height:normal;letter-spacing:normal;word-spacing:normal;text-transform:none;direction:ltr;block-progression:tb;writing-mode:lr-tb;text-anchor:start;baseline-shift:baseline;color:#000000;fill:#323232;fill-opacity:1;stroke:none;stroke-width:1.13099623;marker:none;visibility:visible;display:inline;overflow:visible;enable-background:accumulate;font-family:Sans;-inkscape-font-specification:Sans"
         d="m 577.5,675 -0.65625,0.90625 c 0,0 11.62215,8.76408 20.4375,26.28125 8.81535,17.51717 14.78283,43.733 3.375,78.65625 l 1.09375,0.34375 c 11.4961,-35.1935 5.4582,-61.76108 -3.46875,-79.5 C 589.3543,683.94858 577.5,675 577.5,675 z"
         id="path4202-2-8"
         inkscape:connector-curvature="0" />
    </g>
    <flowRoot
       xml:space="preserve"
       id="flowRoot3189"
       style="font-size:15px;font-style:normal;font-variant:normal;font-weight:500;font-stretch:normal;line-height:125%;letter-spacing:0px;word-spacing:0px;fill:#000000;fill-opacity:1;stroke:none;font-family:CMU Bright;-inkscape-font-specification:CMU Bright Medium"
       transform="matrix(0.76190159,0,0,0.76190159,3.6270196,146.638)"><flowRegion
         id="flowRegion3191"><rect
           id="rect3193"
           width="86.368042"
           height="19.192898"
           x="1005.6069"
           y="914.47638" /></flowRegion><flowPara
         id="flowPara3195" /></flowRoot>    <g
       class="diagram"
       id="g4521"
       transform="matrix(0.76190159,0,0,0.76190159,-2.9035654,145.54956)">
      <path
         inkscape:connector-curvature="0"
         id="rect3050-8-5-4-9"
         d="m 425.92606,881.46626 c -31.71296,0 -57.64796,3.95664 -59.64238,8.96845 l -0.17671,0 0,47.97898 0.13246,0 c 1.73437,5.05889 27.82428,9.10098 59.68656,9.10098 33.01314,0 59.77491,-4.32968 59.77491,-9.63114 l -0.13246,0 0,-46.25597 c 0.0707,-0.19125 0.13246,-0.38024 0.13246,-0.57434 0,-0.19631 -0.0602,-0.38094 -0.13246,-0.57433 -0.004,-0.0127 0.004,-0.0319 0,-0.0441 -1.99442,-5.01181 -27.92942,-8.96845 -59.64238,-8.96845 z"
         style="color:#000000;fill:#009de1;fill-opacity:0.4;fill-rule:nonzero;stroke:#060307;stroke-width:1.41374516;stroke-linecap:round;stroke-linejoin:round;stroke-miterlimit:4.19999981;stroke-opacity:1;stroke-dasharray:none;stroke-dashoffset:0;marker:none;visibility:visible;display:inline;overflow:visible;enable-background:accumulate" />
      <path
         inkscape:connector-curvature="0"
         id="path5085-0"
         d="m 485.48637,890.75108 c 0,5.01936 -26.67454,9.08836 -59.57925,9.08836 -32.90472,0 -59.57927,-4.069 -59.57927,-9.08836 0,-5.01936 26.67455,-9.08836 59.57927,-9.08836 32.90471,0 59.57925,4.069 59.57925,9.08836 z"
         style="color:#000000;fill:none;stroke:#060307;stroke-width:1.41374516;stroke-linecap:round;stroke-linejoin:round;stroke-miterlimit:4.19999981;stroke-opacity:1;stroke-dashoffset:0;marker:none;visibility:visible;display:inline;overflow:visible;enable-background:accumulate" />
      <text
         xml:space="preserve"
         style="font-size:18.3786869px;font-style:normal;font-variant:normal;font-weight:500;font-stretch:normal;text-align:center;line-height:125%;letter-spacing:0px;word-spacing:0px;text-anchor:middle;fill:#000000;fill-opacity:1;stroke:none;font-family:CMU Bright;-inkscape-font-specification:CMU Bright Medium"
         x="425.31714"
         y="925.66766"
         id="text3004-0-4-76-2"
         sodipodi:linespacing="125%"><tspan
           sodipodi:role="line"
           id="tspan3006-8-8-5-0"
           x="425.31714"
           y="925.66766">DataBase</tspan></text>
    </g>
    <g
       id="g3432">
      <text
         inkscape:export-ydpi="300"
         inkscape:export-xdpi="300"
         inkscape:export-filename="/home/stitch/Tese3/document/images/system/architecture_1.png"
         sodipodi:linespacing="125%"
         id="text3036-5"
         y="579.88983"
         x="48.253448"
         style="font-size:14.0027523px;font-style:oblique;font-variant:normal;font-weight:500;font-stretch:normal;line-height:125%;letter-spacing:0px;word-spacing:0px;fill:#323232;fill-opacity:1;stroke:none;font-family:CMU Bright;-inkscape-font-specification:CMU Bright Medium Oblique"
         xml:space="preserve"><tspan
           y="579.88983"
           x="48.253448"
           id="tspan3038-8"
           sodipodi:role="line">Voice</tspan></text>
      <text
         inkscape:export-ydpi="300"
         inkscape:export-xdpi="300"
         inkscape:export-filename="/home/stitch/Tese3/document/images/system/architecture_1.png"
         sodipodi:linespacing="125%"
         id="text3040-0"
         y="599.19647"
         x="49.149628"
         style="font-size:14.0027523px;font-style:oblique;font-variant:normal;font-weight:500;font-stretch:normal;line-height:125%;letter-spacing:0px;word-spacing:0px;fill:#323232;fill-opacity:1;stroke:none;font-family:CMU Bright;-inkscape-font-specification:CMU Bright Medium Oblique"
         xml:space="preserve"><tspan
           y="599.19647"
           x="49.149628"
           id="tspan3042-0"
           sodipodi:role="line">Handwriting</tspan></text>
      <text
         inkscape:export-ydpi="300"
         inkscape:export-xdpi="300"
         inkscape:export-filename="/home/stitch/Tese3/document/images/system/architecture_1.png"
         sodipodi:linespacing="125%"
         id="text3044-0"
         y="618.50305"
         x="49.149628"
         style="font-size:14.0027523px;font-style:oblique;font-variant:normal;font-weight:500;font-stretch:normal;line-height:125%;letter-spacing:0px;word-spacing:0px;fill:#323232;fill-opacity:1;stroke:none;font-family:CMU Bright;-inkscape-font-specification:CMU Bright Medium Oblique"
         xml:space="preserve"><tspan
           y="618.50305"
           x="49.149628"
           id="tspan3046-4"
           sodipodi:role="line">Interactive text</tspan></text>
      <text
         inkscape:export-ydpi="300"
         inkscape:export-xdpi="300"
         inkscape:export-filename="/home/stitch/Tese3/document/images/system/architecture_1.png"
         sodipodi:linespacing="125%"
         id="text3044-2-0"
         y="629.16998"
         x="49.037617"
         style="font-size:14.0027523px;font-style:oblique;font-variant:normal;font-weight:500;font-stretch:normal;line-height:125%;letter-spacing:0px;word-spacing:0px;fill:#323232;fill-opacity:1;stroke:none;font-family:CMU Bright;-inkscape-font-specification:CMU Bright Medium Oblique"
         xml:space="preserve"><tspan
           y="629.16998"
           x="49.037617"
           id="tspan3046-9-0"
           sodipodi:role="line">...</tspan></text>
      <path
         style="font-size:medium;font-style:normal;font-variant:normal;font-weight:normal;font-stretch:normal;text-indent:0;text-align:start;text-decoration:none;line-height:normal;letter-spacing:normal;word-spacing:normal;text-transform:none;direction:ltr;block-progression:tb;writing-mode:lr-tb;text-anchor:start;baseline-shift:baseline;color:#000000;fill:#323232;fill-opacity:1;stroke:none;stroke-width:1.13099623;marker:none;visibility:visible;display:inline;overflow:visible;enable-background:accumulate;font-family:Sans;-inkscape-font-specification:Sans"
         d="m 42.317335,576.32669 c 0,0 -14.831357,21.78937 -22.547525,49.85693 -7.716169,28.06757 -8.306373,62.5308 20.309439,87.6663 l 0.571426,-0.66666 C 12.332222,688.30894 12.931669,654.30288 20.603139,626.39791 28.27461,598.49293 43.031617,576.80288 43.031617,576.80288 l -0.714282,-0.47619 z"
         id="path4202"
         inkscape:connector-curvature="0" />
      <path
         style="font-size:medium;font-style:normal;font-variant:normal;font-weight:normal;font-stretch:normal;text-indent:0;text-align:start;text-decoration:none;line-height:normal;letter-spacing:normal;word-spacing:normal;text-transform:none;direction:ltr;block-progression:tb;writing-mode:lr-tb;text-anchor:start;baseline-shift:baseline;color:#000000;fill:#323232;fill-opacity:1;stroke:none;stroke-width:1.13099623;marker:none;visibility:visible;display:inline;overflow:visible;enable-background:accumulate;font-family:Sans;-inkscape-font-specification:Sans"
         d="m 42.293525,597.08851 c 0,0 -13.321196,18.14598 -19.499919,42.57125 -6.178722,24.42526 -5.189724,55.2163 23.404665,80.333 l 0.571426,-0.64286 C 18.429821,694.45677 17.495548,664.08838 23.626936,639.85023 29.758325,615.61209 42.983999,597.5885 42.983999,597.5885 l -0.690474,-0.49999 z"
         id="path4202-5"
         inkscape:connector-curvature="0" />
      <g
         transform="matrix(0.76190159,0,0,0.76190159,3.6270196,146.638)"
         class="diagram"
         id="g4506">
        <path
           style="font-size:medium;font-style:normal;font-variant:normal;font-weight:normal;font-stretch:normal;text-indent:0;text-align:start;text-decoration:none;line-height:normal;letter-spacing:normal;word-spacing:normal;text-transform:none;direction:ltr;block-progression:tb;writing-mode:lr-tb;text-anchor:start;baseline-shift:baseline;color:#000000;fill:#323232;fill-opacity:1;stroke:none;stroke-width:1.13099623;marker:none;visibility:visible;display:inline;overflow:visible;enable-background:accumulate;font-family:Sans;-inkscape-font-specification:Sans"
           d="m 50.78125,619.46875 c 0,0 -15.486594,18.7415 -22.71875,44.625 -7.232156,25.8835 -6.166176,59.0251 26.8125,87.4375 l 0.75,-0.84375 C 22.965505,722.55009 21.998499,690.02346 29.15625,664.40625 36.314001,638.78904 51.625,620.1875 51.625,620.1875 l -0.84375,-0.71875 z"
           id="path4202-2"
           inkscape:connector-curvature="0" />
        <path
           inkscape:connector-curvature="0"
           d="m 52.545954,745.16643 3.837563,6.90493 -7.396677,-2.77381 c 1.948031,-0.44638 3.380331,-2.11933 3.559114,-4.13112 z"
           style="fill-rule:evenodd;stroke-width:0.625;stroke-linejoin:round"
           id="path4512" />
      </g>
    </g>
    <text
       inkscape:export-ydpi="300"
       inkscape:export-xdpi="300"
       inkscape:export-filename="/home/stitch/Tese3/document/images/system/architecture_1.png"
       xml:space="preserve"
       style="font-size:15.14000034px;font-style:normal;font-variant:normal;font-weight:500;font-stretch:normal;line-height:125%;letter-spacing:0px;word-spacing:0px;fill:#323232;fill-opacity:1;stroke:none;font-family:CMU Bright;-inkscape-font-specification:CMU Bright Medium"
       x="29.053988"
       y="668.87152"
       id="text3016-9-1-1"
       sodipodi:linespacing="125%"><tspan
         sodipodi:role="line"
         id="tspan3018-3-4-2"
         x="29.053988"
         y="668.87152">Natural Language Processing</tspan><tspan
         sodipodi:role="line"
         x="29.053988"
         y="687.79651"
         id="tspan3754">Modules</tspan></text>
    <rect
       style="color:#000000;fill:none;stroke:none;stroke-width:0.99999994;marker:none;visibility:visible;display:inline;overflow:visible;enable-background:accumulate"
       id="rect4722"
       width="781.85809"
       height="323.24881"
       x="-11.111678"
       y="-10.255492"
       transform="translate(15.23328,570.15791)" />
    <rect
       style="color:#000000;fill:none;stroke:none;stroke-width:0.99999994;marker:none;visibility:visible;display:inline;overflow:visible;enable-background:accumulate"
       id="rect4743"
       width="847.51794"
       height="393.9595"
       x="-3.0304577"
       y="-1.0101571"
       transform="translate(4.1216019,559.90242)" />
    <rect
       style="color:#000000;fill:none;stroke:none;stroke-width:0.99999994;marker:none;visibility:visible;display:inline;overflow:visible;enable-background:accumulate"
       id="rect4745"
       width="952.57385"
       height="374.7666"
       x="4.0406103"
       y="5.0507736"
       transform="translate(1.0911442,558.89226)" />
  </g>
</svg>
