<?xml version="1.0" encoding="UTF-8" standalone="no"?>
<!-- Created with Inkscape (http://www.inkscape.org/) -->

<svg
   xmlns:dc="http://purl.org/dc/elements/1.1/"
   xmlns:cc="http://creativecommons.org/ns#"
   xmlns:rdf="http://www.w3.org/1999/02/22-rdf-syntax-ns#"
   xmlns:svg="http://www.w3.org/2000/svg"
   xmlns="http://www.w3.org/2000/svg"
   xmlns:sodipodi="http://sodipodi.sourceforge.net/DTD/sodipodi-0.dtd"
   xmlns:inkscape="http://www.inkscape.org/namespaces/inkscape"
   width="744.09448819"
   height="1052.3622047"
   id="svg2"
   version="1.1"
   inkscape:version="0.48.5 r10040"
   sodipodi:docname="nlp_short.svg">
  <defs
     id="defs4">
    <marker
       inkscape:stockid="Arrow2Mend"
       orient="auto"
       refY="0.0"
       refX="0.0"
       id="Arrow2Mend"
       style="overflow:visible;">
      <path
         id="path5283"
         style="fill-rule:evenodd;stroke-width:0.62500000;stroke-linejoin:round;"
         d="M 8.7185878,4.0337352 L -2.2072895,0.016013256 L 8.7185884,-4.0017078 C 6.9730900,-1.6296469 6.9831476,1.6157441 8.7185878,4.0337352 z "
         transform="scale(0.6) rotate(180) translate(0,0)" />
    </marker>
    <marker
       inkscape:stockid="Arrow2Mstart"
       orient="auto"
       refY="0.0"
       refX="0.0"
       id="Arrow2Mstart"
       style="overflow:visible">
      <path
         id="path5280"
         style="fill-rule:evenodd;stroke-width:0.62500000;stroke-linejoin:round"
         d="M 8.7185878,4.0337352 L -2.2072895,0.016013256 L 8.7185884,-4.0017078 C 6.9730900,-1.6296469 6.9831476,1.6157441 8.7185878,4.0337352 z "
         transform="scale(0.6) translate(0,0)" />
    </marker>
    <marker
       inkscape:stockid="Arrow2Mend"
       orient="auto"
       refY="0"
       refX="0"
       id="Arrow2Mend-9"
       style="overflow:visible">
      <path
         inkscape:connector-curvature="0"
         id="path5283-9"
         style="fill-rule:evenodd;stroke-width:0.625;stroke-linejoin:round"
         d="M 8.7185878,4.0337352 -2.2072895,0.01601326 8.7185884,-4.0017078 c -1.7454984,2.3720609 -1.7354408,5.6174519 -6e-7,8.035443 z"
         transform="scale(-0.6,-0.6)" />
    </marker>
    <marker
       inkscape:stockid="Arrow2Mend"
       orient="auto"
       refY="0"
       refX="0"
       id="Arrow2Mend-6"
       style="overflow:visible">
      <path
         inkscape:connector-curvature="0"
         id="path5283-3"
         style="fill-rule:evenodd;stroke-width:0.625;stroke-linejoin:round"
         d="M 8.7185878,4.0337352 -2.2072895,0.01601326 8.7185884,-4.0017078 c -1.7454984,2.3720609 -1.7354408,5.6174519 -6e-7,8.035443 z"
         transform="scale(-0.6,-0.6)" />
    </marker>
    <marker
       inkscape:stockid="Arrow2Mend"
       orient="auto"
       refY="0"
       refX="0"
       id="Arrow2Mend-2"
       style="overflow:visible">
      <path
         inkscape:connector-curvature="0"
         id="path5283-2"
         style="fill-rule:evenodd;stroke-width:0.625;stroke-linejoin:round"
         d="M 8.7185878,4.0337352 -2.2072895,0.01601326 8.7185884,-4.0017078 c -1.7454984,2.3720609 -1.7354408,5.6174519 -6e-7,8.035443 z"
         transform="scale(-0.6,-0.6)" />
    </marker>
    <marker
       inkscape:stockid="Arrow2Mend"
       orient="auto"
       refY="0"
       refX="0"
       id="Arrow2Mend-90"
       style="overflow:visible">
      <path
         inkscape:connector-curvature="0"
         id="path5283-35"
         style="fill-rule:evenodd;stroke-width:0.625;stroke-linejoin:round"
         d="M 8.7185878,4.0337352 -2.2072895,0.01601326 8.7185884,-4.0017078 c -1.7454984,2.3720609 -1.7354408,5.6174519 -6e-7,8.035443 z"
         transform="scale(-0.6,-0.6)" />
    </marker>
    <marker
       inkscape:stockid="Arrow2Mend"
       orient="auto"
       refY="0"
       refX="0"
       id="Arrow2Mend-8"
       style="overflow:visible">
      <path
         inkscape:connector-curvature="0"
         id="path5283-7"
         style="fill-rule:evenodd;stroke-width:0.625;stroke-linejoin:round"
         d="M 8.7185878,4.0337352 -2.2072895,0.01601326 8.7185884,-4.0017078 c -1.7454984,2.3720609 -1.7354408,5.6174519 -6e-7,8.035443 z"
         transform="scale(-0.6,-0.6)" />
    </marker>
    <marker
       inkscape:stockid="Arrow2Mend"
       orient="auto"
       refY="0"
       refX="0"
       id="Arrow2Mend-7"
       style="overflow:visible">
      <path
         inkscape:connector-curvature="0"
         id="path5283-0"
         style="fill-rule:evenodd;stroke-width:0.625;stroke-linejoin:round"
         d="M 8.7185878,4.0337352 -2.2072895,0.01601326 8.7185884,-4.0017078 c -1.7454984,2.3720609 -1.7354408,5.6174519 -6e-7,8.035443 z"
         transform="scale(-0.6,-0.6)" />
    </marker>
    <marker
       inkscape:stockid="Arrow2Mend"
       orient="auto"
       refY="0"
       refX="0"
       id="Arrow2Mend-4"
       style="overflow:visible">
      <path
         inkscape:connector-curvature="0"
         id="path5283-1"
         style="fill-rule:evenodd;stroke-width:0.625;stroke-linejoin:round"
         d="M 8.7185878,4.0337352 -2.2072895,0.01601326 8.7185884,-4.0017078 c -1.7454984,2.3720609 -1.7354408,5.6174519 -6e-7,8.035443 z"
         transform="scale(-0.6,-0.6)" />
    </marker>
    <marker
       inkscape:stockid="Arrow2Mend"
       orient="auto"
       refY="0"
       refX="0"
       id="Arrow2Mend-1"
       style="overflow:visible">
      <path
         inkscape:connector-curvature="0"
         id="path5283-91"
         style="fill-rule:evenodd;stroke-width:0.625;stroke-linejoin:round"
         d="M 8.7185878,4.0337352 -2.2072895,0.01601326 8.7185884,-4.0017078 c -1.7454984,2.3720609 -1.7354408,5.6174519 -6e-7,8.035443 z"
         transform="scale(-0.6,-0.6)" />
    </marker>
    <marker
       inkscape:stockid="Arrow2Mend"
       orient="auto"
       refY="0"
       refX="0"
       id="Arrow2Mend-21"
       style="overflow:visible">
      <path
         inkscape:connector-curvature="0"
         id="path5283-08"
         style="fill-rule:evenodd;stroke-width:0.625;stroke-linejoin:round"
         d="M 8.7185878,4.0337352 -2.2072895,0.01601326 8.7185884,-4.0017078 c -1.7454984,2.3720609 -1.7354408,5.6174519 -6e-7,8.035443 z"
         transform="scale(-0.6,-0.6)" />
    </marker>
    <marker
       inkscape:stockid="Arrow2Mstart"
       orient="auto"
       refY="0"
       refX="0"
       id="Arrow2Mstart-7"
       style="overflow:visible">
      <path
         inkscape:connector-curvature="0"
         id="path5280-2"
         style="fill-rule:evenodd;stroke-width:0.625;stroke-linejoin:round"
         d="M 8.7185878,4.0337352 -2.2072895,0.01601326 8.7185884,-4.0017078 c -1.7454984,2.3720609 -1.7354408,5.6174519 -6e-7,8.035443 z"
         transform="scale(0.6,0.6)" />
    </marker>
    <marker
       inkscape:stockid="Arrow2Mend"
       orient="auto"
       refY="0"
       refX="0"
       id="Arrow2Mend-26"
       style="overflow:visible">
      <path
         inkscape:connector-curvature="0"
         id="path5283-10"
         style="fill-rule:evenodd;stroke-width:0.625;stroke-linejoin:round"
         d="M 8.7185878,4.0337352 -2.2072895,0.01601326 8.7185884,-4.0017078 c -1.7454984,2.3720609 -1.7354408,5.6174519 -6e-7,8.035443 z"
         transform="scale(-0.6,-0.6)" />
    </marker>
    <marker
       inkscape:stockid="Arrow2Mstart"
       orient="auto"
       refY="0"
       refX="0"
       id="Arrow2Mstart-3"
       style="overflow:visible">
      <path
         inkscape:connector-curvature="0"
         id="path5280-9"
         style="fill-rule:evenodd;stroke-width:0.625;stroke-linejoin:round"
         d="M 8.7185878,4.0337352 -2.2072895,0.01601326 8.7185884,-4.0017078 c -1.7454984,2.3720609 -1.7354408,5.6174519 -6e-7,8.035443 z"
         transform="scale(0.6,0.6)" />
    </marker>
    <marker
       inkscape:stockid="Arrow2Mend"
       orient="auto"
       refY="0"
       refX="0"
       id="Arrow2Mend-0"
       style="overflow:visible">
      <path
         inkscape:connector-curvature="0"
         id="path5283-8"
         style="fill-rule:evenodd;stroke-width:0.625;stroke-linejoin:round"
         d="M 8.7185878,4.0337352 -2.2072895,0.01601326 8.7185884,-4.0017078 c -1.7454984,2.3720609 -1.7354408,5.6174519 -6e-7,8.035443 z"
         transform="scale(-0.6,-0.6)" />
    </marker>
    <marker
       inkscape:stockid="Arrow2Mend"
       orient="auto"
       refY="0"
       refX="0"
       id="marker3271"
       style="overflow:visible">
      <path
         inkscape:connector-curvature="0"
         id="path3273"
         style="fill-rule:evenodd;stroke-width:0.625;stroke-linejoin:round"
         d="M 8.7185878,4.0337352 -2.2072895,0.01601326 8.7185884,-4.0017078 c -1.7454984,2.3720609 -1.7354408,5.6174519 -6e-7,8.035443 z"
         transform="scale(-0.6,-0.6)" />
    </marker>
    <marker
       inkscape:stockid="Arrow2Mstart"
       orient="auto"
       refY="0"
       refX="0"
       id="Arrow2Mstart-30"
       style="overflow:visible">
      <path
         inkscape:connector-curvature="0"
         id="path5280-4"
         style="fill-rule:evenodd;stroke-width:0.625;stroke-linejoin:round"
         d="M 8.7185878,4.0337352 -2.2072895,0.01601326 8.7185884,-4.0017078 c -1.7454984,2.3720609 -1.7354408,5.6174519 -6e-7,8.035443 z"
         transform="scale(0.6,0.6)" />
    </marker>
    <marker
       inkscape:stockid="Arrow2Mend"
       orient="auto"
       refY="0"
       refX="0"
       id="Arrow2Mend-44"
       style="overflow:visible">
      <path
         inkscape:connector-curvature="0"
         id="path5283-4"
         style="fill-rule:evenodd;stroke-width:0.625;stroke-linejoin:round"
         d="M 8.7185878,4.0337352 -2.2072895,0.01601326 8.7185884,-4.0017078 c -1.7454984,2.3720609 -1.7354408,5.6174519 -6e-7,8.035443 z"
         transform="scale(-0.6,-0.6)" />
    </marker>
    <marker
       inkscape:stockid="Arrow2Mstart"
       orient="auto"
       refY="0"
       refX="0"
       id="Arrow2Mstart-6"
       style="overflow:visible">
      <path
         inkscape:connector-curvature="0"
         id="path5280-3"
         style="fill-rule:evenodd;stroke-width:0.625;stroke-linejoin:round"
         d="M 8.7185878,4.0337352 -2.2072895,0.01601326 8.7185884,-4.0017078 c -1.7454984,2.3720609 -1.7354408,5.6174519 -6e-7,8.035443 z"
         transform="scale(0.6,0.6)" />
    </marker>
    <marker
       inkscape:stockid="Arrow2Mend"
       orient="auto"
       refY="0"
       refX="0"
       id="Arrow2Mend-17"
       style="overflow:visible">
      <path
         inkscape:connector-curvature="0"
         id="path5283-5"
         style="fill-rule:evenodd;stroke-width:0.625;stroke-linejoin:round"
         d="M 8.7185878,4.0337352 -2.2072895,0.01601326 8.7185884,-4.0017078 c -1.7454984,2.3720609 -1.7354408,5.6174519 -6e-7,8.035443 z"
         transform="scale(-0.6,-0.6)" />
    </marker>
    <marker
       inkscape:stockid="Arrow2Mend"
       orient="auto"
       refY="0"
       refX="0"
       id="Arrow2Mend-40"
       style="overflow:visible">
      <path
         inkscape:connector-curvature="0"
         id="path5283-59"
         style="fill-rule:evenodd;stroke-width:0.625;stroke-linejoin:round"
         d="M 8.7185878,4.0337352 -2.2072895,0.01601326 8.7185884,-4.0017078 c -1.7454984,2.3720609 -1.7354408,5.6174519 -6e-7,8.035443 z"
         transform="scale(-0.6,-0.6)" />
    </marker>
    <marker
       inkscape:stockid="Arrow2Mend"
       orient="auto"
       refY="0"
       refX="0"
       id="Arrow2Mend-10"
       style="overflow:visible">
      <path
         inkscape:connector-curvature="0"
         id="path5283-51"
         style="fill-rule:evenodd;stroke-width:0.625;stroke-linejoin:round"
         d="M 8.7185878,4.0337352 -2.2072895,0.01601326 8.7185884,-4.0017078 c -1.7454984,2.3720609 -1.7354408,5.6174519 -6e-7,8.035443 z"
         transform="scale(-0.6,-0.6)" />
    </marker>
    <marker
       inkscape:stockid="Arrow2Mend"
       orient="auto"
       refY="0"
       refX="0"
       id="Arrow2Mend-08"
       style="overflow:visible">
      <path
         inkscape:connector-curvature="0"
         id="path5283-50"
         style="fill-rule:evenodd;stroke-width:0.625;stroke-linejoin:round"
         d="M 8.7185878,4.0337352 -2.2072895,0.01601326 8.7185884,-4.0017078 c -1.7454984,2.3720609 -1.7354408,5.6174519 -6e-7,8.035443 z"
         transform="scale(-0.6,-0.6)" />
    </marker>
    <marker
       inkscape:stockid="Arrow2Mend"
       orient="auto"
       refY="0"
       refX="0"
       id="Arrow2Mend-08-5"
       style="overflow:visible">
      <path
         inkscape:connector-curvature="0"
         id="path5283-50-5"
         style="fill-rule:evenodd;stroke-width:0.625;stroke-linejoin:round"
         d="M 8.7185878,4.0337352 -2.2072895,0.01601326 8.7185884,-4.0017078 c -1.7454984,2.3720609 -1.7354408,5.6174519 -6e-7,8.035443 z"
         transform="scale(-0.6,-0.6)" />
    </marker>
    <marker
       inkscape:stockid="Arrow2Mend"
       orient="auto"
       refY="0"
       refX="0"
       id="Arrow2Mend-08-9"
       style="overflow:visible">
      <path
         inkscape:connector-curvature="0"
         id="path5283-50-0"
         style="fill-rule:evenodd;stroke-width:0.625;stroke-linejoin:round"
         d="M 8.7185878,4.0337352 -2.2072895,0.01601326 8.7185884,-4.0017078 c -1.7454984,2.3720609 -1.7354408,5.6174519 -6e-7,8.035443 z"
         transform="scale(-0.6,-0.6)" />
    </marker>
    <marker
       inkscape:stockid="Arrow2Mend"
       orient="auto"
       refY="0"
       refX="0"
       id="Arrow2Mend-20"
       style="overflow:visible">
      <path
         inkscape:connector-curvature="0"
         id="path5283-29"
         style="fill-rule:evenodd;stroke-width:0.625;stroke-linejoin:round"
         d="M 8.7185878,4.0337352 -2.2072895,0.01601326 8.7185884,-4.0017078 c -1.7454984,2.3720609 -1.7354408,5.6174519 -6e-7,8.035443 z"
         transform="scale(-0.6,-0.6)" />
    </marker>
    <marker
       inkscape:stockid="Arrow2Mend"
       orient="auto"
       refY="0"
       refX="0"
       id="Arrow2Mend-98"
       style="overflow:visible">
      <path
         inkscape:connector-curvature="0"
         id="path5283-85"
         style="fill-rule:evenodd;stroke-width:0.625;stroke-linejoin:round"
         d="M 8.7185878,4.0337352 -2.2072895,0.01601326 8.7185884,-4.0017078 c -1.7454984,2.3720609 -1.7354408,5.6174519 -6e-7,8.035443 z"
         transform="scale(-0.6,-0.6)" />
    </marker>
    <marker
       inkscape:stockid="Arrow2Mstart"
       orient="auto"
       refY="0"
       refX="0"
       id="Arrow2Mstart-71"
       style="overflow:visible">
      <path
         inkscape:connector-curvature="0"
         id="path5280-22"
         style="fill-rule:evenodd;stroke-width:0.625;stroke-linejoin:round"
         d="M 8.7185878,4.0337352 -2.2072895,0.01601326 8.7185884,-4.0017078 c -1.7454984,2.3720609 -1.7354408,5.6174519 -6e-7,8.035443 z"
         transform="scale(0.6,0.6)" />
    </marker>
    <marker
       inkscape:stockid="Arrow2Mend"
       orient="auto"
       refY="0"
       refX="0"
       id="Arrow2Mend-02"
       style="overflow:visible">
      <path
         inkscape:connector-curvature="0"
         id="path5283-17"
         style="fill-rule:evenodd;stroke-width:0.625;stroke-linejoin:round"
         d="M 8.7185878,4.0337352 -2.2072895,0.01601326 8.7185884,-4.0017078 c -1.7454984,2.3720609 -1.7354408,5.6174519 -6e-7,8.035443 z"
         transform="scale(-0.6,-0.6)" />
    </marker>
    <marker
       inkscape:stockid="Arrow2Mend"
       orient="auto"
       refY="0"
       refX="0"
       id="Arrow2Mend-08-51"
       style="overflow:visible">
      <path
         inkscape:connector-curvature="0"
         id="path5283-50-7"
         style="fill-rule:evenodd;stroke-width:0.625;stroke-linejoin:round"
         d="M 8.7185878,4.0337352 -2.2072895,0.01601326 8.7185884,-4.0017078 c -1.7454984,2.3720609 -1.7354408,5.6174519 -6e-7,8.035443 z"
         transform="scale(-0.6,-0.6)" />
    </marker>
    <marker
       inkscape:stockid="Arrow2Mend"
       orient="auto"
       refY="0"
       refX="0"
       id="marker4961"
       style="overflow:visible">
      <path
         inkscape:connector-curvature="0"
         id="path4963"
         style="fill-rule:evenodd;stroke-width:0.625;stroke-linejoin:round"
         d="M 8.7185878,4.0337352 -2.2072895,0.01601326 8.7185884,-4.0017078 c -1.7454984,2.3720609 -1.7354408,5.6174519 -6e-7,8.035443 z"
         transform="scale(-0.6,-0.6)" />
    </marker>
    <marker
       inkscape:stockid="Arrow2Mstart"
       orient="auto"
       refY="0"
       refX="0"
       id="Arrow2Mstart-4"
       style="overflow:visible">
      <path
         inkscape:connector-curvature="0"
         id="path5280-1"
         style="fill-rule:evenodd;stroke-width:0.625;stroke-linejoin:round"
         d="M 8.7185878,4.0337352 -2.2072895,0.01601326 8.7185884,-4.0017078 c -1.7454984,2.3720609 -1.7354408,5.6174519 -6e-7,8.035443 z"
         transform="scale(0.6,0.6)" />
    </marker>
    <marker
       inkscape:stockid="Arrow2Mend"
       orient="auto"
       refY="0"
       refX="0"
       id="Arrow2Mend-5"
       style="overflow:visible">
      <path
         inkscape:connector-curvature="0"
         id="path5283-083"
         style="fill-rule:evenodd;stroke-width:0.625;stroke-linejoin:round"
         d="M 8.7185878,4.0337352 -2.2072895,0.01601326 8.7185884,-4.0017078 c -1.7454984,2.3720609 -1.7354408,5.6174519 -6e-7,8.035443 z"
         transform="scale(-0.6,-0.6)" />
    </marker>
    <marker
       inkscape:stockid="Arrow2Mstart"
       orient="auto"
       refY="0"
       refX="0"
       id="Arrow2Mstart-65"
       style="overflow:visible">
      <path
         inkscape:connector-curvature="0"
         id="path5280-99"
         style="fill-rule:evenodd;stroke-width:0.625;stroke-linejoin:round"
         d="M 8.7185878,4.0337352 -2.2072895,0.01601326 8.7185884,-4.0017078 c -1.7454984,2.3720609 -1.7354408,5.6174519 -6e-7,8.035443 z"
         transform="scale(0.6,0.6)" />
    </marker>
    <marker
       inkscape:stockid="Arrow2Mend"
       orient="auto"
       refY="0"
       refX="0"
       id="Arrow2Mend-07"
       style="overflow:visible">
      <path
         inkscape:connector-curvature="0"
         id="path5283-6"
         style="fill-rule:evenodd;stroke-width:0.625;stroke-linejoin:round"
         d="M 8.7185878,4.0337352 -2.2072895,0.01601326 8.7185884,-4.0017078 c -1.7454984,2.3720609 -1.7354408,5.6174519 -6e-7,8.035443 z"
         transform="scale(-0.6,-0.6)" />
    </marker>
    <marker
       inkscape:stockid="Arrow2Mend"
       orient="auto"
       refY="0"
       refX="0"
       id="Arrow2Mend-22"
       style="overflow:visible">
      <path
         inkscape:connector-curvature="0"
         id="path5283-69"
         style="fill-rule:evenodd;stroke-width:0.625;stroke-linejoin:round"
         d="M 8.7185878,4.0337352 -2.2072895,0.01601326 8.7185884,-4.0017078 c -1.7454984,2.3720609 -1.7354408,5.6174519 -6e-7,8.035443 z"
         transform="scale(-0.6,-0.6)" />
    </marker>
    <marker
       inkscape:stockid="Arrow2Mend"
       orient="auto"
       refY="0"
       refX="0"
       id="Arrow2Mend-65"
       style="overflow:visible">
      <path
         inkscape:connector-curvature="0"
         id="path5283-78"
         style="fill-rule:evenodd;stroke-width:0.625;stroke-linejoin:round"
         d="M 8.7185878,4.0337352 -2.2072895,0.01601326 8.7185884,-4.0017078 c -1.7454984,2.3720609 -1.7354408,5.6174519 -6e-7,8.035443 z"
         transform="scale(-0.6,-0.6)" />
    </marker>
    <marker
       inkscape:stockid="Arrow2Mend"
       orient="auto"
       refY="0"
       refX="0"
       id="Arrow2Mend-08-6"
       style="overflow:visible">
      <path
         inkscape:connector-curvature="0"
         id="path5283-50-9"
         style="fill-rule:evenodd;stroke-width:0.625;stroke-linejoin:round"
         d="M 8.7185878,4.0337352 -2.2072895,0.01601326 8.7185884,-4.0017078 c -1.7454984,2.3720609 -1.7354408,5.6174519 -6e-7,8.035443 z"
         transform="scale(-0.6,-0.6)" />
    </marker>
  </defs>
  <sodipodi:namedview
     id="base"
     pagecolor="#ffffff"
     bordercolor="#666666"
     borderopacity="1.0"
     inkscape:pageopacity="0.0"
     inkscape:pageshadow="2"
     inkscape:zoom="0.98994949"
     inkscape:cx="351.14782"
     inkscape:cy="957.08094"
     inkscape:document-units="px"
     inkscape:current-layer="layer1"
     showgrid="false"
     borderlayer="true"
     inkscape:showpageshadow="false"
     inkscape:window-width="1366"
     inkscape:window-height="700"
     inkscape:window-x="-2"
     inkscape:window-y="21"
     inkscape:window-maximized="1"
     showguides="true"
     inkscape:guide-bbox="true" />
  <metadata
     id="metadata7">
    <rdf:RDF>
      <cc:Work
         rdf:about="">
        <dc:format>image/svg+xml</dc:format>
        <dc:type
           rdf:resource="http://purl.org/dc/dcmitype/StillImage" />
        <dc:title></dc:title>
      </cc:Work>
    </rdf:RDF>
  </metadata>
  <g
     inkscape:label="Layer 1"
     inkscape:groupmode="layer"
     id="layer1">
    <g
       id="g3567"
       transform="translate(18.369821,-26.470624)"
       inkscape:export-filename="/home/stitch/Tese3/document/images/system/transfer-trans_2.png"
       inkscape:export-xdpi="300"
       inkscape:export-ydpi="300">
      <rect
         style="color:#000000;fill:#009de1;fill-opacity:0.4;fill-rule:nonzero;stroke:#060307;stroke-width:0.98983252;stroke-linecap:round;stroke-linejoin:round;stroke-miterlimit:4.19999981;stroke-opacity:1;stroke-dasharray:none;stroke-dashoffset:0;marker:none;visibility:visible;display:inline;overflow:visible;enable-background:accumulate"
         id="rect5101-9"
         width="151.521"
         height="26.263966"
         x="67.096642"
         y="279.23019" />
      <text
         sodipodi:linespacing="125%"
         id="text3004"
         y="296.05118"
         x="73.837799"
         style="font-size:14px;font-style:normal;font-variant:normal;font-weight:normal;font-stretch:normal;line-height:125%;letter-spacing:0px;word-spacing:0px;fill:#000000;fill-opacity:1;stroke:none;font-family:CMU Bright;-inkscape-font-specification:Sans"
         xml:space="preserve"><tspan
           y="296.05118"
           x="73.837799"
           id="tspan3006"
           sodipodi:role="line">Sentence segmentation</tspan></text>
    </g>
    <g
       id="g3572"
       transform="translate(22.32849,18.182745)"
       inkscape:export-filename="/home/stitch/Tese3/document/images/system/transfer-trans_2.png"
       inkscape:export-xdpi="300"
       inkscape:export-ydpi="300">
      <rect
         style="color:#000000;fill:#009de1;fill-opacity:0.4;fill-rule:nonzero;stroke:#060307;stroke-width:0.99999994;stroke-linecap:round;stroke-linejoin:round;stroke-miterlimit:4.19999981;stroke-opacity:1;stroke-dasharray:none;stroke-dashoffset:0;marker:none;visibility:visible;display:inline;overflow:visible;enable-background:accumulate"
         id="rect5101-2"
         width="94.649765"
         height="26.263966"
         x="83.389404"
         y="279.82193" />
      <text
         sodipodi:linespacing="125%"
         id="text3008"
         y="295.74258"
         x="93.121223"
         style="font-size:14px;font-style:normal;font-variant:normal;font-weight:normal;font-stretch:normal;line-height:125%;letter-spacing:0px;word-spacing:0px;fill:#000000;fill-opacity:1;stroke:none;font-family:CMU Bright;-inkscape-font-specification:Sans"
         xml:space="preserve"><tspan
           y="295.74258"
           x="93.121223"
           id="tspan3010"
           sodipodi:role="line">Tokenization</tspan></text>
    </g>
    <g
       id="g3173"
       inkscape:export-filename="/home/stitch/Tese3/document/images/system/ner.png"
       inkscape:export-xdpi="300"
       inkscape:export-ydpi="300"
       transform="translate(441.43666,-246.47722)">
      <g
         transform="translate(-260,-139.94665)"
         id="g3155">
        <text
           xml:space="preserve"
           style="font-size:14px;font-style:normal;font-variant:normal;font-weight:normal;font-stretch:normal;line-height:125%;letter-spacing:0px;word-spacing:0px;fill:#000000;fill-opacity:1;stroke:none;font-family:CMU Bright;-inkscape-font-specification:Sans"
           x="633.36566"
           y="431.11838"
           id="text3024"
           sodipodi:linespacing="125%"><tspan
             sodipodi:role="line"
             id="tspan3026"
             x="633.36566"
             y="431.11838">Person</tspan></text>
        <text
           xml:space="preserve"
           style="font-size:14px;font-style:normal;font-variant:normal;font-weight:normal;font-stretch:normal;line-height:125%;letter-spacing:0px;word-spacing:0px;fill:#000000;fill-opacity:1;stroke:none;font-family:CMU Bright;-inkscape-font-specification:Sans"
           x="634.33167"
           y="453.51654"
           id="text3028"
           sodipodi:linespacing="125%"><tspan
             sodipodi:role="line"
             id="tspan3030"
             x="634.33167"
             y="453.51654">Animal</tspan></text>
      </g>
      <text
         sodipodi:linespacing="125%"
         id="text3032"
         y="339.3078"
         x="373.92566"
         style="font-size:14px;font-style:normal;font-variant:normal;font-weight:normal;font-stretch:normal;line-height:125%;letter-spacing:0px;word-spacing:0px;fill:#000000;fill-opacity:1;stroke:none;font-family:CMU Bright;-inkscape-font-specification:Sans"
         xml:space="preserve"><tspan
           y="339.3078"
           x="373.92566"
           id="tspan3034"
           sodipodi:role="line">Organization</tspan></text>
      <text
         sodipodi:linespacing="125%"
         id="text3036"
         y="370.16995"
         x="373.36566"
         style="font-size:14px;font-style:normal;font-variant:normal;font-weight:normal;font-stretch:normal;line-height:125%;letter-spacing:0px;word-spacing:0px;fill:#000000;fill-opacity:1;stroke:none;font-family:CMU Bright;-inkscape-font-specification:Sans"
         xml:space="preserve"><tspan
           y="370.16995"
           x="373.36566"
           id="tspan3038"
           sodipodi:role="line">Location</tspan></text>
      <g
         transform="translate(-260,-142.14286)"
         id="g3149">
        <text
           xml:space="preserve"
           style="font-size:14px;font-style:normal;font-variant:normal;font-weight:normal;font-stretch:normal;line-height:125%;letter-spacing:0px;word-spacing:0px;fill:#000000;fill-opacity:1;stroke:none;font-family:CMU Bright;-inkscape-font-specification:Sans"
           x="633.36566"
           y="546.71094"
           id="text3040"
           sodipodi:linespacing="125%"><tspan
             sodipodi:role="line"
             id="tspan3042"
             x="633.36566"
             y="546.71094">Date</tspan></text>
        <text
           xml:space="preserve"
           style="font-size:14px;font-style:normal;font-variant:normal;font-weight:normal;font-stretch:normal;line-height:125%;letter-spacing:0px;word-spacing:0px;fill:#000000;fill-opacity:1;stroke:none;font-family:CMU Bright;-inkscape-font-specification:Sans"
           x="634.21967"
           y="569.10907"
           id="text3044"
           sodipodi:linespacing="125%"><tspan
             sodipodi:role="line"
             id="tspan3046"
             x="634.21967"
             y="569.10907">Time</tspan></text>
      </g>
      <text
         sodipodi:linespacing="125%"
         id="text3048"
         y="459.02634"
         x="373.92566"
         style="font-size:14px;font-style:normal;font-variant:normal;font-weight:normal;font-stretch:normal;line-height:125%;letter-spacing:0px;word-spacing:0px;fill:#000000;fill-opacity:1;stroke:none;font-family:CMU Bright;-inkscape-font-specification:Sans"
         xml:space="preserve"><tspan
           y="459.02634"
           x="373.92566"
           id="tspan3050"
           sodipodi:role="line">Quantity</tspan></text>
      <text
         sodipodi:linespacing="125%"
         id="text3052"
         y="301.25781"
         x="555.70074"
         style="font-size:14px;font-style:normal;font-variant:normal;font-weight:normal;font-stretch:normal;line-height:125%;letter-spacing:0px;word-spacing:0px;fill:#000000;fill-opacity:1;stroke:none;font-family:CMU Bright;-inkscape-font-specification:Sans"
         xml:space="preserve"><tspan
           y="301.25781"
           x="555.70074"
           id="tspan3054"
           sodipodi:role="line">Proper Noun treatment</tspan></text>
      <text
         sodipodi:linespacing="125%"
         id="text3056"
         y="415.76718"
         x="580.96637"
         style="font-size:14px;font-style:normal;font-variant:normal;font-weight:normal;font-stretch:normal;line-height:125%;letter-spacing:0px;word-spacing:0px;fill:#000000;fill-opacity:1;stroke:none;font-family:CMU Bright;-inkscape-font-specification:Sans"
         xml:space="preserve"><tspan
           y="415.76718"
           x="580.96637"
           id="tspan3058"
           sodipodi:role="line">Timeline treatment</tspan></text>
      <text
         sodipodi:linespacing="125%"
         id="text3060"
         y="460.08334"
         x="572.59918"
         style="font-size:14px;font-style:normal;font-variant:normal;font-weight:normal;font-stretch:normal;line-height:125%;letter-spacing:0px;word-spacing:0px;fill:#000000;fill-opacity:1;stroke:none;font-family:CMU Bright;-inkscape-font-specification:Sans"
         xml:space="preserve"><tspan
           id="tspan3169"
           y="460.08334"
           x="572.59918"
           sodipodi:role="line">Numerical treatment</tspan></text>
      <text
         sodipodi:linespacing="125%"
         id="text3076"
         y="405.62167"
         x="474.9422"
         style="font-size:14px;font-style:normal;font-variant:normal;font-weight:normal;font-stretch:normal;line-height:125%;letter-spacing:0px;word-spacing:0px;fill:#000000;fill-opacity:1;stroke:none;font-family:CMU Bright;-inkscape-font-specification:Sans"
         xml:space="preserve"><tspan
           style="font-size:12px"
           y="405.62167"
           x="474.9422"
           id="tspan3078"
           sodipodi:role="line">normalize</tspan></text>
      <g
         transform="translate(-260,-142.14286)"
         id="g3161">
        <path
           style="fill:none;stroke:#000000;stroke-width:1px;stroke-linecap:butt;stroke-linejoin:miter;stroke-opacity:1"
           d="m 685.89358,427.07776 21.2132,12.12183 -20.20305,13.13198"
           id="path3080"
           inkscape:connector-curvature="0" />
        <path
           style="fill:none;stroke:#000000;stroke-width:1px;stroke-linecap:butt;stroke-linejoin:miter;stroke-opacity:1"
           d="m 707.12709,438.92402 100.0051,0"
           id="path3082"
           inkscape:connector-curvature="0" />
      </g>
      <path
         sodipodi:nodetypes="cc"
         inkscape:connector-curvature="0"
         id="path3084"
         d="m 455.90229,335.96247 48.01813,-39.20161"
         style="fill:none;stroke:#000000;stroke-width:1px;stroke-linecap:butt;stroke-linejoin:miter;stroke-opacity:1" />
      <g
         transform="translate(-260,-137.60188)"
         id="g3127">
        <path
           style="fill:none;stroke:#000000;stroke-width:1px;stroke-linecap:butt;stroke-linejoin:miter;stroke-opacity:1"
           d="m 669.72099,535.93312 21.2132,12.12183 -20.20305,13.13198"
           id="path3080-2"
           inkscape:connector-curvature="0" />
        <path
           sodipodi:nodetypes="cc"
           style="fill:none;stroke:#000000;stroke-width:1px;stroke-linecap:butt;stroke-linejoin:miter;stroke-opacity:1"
           d="m 690.9545,547.77938 142.86224,0"
           id="path3082-2"
           inkscape:connector-curvature="0" />
      </g>
      <path
         sodipodi:nodetypes="cc"
         inkscape:connector-curvature="0"
         id="path3082-8"
         d="m 438.01541,365.36095 135.71939,0"
         style="fill:none;stroke:#000000;stroke-width:1px;stroke-linecap:butt;stroke-linejoin:miter;stroke-opacity:1" />
      <path
         sodipodi:nodetypes="cc"
         inkscape:connector-curvature="0"
         id="path3082-8-4"
         d="m 438.56888,455.27433 127.86224,0"
         style="fill:none;stroke:#000000;stroke-width:0.99999994px;stroke-linecap:butt;stroke-linejoin:miter;stroke-opacity:1" />
      <text
         sodipodi:linespacing="125%"
         id="text3165"
         y="370.16995"
         x="580.41949"
         style="font-size:14px;font-style:normal;font-variant:normal;font-weight:normal;font-stretch:normal;line-height:125%;letter-spacing:0px;word-spacing:0px;fill:#000000;fill-opacity:1;stroke:none;font-family:CMU Bright;-inkscape-font-specification:Sans"
         xml:space="preserve"><tspan
           y="370.16995"
           x="580.41949"
           id="tspan3167"
           sodipodi:role="line">Location treatment</tspan></text>
    </g>
    <g
       id="g5152"
       transform="translate(-120.84415,-24.974982)"
       inkscape:export-filename="/home/stitch/Tese3/document/images/system/imp-nlp2.png"
       inkscape:export-xdpi="300"
       inkscape:export-ydpi="300">
      <rect
         y="88.676651"
         x="248.59906"
         height="26.263966"
         width="84.649765"
         id="rect5101-6"
         style="color:#000000;fill:#009de1;fill-opacity:0.4;fill-rule:nonzero;stroke:#060307;stroke-width:0.99999994;stroke-linecap:round;stroke-linejoin:round;stroke-miterlimit:4.19999981;stroke-opacity:1;stroke-dasharray:none;stroke-dashoffset:0;marker:none;visibility:visible;display:inline;overflow:visible;enable-background:accumulate" />
      <text
         sodipodi:linespacing="125%"
         id="text3226"
         y="105.49763"
         x="252.88693"
         style="font-size:14px;font-style:normal;font-variant:normal;font-weight:normal;font-stretch:normal;line-height:125%;letter-spacing:0px;word-spacing:0px;fill:#000000;fill-opacity:1;stroke:none;font-family:CMU Bright;-inkscape-font-specification:Sans"
         xml:space="preserve"><tspan
           y="105.49763"
           x="252.88693"
           id="tspan3228"
           sodipodi:role="line">POS-Tagger</tspan></text>
    </g>
    <g
       id="g5157"
       transform="translate(-94.653442,-30.530827)"
       inkscape:export-filename="/home/stitch/Tese3/document/images/system/imp-nlp2.png"
       inkscape:export-xdpi="300"
       inkscape:export-ydpi="300">
      <rect
         y="87.666504"
         x="330.31989"
         height="39.39595"
         width="92.934036"
         id="rect5135"
         style="color:#000000;fill:#009de1;fill-opacity:0.4;fill-rule:nonzero;stroke:#060307;stroke-width:0.99999994;stroke-linecap:round;stroke-linejoin:round;stroke-miterlimit:4.19999981;stroke-opacity:1;stroke-dasharray:none;stroke-dashoffset:0;marker:none;visibility:visible;display:inline;overflow:visible;enable-background:accumulate" />
      <text
         sodipodi:linespacing="125%"
         id="text3234"
         y="103.42348"
         x="376.19879"
         style="font-size:14px;font-style:normal;font-variant:normal;font-weight:normal;font-stretch:normal;text-align:center;line-height:125%;letter-spacing:0px;word-spacing:0px;text-anchor:middle;fill:#000000;fill-opacity:1;stroke:none;font-family:CMU Bright;-inkscape-font-specification:Sans"
         xml:space="preserve"><tspan
           y="103.42348"
           x="376.19879"
           id="tspan3236"
           sodipodi:role="line">Named Entity</tspan><tspan
           id="tspan3266"
           y="120.92348"
           x="376.19879"
           sodipodi:role="line">Extraction</tspan></text>
    </g>
    <g
       id="g5234"
       transform="translate(35.436554,-26.957105)"
       inkscape:export-filename="/home/stitch/Tese3/document/images/system/imp-nlp2.png"
       inkscape:export-xdpi="300"
       inkscape:export-ydpi="300">
      <rect
         style="color:#000000;fill:#009de1;fill-opacity:0.4;fill-rule:nonzero;stroke:#060307;stroke-width:0.96660948;stroke-linecap:round;stroke-linejoin:round;stroke-miterlimit:4.19999981;stroke-opacity:1;stroke-dasharray:none;stroke-dashoffset:0;marker:none;visibility:visible;display:inline;overflow:visible;enable-background:accumulate"
         id="rect5135-4"
         width="73.483795"
         height="39.39595"
         x="501.11526"
         y="84.092781" />
      <text
         sodipodi:linespacing="125%"
         id="text3250"
         y="99.961754"
         x="537.77173"
         style="font-size:14px;font-style:normal;font-variant:normal;font-weight:normal;font-stretch:normal;text-align:center;line-height:125%;letter-spacing:0px;word-spacing:0px;text-anchor:middle;fill:#000000;fill-opacity:1;stroke:none;font-family:CMU Bright;-inkscape-font-specification:Sans"
         xml:space="preserve"><tspan
           y="99.961754"
           x="537.77173"
           id="tspan3252"
           sodipodi:role="line">Structure</tspan><tspan
           id="tspan3274"
           y="117.46175"
           x="537.77173"
           sodipodi:role="line">Transfer</tspan></text>
    </g>
    <g
       id="g5092"
       transform="translate(-47.456864,-77.546353)"
       inkscape:export-filename="/home/stitch/Tese3/document/images/system/imp-nlp2.png"
       inkscape:export-xdpi="300"
       inkscape:export-ydpi="300">
      <g
         id="g5088">
        <path
           style="color:#000000;fill:#009de1;fill-opacity:0.4;fill-rule:nonzero;stroke:#060307;stroke-width:0.99999994;stroke-linecap:round;stroke-linejoin:round;stroke-miterlimit:4.19999981;stroke-opacity:1;stroke-dasharray:none;stroke-dashoffset:0;marker:none;visibility:visible;display:inline;overflow:visible;enable-background:accumulate"
           d="m 412.15625,200.4375 c -22.43188,0 -40.77677,2.79869 -42.1875,6.34375 l -0.125,0 0,33.9375 0.0937,0 c 1.22679,3.57836 19.68125,6.4375 42.21875,6.4375 23.35155,0 42.28125,-3.06256 42.28125,-6.8125 l -0.0937,0 0,-32.71875 c 0.05,-0.13528 0.0937,-0.26896 0.0937,-0.40625 0,-0.13886 -0.0426,-0.26946 -0.0937,-0.40625 -0.003,-0.009 0.003,-0.0226 0,-0.0312 -1.41073,-3.54506 -19.75562,-6.34375 -42.1875,-6.34375 z"
           id="rect3050-8-5"
           inkscape:connector-curvature="0" />
        <path
           transform="translate(0.35714286,-6.0714286)"
           style="color:#000000;fill:none;stroke:#060307;stroke-width:0.99999994;stroke-linecap:round;stroke-linejoin:round;stroke-miterlimit:4.19999981;stroke-opacity:1;stroke-dashoffset:0;marker:none;visibility:visible;display:inline;overflow:visible;enable-background:accumulate"
           d="m 453.92856,213.07646 c 0,3.5504 -18.868,6.42857 -42.14285,6.42857 -23.27486,0 -42.14286,-2.87817 -42.14286,-6.42857 0,-3.5504 18.868,-6.42857 42.14286,-6.42857 23.27485,0 42.14285,2.87817 42.14285,6.42857 z"
           id="path5085"
           inkscape:connector-curvature="0" />
      </g>
      <text
         xml:space="preserve"
         style="font-size:13px;font-style:normal;font-variant:normal;font-weight:500;font-stretch:normal;text-align:center;line-height:125%;letter-spacing:0px;word-spacing:0px;text-anchor:middle;fill:#000000;fill-opacity:1;stroke:none;font-family:CMU Bright;-inkscape-font-specification:CMU Bright Medium"
         x="411.72552"
         y="231.70296"
         id="text3004-0-4"
         sodipodi:linespacing="125%"><tspan
           sodipodi:role="line"
           id="tspan3006-8-8"
           x="411.72552"
           y="231.70296">DataBase</tspan></text>
    </g>
    <g
       id="g5240"
       transform="translate(51.660637,-14.551845)"
       inkscape:export-filename="/home/stitch/Tese3/document/images/system/imp-nlp2.png"
       inkscape:export-xdpi="300"
       inkscape:export-ydpi="300">
      <text
         sodipodi:linespacing="125%"
         id="text3242"
         y="108.68694"
         x="566.45984"
         style="font-size:14px;font-style:normal;font-variant:normal;font-weight:normal;font-stretch:normal;line-height:125%;letter-spacing:0px;word-spacing:0px;fill:#000000;fill-opacity:1;stroke:none;font-family:CMU Bright;-inkscape-font-specification:Sans"
         xml:space="preserve"><tspan
           y="108.68694"
           x="566.45984"
           id="tspan3244"
           sodipodi:role="line"
           style="font-style:oblique;-inkscape-font-specification:CMU Bright Medium Oblique">Semantic Hints</tspan></text>
    </g>
    <g
       id="g5245"
       transform="translate(17.391106,3.0497932)"
       inkscape:export-filename="/home/stitch/Tese3/document/images/system/imp-nlp2.png"
       inkscape:export-xdpi="300"
       inkscape:export-ydpi="300">
      <text
         sodipodi:linespacing="125%"
         id="text3262"
         y="123.79075"
         x="551.42859"
         style="font-size:14px;font-style:normal;font-variant:normal;font-weight:normal;font-stretch:normal;line-height:125%;letter-spacing:0px;word-spacing:0px;fill:#000000;fill-opacity:1;stroke:none;font-family:CMU Bright;-inkscape-font-specification:Sans"
         xml:space="preserve"><tspan
           y="123.79075"
           x="551.42859"
           id="tspan3264"
           sodipodi:role="line"
           style="font-style:oblique;-inkscape-font-specification:CMU Bright Medium Oblique">Sequence of Action IDs</tspan></text>
    </g>
    <g
       id="g5185"
       transform="translate(217.75853,-84.099952)"
       inkscape:export-filename="/home/stitch/Tese3/document/images/system/imp-nlp2.png"
       inkscape:export-xdpi="300"
       inkscape:export-ydpi="300">
      <rect
         style="color:#000000;fill:#009de1;fill-opacity:0.4;fill-rule:nonzero;stroke:#060307;stroke-width:0.99999994;stroke-linecap:round;stroke-linejoin:round;stroke-miterlimit:4.19999981;stroke-opacity:1;stroke-dasharray:none;stroke-dashoffset:0;marker:none;visibility:visible;display:inline;overflow:visible;enable-background:accumulate"
         id="rect5101-65"
         width="64.649765"
         height="26.263966"
         x="134.10368"
         y="147.80162" />
      <text
         sodipodi:linespacing="125%"
         id="text5163"
         y="165.79161"
         x="139.20087"
         style="font-size:14px;font-style:normal;font-variant:normal;font-weight:normal;font-stretch:normal;line-height:125%;letter-spacing:0px;word-spacing:0px;fill:#000000;fill-opacity:1;stroke:none;font-family:CMU Bright;-inkscape-font-specification:Sans"
         xml:space="preserve"><tspan
           y="165.79161"
           x="139.20087"
           id="tspan5165"
           sodipodi:role="line">Stemmer</tspan></text>
    </g>
    <g
       id="g6254"
       transform="translate(25.294424,-29.294423)"
       inkscape:export-filename="/home/stitch/Tese3/document/images/system/imp-nlp2.png"
       inkscape:export-xdpi="300"
       inkscape:export-ydpi="300">
      <g
         transform="translate(-3.7576656,18.18277)"
         id="g5222">
        <rect
           y="137.6642"
           x="412.1044"
           height="39.39595"
           width="84.36261"
           id="rect5135-5"
           style="color:#000000;fill:#009de1;fill-opacity:0.4;fill-rule:nonzero;stroke:#060307;stroke-width:0.99999994;stroke-linecap:round;stroke-linejoin:round;stroke-miterlimit:4.19999981;stroke-opacity:1;stroke-dasharray:none;stroke-dashoffset:0;marker:none;visibility:visible;display:inline;overflow:visible;enable-background:accumulate" />
        <text
           xml:space="preserve"
           style="font-size:14px;font-style:normal;font-variant:normal;font-weight:normal;font-stretch:normal;text-align:center;line-height:125%;letter-spacing:0px;word-spacing:0px;text-anchor:middle;fill:#000000;fill-opacity:1;stroke:none;font-family:CMU Bright;-inkscape-font-specification:Sans"
           x="453.71161"
           y="152.30818"
           id="text3238"
           sodipodi:linespacing="125%"><tspan
             sodipodi:role="line"
             id="tspan3240"
             x="453.71161"
             y="152.30818">Dictionary</tspan><tspan
             sodipodi:role="line"
             x="453.71161"
             y="169.80818"
             id="tspan3276">Lookup</tspan></text>
      </g>
      <g
         transform="translate(-8.7576732,-9.0912475)"
         id="g5228">
        <rect
           y="95.521347"
           x="423.23697"
           height="39.39595"
           width="72.934036"
           id="rect5135-2"
           style="color:#000000;fill:#009de1;fill-opacity:0.4;fill-rule:nonzero;stroke:#060307;stroke-width:0.99999994;stroke-linecap:round;stroke-linejoin:round;stroke-miterlimit:4.19999981;stroke-opacity:1;stroke-dasharray:none;stroke-dashoffset:0;marker:none;visibility:visible;display:inline;overflow:visible;enable-background:accumulate" />
        <text
           xml:space="preserve"
           style="font-size:14px;font-style:normal;font-variant:normal;font-weight:normal;font-stretch:normal;text-align:center;line-height:125%;letter-spacing:0px;word-spacing:0px;text-anchor:middle;fill:#000000;fill-opacity:1;stroke:none;font-family:CMU Bright;-inkscape-font-specification:Sans"
           x="459.13663"
           y="111.27832"
           id="text3246"
           sodipodi:linespacing="125%"><tspan
             sodipodi:role="line"
             id="tspan3248"
             x="459.13663"
             y="111.27832">Lexical</tspan><tspan
             sodipodi:role="line"
             x="459.13663"
             y="128.77832"
             id="tspan3272">Transfer</tspan></text>
      </g>
      <path
         inkscape:connector-curvature="0"
         id="path5250"
         d="m 450.52804,126.69437 0,28.28427"
         style="fill:none;stroke:#000000;stroke-width:1px;stroke-linecap:butt;stroke-linejoin:miter;stroke-opacity:1;marker-start:url(#Arrow2Mstart);marker-end:url(#Arrow2Mend)" />
    </g>
    <path
       style="fill:none;stroke:#000000;stroke-width:1;stroke-linecap:butt;stroke-linejoin:miter;stroke-miterlimit:4;stroke-opacity:1;stroke-dasharray:4, 4;stroke-dashoffset:0;marker-end:url(#Arrow2Mend)"
       d="m 395.24449,167.7434 c 0,0 219.05592,19.07034 256.66796,-37.72229"
       id="path5882"
       inkscape:connector-curvature="0"
       sodipodi:nodetypes="cc"
       inkscape:export-filename="/home/stitch/Tese3/document/images/system/imp-nlp2.png"
       inkscape:export-xdpi="300"
       inkscape:export-ydpi="300" />
    <path
       style="fill:none;stroke:#000000;stroke-width:1;stroke-linecap:butt;stroke-linejoin:miter;stroke-miterlimit:4;stroke-opacity:1;stroke-dasharray:4, 4;stroke-dashoffset:0;marker-end:url(#Arrow2Mend)"
       d="m 284.38458,57.454924 c 0,0 326.82894,-53.8339501 373.29596,22.937649"
       id="path5882-1"
       inkscape:connector-curvature="0"
       sodipodi:nodetypes="cc"
       inkscape:export-filename="/home/stitch/Tese3/document/images/system/imp-nlp2.png"
       inkscape:export-xdpi="300"
       inkscape:export-ydpi="300" />
    <path
       style="fill:none;stroke:#000000;stroke-width:1;stroke-linecap:butt;stroke-linejoin:miter;stroke-miterlimit:4;stroke-opacity:1;stroke-dasharray:4, 4;stroke-dashoffset:0;marker-end:url(#Arrow2Mend)"
       d="m 168.59849,64.19926 c 0,0 451.65202,-68.5047363 488.13646,15.866586"
       id="path5882-1-8"
       inkscape:connector-curvature="0"
       sodipodi:nodetypes="cc"
       inkscape:export-filename="/home/stitch/Tese3/document/images/system/imp-nlp2.png"
       inkscape:export-xdpi="300"
       inkscape:export-ydpi="300" />
    <g
       id="g5137"
       transform="translate(26.45762,26.345195)"
       inkscape:export-filename="/home/stitch/Tese3/document/images/system/imp-nlp2.png"
       inkscape:export-xdpi="300"
       inkscape:export-ydpi="300">
      <rect
         y="83.107361"
         x="-5.302072"
         height="47.477169"
         width="102.02541"
         id="rect5099"
         style="color:#000000;fill:#009de1;fill-opacity:0.4;stroke:#060307;stroke-width:0.99999994;stroke-linecap:round;stroke-linejoin:round;stroke-miterlimit:4.19999981;stroke-opacity:1;stroke-dasharray:none;stroke-dashoffset:0;marker:none;visibility:visible;display:inline;overflow:visible;enable-background:accumulate" />
      <g
         transform="translate(-98.571429,-60)"
         id="g3254">
        <text
           xml:space="preserve"
           style="font-size:14px;font-style:normal;font-variant:normal;font-weight:normal;font-stretch:normal;line-height:125%;letter-spacing:0px;word-spacing:0px;fill:#000000;fill-opacity:1;stroke:none;font-family:CMU Bright;-inkscape-font-specification:Sans"
           x="97.14286"
           y="158.79082"
           id="text3210"
           sodipodi:linespacing="125%"><tspan
             sodipodi:role="line"
             id="tspan3212"
             x="97.14286"
             y="158.79082">Error correcting</tspan></text>
        <text
           xml:space="preserve"
           style="font-size:14px;font-style:normal;font-variant:normal;font-weight:normal;font-stretch:normal;line-height:125%;letter-spacing:0px;word-spacing:0px;fill:#000000;fill-opacity:1;stroke:none;font-family:CMU Bright;-inkscape-font-specification:Sans"
           x="102.93941"
           y="184.50507"
           id="text3214"
           sodipodi:linespacing="125%"><tspan
             sodipodi:role="line"
             id="tspan3216"
             x="102.93941"
             y="184.50507">Normalization</tspan></text>
        <text
           xml:space="preserve"
           style="font-size:14px;font-style:normal;font-variant:normal;font-weight:normal;font-stretch:normal;line-height:125%;letter-spacing:0px;word-spacing:0px;fill:#000000;fill-opacity:1;stroke:none;font-family:CMU Bright;-inkscape-font-specification:Sans"
           x="139.79506"
           y="171.76695"
           id="text3218"
           sodipodi:linespacing="125%"><tspan
             sodipodi:role="line"
             id="tspan3220"
             x="139.79506"
             y="171.76695">+</tspan></text>
      </g>
    </g>
    <g
       id="g5147"
       transform="translate(-113.69981,-30.025748)"
       inkscape:export-filename="/home/stitch/Tese3/document/images/system/imp-nlp2.png"
       inkscape:export-xdpi="300"
       inkscape:export-ydpi="300">
      <rect
         y="93.727417"
         x="153.54318"
         height="26.263966"
         width="64.649765"
         id="rect5101"
         style="color:#000000;fill:#009de1;fill-opacity:0.4;fill-rule:nonzero;stroke:#060307;stroke-width:0.99999994;stroke-linecap:round;stroke-linejoin:round;stroke-miterlimit:4.19999981;stroke-opacity:1;stroke-dasharray:none;stroke-dashoffset:0;marker:none;visibility:visible;display:inline;overflow:visible;enable-background:accumulate" />
      <text
         sodipodi:linespacing="125%"
         id="text3222"
         y="111.6684"
         x="157.09009"
         style="font-size:14px;font-style:normal;font-variant:normal;font-weight:normal;font-stretch:normal;line-height:125%;letter-spacing:0px;word-spacing:0px;fill:#000000;fill-opacity:1;stroke:none;font-family:CMU Bright;-inkscape-font-specification:Sans"
         xml:space="preserve"><tspan
           y="111.6684"
           x="157.09009"
           id="tspan3224"
           sodipodi:role="line">Tokenizer</tspan></text>
    </g>
    <path
       style="fill:none;stroke:#000000;stroke-width:1px;stroke-linecap:butt;stroke-linejoin:miter;stroke-opacity:1;marker-end:url(#Arrow2Mend)"
       d="m 72.177863,108.29224 0,-17.100809"
       id="path6068-6"
       inkscape:connector-curvature="0"
       inkscape:export-filename="/home/stitch/Tese3/document/images/system/imp-nlp2.png"
       inkscape:export-xdpi="300"
       inkscape:export-ydpi="300"
       sodipodi:nodetypes="cc" />
    <path
       style="fill:none;stroke:#000000;stroke-width:1px;stroke-linecap:butt;stroke-linejoin:miter;stroke-opacity:1;marker-end:url(#Arrow2Mend)"
       d="m 212.28725,76.84326 22.45795,0"
       id="path6068-5"
       inkscape:connector-curvature="0"
       inkscape:export-filename="/home/stitch/Tese3/document/images/system/imp-nlp2.png"
       inkscape:export-xdpi="300"
       inkscape:export-ydpi="300"
       sodipodi:nodetypes="cc" />
    <path
       style="fill:none;stroke:#000000;stroke-width:1px;stroke-linecap:butt;stroke-linejoin:miter;stroke-opacity:1;marker-end:url(#Arrow2Mend)"
       d="m 328.69733,76.84326 22.1008,0"
       id="path6068-1"
       inkscape:connector-curvature="0"
       inkscape:export-filename="/home/stitch/Tese3/document/images/system/imp-nlp2.png"
       inkscape:export-xdpi="300"
       inkscape:export-ydpi="300"
       sodipodi:nodetypes="cc" />
    <path
       style="fill:none;stroke:#000000;stroke-width:1px;stroke-linecap:butt;stroke-linejoin:miter;stroke-opacity:1;marker-end:url(#Arrow2Mend)"
       d="m 416.60883,76.84326 22.81509,0"
       id="path6068-60"
       inkscape:connector-curvature="0"
       inkscape:export-filename="/home/stitch/Tese3/document/images/system/imp-nlp2.png"
       inkscape:export-xdpi="300"
       inkscape:export-ydpi="300"
       sodipodi:nodetypes="cc" />
    <path
       style="fill:none;stroke:#000000;stroke-width:1px;stroke-linecap:butt;stroke-linejoin:miter;stroke-opacity:1;marker-end:url(#Arrow2Mend)"
       d="m 512.80463,76.84326 22.81509,0"
       id="path6068-3"
       inkscape:connector-curvature="0"
       inkscape:export-filename="/home/stitch/Tese3/document/images/system/imp-nlp2.png"
       inkscape:export-xdpi="300"
       inkscape:export-ydpi="300"
       sodipodi:nodetypes="cc" />
    <path
       style="fill:none;stroke:#000000;stroke-width:1px;stroke-linecap:butt;stroke-linejoin:miter;stroke-opacity:1;marker-end:url(#Arrow2Mend)"
       d="m 434.21244,140.49307 -26.26397,11.11167"
       id="path6068-38"
       inkscape:connector-curvature="0"
       sodipodi:nodetypes="cc"
       inkscape:export-filename="/home/stitch/Tese3/document/images/system/imp-nlp2.png"
       inkscape:export-xdpi="300"
       inkscape:export-ydpi="300" />
    <g
       id="g3364"
       transform="translate(-20,-2)"
       inkscape:export-filename="/home/stitch/Tese3/document/images/system/imp-nlp2.png"
       inkscape:export-xdpi="300"
       inkscape:export-ydpi="300">
      <path
         inkscape:export-ydpi="300"
         inkscape:export-xdpi="300"
         inkscape:export-filename="/home/stitch/Tese3/document/images/system/imp-nlp.png"
         inkscape:connector-curvature="0"
         id="path6068"
         d="m 572.7565,125.04215 15.15229,0"
         style="fill:none;stroke:#000000;stroke-width:1px;stroke-linecap:butt;stroke-linejoin:miter;stroke-opacity:1;marker-end:url(#Arrow2Mend)"
         sodipodi:nodetypes="cc" />
      <path
         inkscape:export-ydpi="300"
         inkscape:export-xdpi="300"
         inkscape:export-filename="/home/stitch/Tese3/document/images/system/imp-nlp.png"
         inkscape:connector-curvature="0"
         id="path6394"
         d="m 573.29221,124.56771 0,-25.253817"
         style="fill:none;stroke:#000000;stroke-width:1px;stroke-linecap:butt;stroke-linejoin:miter;stroke-opacity:1" />
    </g>
    <path
       style="fill:none;stroke:#000000;stroke-width:1px;stroke-linecap:butt;stroke-linejoin:miter;stroke-opacity:1;marker-end:url(#Arrow2Mend)"
       d="m 104.37571,76.84326 22.45796,0"
       id="path6068-9"
       inkscape:connector-curvature="0"
       inkscape:export-filename="/home/stitch/Tese3/document/images/system/imp-nlp2.png"
       inkscape:export-xdpi="300"
       inkscape:export-ydpi="300"
       sodipodi:nodetypes="cc" />
    <g
       id="g3525"
       transform="translate(88.110223,-35.511251)"
       inkscape:export-filename="/home/stitch/Tese3/document/images/system/transfer-trans_2.png"
       inkscape:export-xdpi="300"
       inkscape:export-ydpi="300">
      <rect
         style="color:#000000;fill:#009de1;fill-opacity:0.4;stroke:#060307;stroke-width:0.99999994;stroke-linecap:round;stroke-linejoin:round;stroke-miterlimit:4.19999981;stroke-opacity:1;stroke-dasharray:none;stroke-dashoffset:0;marker:none;visibility:visible;display:inline;overflow:visible;enable-background:accumulate"
         id="rect5099-6"
         width="102.02541"
         height="41.762882"
         x="132.55873"
         y="325.76648" />
      <text
         sodipodi:linespacing="125%"
         id="text3012"
         y="341.58688"
         x="183.46349"
         style="font-size:14px;font-style:normal;font-variant:normal;font-weight:normal;font-stretch:normal;text-align:center;line-height:125%;letter-spacing:0px;word-spacing:0px;text-anchor:middle;fill:#000000;fill-opacity:1;stroke:none;font-family:CMU Bright;-inkscape-font-specification:Sans"
         xml:space="preserve"><tspan
           y="341.58688"
           x="183.46349"
           id="tspan3014"
           sodipodi:role="line">Part-Of-Speech</tspan><tspan
           id="tspan3402"
           y="359.08688"
           x="183.46349"
           sodipodi:role="line">Tagging</tspan></text>
    </g>
    <g
       id="g5092-3"
       transform="translate(-140.45894,154.9357)"
       inkscape:export-filename="/home/stitch/Tese3/document/images/system/transfer-trans_2.png"
       inkscape:export-xdpi="300"
       inkscape:export-ydpi="300">
      <g
         id="g5088-0">
        <path
           style="color:#000000;fill:#009de1;fill-opacity:0.4;fill-rule:nonzero;stroke:#060307;stroke-width:0.99999994;stroke-linecap:round;stroke-linejoin:round;stroke-miterlimit:4.19999981;stroke-opacity:1;stroke-dasharray:none;stroke-dashoffset:0;marker:none;visibility:visible;display:inline;overflow:visible;enable-background:accumulate"
           d="m 412.15625,200.4375 c -22.43188,0 -40.77677,2.79869 -42.1875,6.34375 l -0.125,0 0,33.9375 0.0937,0 c 1.22679,3.57836 19.68125,6.4375 42.21875,6.4375 23.35155,0 42.28125,-3.06256 42.28125,-6.8125 l -0.0937,0 0,-32.71875 c 0.05,-0.13528 0.0937,-0.26896 0.0937,-0.40625 0,-0.13886 -0.0426,-0.26946 -0.0937,-0.40625 -0.003,-0.009 0.003,-0.0226 0,-0.0312 -1.41073,-3.54506 -19.75562,-6.34375 -42.1875,-6.34375 z"
           id="rect3050-8-5-7"
           inkscape:connector-curvature="0" />
        <path
           transform="translate(0.35714286,-6.0714286)"
           style="color:#000000;fill:none;stroke:#060307;stroke-width:0.99999994;stroke-linecap:round;stroke-linejoin:round;stroke-miterlimit:4.19999981;stroke-opacity:1;stroke-dashoffset:0;marker:none;visibility:visible;display:inline;overflow:visible;enable-background:accumulate"
           d="m 453.92856,213.07646 c 0,3.5504 -18.868,6.42857 -42.14285,6.42857 -23.27486,0 -42.14286,-2.87817 -42.14286,-6.42857 0,-3.5504 18.868,-6.42857 42.14286,-6.42857 23.27485,0 42.14285,2.87817 42.14285,6.42857 z"
           id="path5085-8"
           inkscape:connector-curvature="0" />
      </g>
      <text
         xml:space="preserve"
         style="font-size:13px;font-style:normal;font-variant:normal;font-weight:500;font-stretch:normal;text-align:center;line-height:125%;letter-spacing:0px;word-spacing:0px;text-anchor:middle;fill:#000000;fill-opacity:1;stroke:none;font-family:CMU Bright;-inkscape-font-specification:CMU Bright Medium"
         x="411.72552"
         y="225.70296"
         id="text3004-0-4-6"
         sodipodi:linespacing="125%"><tspan
           sodipodi:role="line"
           id="tspan3006-8-8-8"
           x="411.72552"
           y="225.70296">Portuguese</tspan><tspan
           sodipodi:role="line"
           x="411.72552"
           y="241.95296"
           id="tspan3162">Corpora</tspan></text>
    </g>
    <path
       inkscape:connector-curvature="0"
       id="path5250-6"
       d="m 271.68166,333.42943 0,21.8557"
       style="fill:none;stroke:#000000;stroke-width:1px;stroke-linecap:butt;stroke-linejoin:miter;stroke-opacity:1;marker-start:url(#Arrow2Mstart);marker-end:url(#Arrow2Mend)"
       sodipodi:nodetypes="cc"
       inkscape:export-filename="/home/stitch/Tese3/document/images/system/transfer-trans_2.png"
       inkscape:export-xdpi="300"
       inkscape:export-ydpi="300" />
    <path
       style="fill:none;stroke:#000000;stroke-width:1px;stroke-linecap:butt;stroke-linejoin:miter;stroke-opacity:1;marker-end:url(#Arrow2Mend)"
       d="m 620.24527,314.59718 24.24366,0"
       id="path6068-3-0"
       inkscape:connector-curvature="0"
       inkscape:export-filename="/home/stitch/Tese3/document/images/system/transfer-trans_2.png"
       inkscape:export-xdpi="300"
       inkscape:export-ydpi="300" />
    <g
       id="g5092-3-6"
       transform="translate(171.54077,154.9357)"
       inkscape:export-filename="/home/stitch/Tese3/document/images/system/transfer-trans_2.png"
       inkscape:export-xdpi="300"
       inkscape:export-ydpi="300">
      <g
         id="g5088-0-7">
        <path
           style="color:#000000;fill:#009de1;fill-opacity:0.4;fill-rule:nonzero;stroke:#060307;stroke-width:0.99999994;stroke-linecap:round;stroke-linejoin:round;stroke-miterlimit:4.19999981;stroke-opacity:1;stroke-dasharray:none;stroke-dashoffset:0;marker:none;visibility:visible;display:inline;overflow:visible;enable-background:accumulate"
           d="m 412.15625,200.4375 c -22.43188,0 -40.77677,2.79869 -42.1875,6.34375 l -0.125,0 0,33.9375 0.0937,0 c 1.22679,3.57836 19.68125,6.4375 42.21875,6.4375 23.35155,0 42.28125,-3.06256 42.28125,-6.8125 l -0.0937,0 0,-32.71875 c 0.05,-0.13528 0.0937,-0.26896 0.0937,-0.40625 0,-0.13886 -0.0426,-0.26946 -0.0937,-0.40625 -0.003,-0.009 0.003,-0.0226 0,-0.0312 -1.41073,-3.54506 -19.75562,-6.34375 -42.1875,-6.34375 z"
           id="rect3050-8-5-7-3"
           inkscape:connector-curvature="0" />
        <path
           transform="translate(0.35714286,-6.0714286)"
           style="color:#000000;fill:none;stroke:#060307;stroke-width:0.99999994;stroke-linecap:round;stroke-linejoin:round;stroke-miterlimit:4.19999981;stroke-opacity:1;stroke-dashoffset:0;marker:none;visibility:visible;display:inline;overflow:visible;enable-background:accumulate"
           d="m 453.92856,213.07646 c 0,3.5504 -18.868,6.42857 -42.14285,6.42857 -23.27486,0 -42.14286,-2.87817 -42.14286,-6.42857 0,-3.5504 18.868,-6.42857 42.14286,-6.42857 23.27485,0 42.14285,2.87817 42.14285,6.42857 z"
           id="path5085-8-6"
           inkscape:connector-curvature="0" />
      </g>
      <text
         xml:space="preserve"
         style="font-size:13px;font-style:normal;font-variant:normal;font-weight:500;font-stretch:normal;text-align:center;line-height:125%;letter-spacing:0px;word-spacing:0px;text-anchor:middle;fill:#000000;fill-opacity:1;stroke:none;font-family:CMU Bright;-inkscape-font-specification:CMU Bright Medium"
         x="411.72552"
         y="225.70296"
         id="text3004-0-4-6-5"
         sodipodi:linespacing="125%"><tspan
           sodipodi:role="line"
           x="411.72552"
           y="225.70296"
           id="tspan3162-3">Bilingual</tspan><tspan
           sodipodi:role="line"
           x="411.72552"
           y="241.95296"
           id="tspan3255">Dictionary</tspan></text>
    </g>
    <g
       id="g5228-5"
       transform="translate(123.97739,195.91732)"
       inkscape:export-filename="/home/stitch/Tese3/document/images/system/transfer-trans_2.png"
       inkscape:export-xdpi="300"
       inkscape:export-ydpi="300">
      <rect
         style="color:#000000;fill:#009de1;fill-opacity:0.4;fill-rule:nonzero;stroke:#060307;stroke-width:0.99999994;stroke-linecap:round;stroke-linejoin:round;stroke-miterlimit:4.19999981;stroke-opacity:1;stroke-dasharray:none;stroke-dashoffset:0;marker:none;visibility:visible;display:inline;overflow:visible;enable-background:accumulate"
         id="rect5135-2-9"
         width="72.934036"
         height="39.39595"
         x="423.23697"
         y="95.521347" />
      <text
         sodipodi:linespacing="125%"
         id="text3246-8"
         y="111.27832"
         x="459.13663"
         style="font-size:14px;font-style:normal;font-variant:normal;font-weight:normal;font-stretch:normal;text-align:center;line-height:125%;letter-spacing:0px;word-spacing:0px;text-anchor:middle;fill:#000000;fill-opacity:1;stroke:none;font-family:CMU Bright;-inkscape-font-specification:Sans"
         xml:space="preserve"><tspan
           y="111.27832"
           x="459.13663"
           id="tspan3248-4"
           sodipodi:role="line">Lexical</tspan><tspan
           id="tspan3272-8"
           y="128.77832"
           x="459.13663"
           sodipodi:role="line">Transfer</tspan></text>
    </g>
    <path
       inkscape:connector-curvature="0"
       id="path5250-6-7"
       d="m 583.68137,331.9142 0,23.07506"
       style="fill:none;stroke:#000000;stroke-width:1px;stroke-linecap:butt;stroke-linejoin:miter;stroke-opacity:1;marker-start:url(#Arrow2Mstart);marker-end:url(#Arrow2Mend)"
       sodipodi:nodetypes="cc"
       inkscape:export-filename="/home/stitch/Tese3/document/images/system/transfer-trans_2.png"
       inkscape:export-xdpi="300"
       inkscape:export-ydpi="300" />
    <g
       id="g5092-3-7"
       transform="translate(272.59374,154.9357)"
       inkscape:export-filename="/home/stitch/Tese3/document/images/system/transfer-trans_2.png"
       inkscape:export-xdpi="300"
       inkscape:export-ydpi="300">
      <g
         id="g5088-0-1">
        <path
           style="color:#000000;fill:#009de1;fill-opacity:0.4;fill-rule:nonzero;stroke:#060307;stroke-width:0.99999994;stroke-linecap:round;stroke-linejoin:round;stroke-miterlimit:4.19999981;stroke-opacity:1;stroke-dasharray:none;stroke-dashoffset:0;marker:none;visibility:visible;display:inline;overflow:visible;enable-background:accumulate"
           d="m 412.15625,200.4375 c -22.43188,0 -40.77677,2.79869 -42.1875,6.34375 l -0.125,0 0,33.9375 0.0937,0 c 1.22679,3.57836 19.68125,6.4375 42.21875,6.4375 23.35155,0 42.28125,-3.06256 42.28125,-6.8125 l -0.0937,0 0,-32.71875 c 0.05,-0.13528 0.0937,-0.26896 0.0937,-0.40625 0,-0.13886 -0.0426,-0.26946 -0.0937,-0.40625 -0.003,-0.009 0.003,-0.0226 0,-0.0312 -1.41073,-3.54506 -19.75562,-6.34375 -42.1875,-6.34375 z"
           id="rect3050-8-5-7-1"
           inkscape:connector-curvature="0" />
        <path
           transform="translate(0.35714286,-6.0714286)"
           style="color:#000000;fill:none;stroke:#060307;stroke-width:0.99999994;stroke-linecap:round;stroke-linejoin:round;stroke-miterlimit:4.19999981;stroke-opacity:1;stroke-dashoffset:0;marker:none;visibility:visible;display:inline;overflow:visible;enable-background:accumulate"
           d="m 453.92856,213.07646 c 0,3.5504 -18.868,6.42857 -42.14285,6.42857 -23.27486,0 -42.14286,-2.87817 -42.14286,-6.42857 0,-3.5504 18.868,-6.42857 42.14286,-6.42857 23.27485,0 42.14285,2.87817 42.14285,6.42857 z"
           id="path5085-8-5"
           inkscape:connector-curvature="0" />
      </g>
      <text
         xml:space="preserve"
         style="font-size:13px;font-style:normal;font-variant:normal;font-weight:500;font-stretch:normal;text-align:center;line-height:125%;letter-spacing:0px;word-spacing:0px;text-anchor:middle;fill:#000000;fill-opacity:1;stroke:none;font-family:CMU Bright;-inkscape-font-specification:CMU Bright Medium"
         x="411.72552"
         y="225.70296"
         id="text3004-0-4-6-9"
         sodipodi:linespacing="125%"><tspan
           sodipodi:role="line"
           x="411.72552"
           y="225.70296"
           id="tspan3162-7">Alignment</tspan><tspan
           sodipodi:role="line"
           x="411.72552"
           y="241.95296"
           id="tspan3232">Model/Rules</tspan></text>
    </g>
    <g
       id="g5234-8"
       transform="translate(146.87717,207.34588)"
       inkscape:export-filename="/home/stitch/Tese3/document/images/system/transfer-trans_2.png"
       inkscape:export-xdpi="300"
       inkscape:export-ydpi="300">
      <rect
         style="color:#000000;fill:#009de1;fill-opacity:0.4;fill-rule:nonzero;stroke:#060307;stroke-width:0.99999994;stroke-linecap:round;stroke-linejoin:round;stroke-miterlimit:4.19999981;stroke-opacity:1;stroke-dasharray:none;stroke-dashoffset:0;marker:none;visibility:visible;display:inline;overflow:visible;enable-background:accumulate"
         id="rect5135-4-5"
         width="78.648323"
         height="39.39595"
         x="498.53299"
         y="84.092781" />
      <text
         sodipodi:linespacing="125%"
         id="text3250-0"
         y="99.961754"
         x="537.77173"
         style="font-size:14px;font-style:normal;font-variant:normal;font-weight:normal;font-stretch:normal;text-align:center;line-height:125%;letter-spacing:0px;word-spacing:0px;text-anchor:middle;fill:#000000;fill-opacity:1;stroke:none;font-family:CMU Bright;-inkscape-font-specification:Sans"
         xml:space="preserve"><tspan
           y="99.961754"
           x="537.77173"
           id="tspan3252-9"
           sodipodi:role="line">Structure</tspan><tspan
           id="tspan3274-6"
           y="117.46175"
           x="537.77173"
           sodipodi:role="line">Transfer</tspan></text>
    </g>
    <path
       inkscape:connector-curvature="0"
       id="path5250-6-9"
       d="m 684.73434,330.39897 0,24.88616"
       style="fill:none;stroke:#000000;stroke-width:1px;stroke-linecap:butt;stroke-linejoin:miter;stroke-opacity:1;marker-start:url(#Arrow2Mstart);marker-end:url(#Arrow2Mend)"
       sodipodi:nodetypes="cc"
       inkscape:export-filename="/home/stitch/Tese3/document/images/system/transfer-trans_2.png"
       inkscape:export-xdpi="300"
       inkscape:export-ydpi="300" />
    <g
       id="g3577"
       transform="translate(46,-8.2282981)"
       inkscape:export-filename="/home/stitch/Tese3/document/images/system/transfer-trans_2.png"
       inkscape:export-xdpi="300"
       inkscape:export-ydpi="300">
      <g
         transform="translate(-2.1428572,-61.428572)"
         id="g3468">
        <rect
           y="367.66156"
           x="303.65237"
           height="26.263966"
           width="172.53304"
           id="rect5101-6-3"
           style="color:#000000;fill:#009de1;fill-opacity:0.4;fill-rule:nonzero;stroke:#060307;stroke-width:0.99999994;stroke-linecap:round;stroke-linejoin:round;stroke-miterlimit:4.19999981;stroke-opacity:1;stroke-dasharray:none;stroke-dashoffset:0;marker:none;visibility:visible;display:inline;overflow:visible;enable-background:accumulate" />
        <text
           xml:space="preserve"
           style="font-size:14px;font-style:normal;font-variant:normal;font-weight:normal;font-stretch:normal;line-height:125%;letter-spacing:0px;word-spacing:0px;fill:#000000;fill-opacity:1;stroke:none;font-family:CMU Bright;-inkscape-font-specification:Sans"
           x="310.02933"
           y="383.78253"
           id="text3016"
           sodipodi:linespacing="125%"><tspan
             sodipodi:role="line"
             id="tspan3018"
             x="310.02933"
             y="383.78253">Named Entity Recognition</tspan></text>
      </g>
      <g
         transform="translate(-2.1428572,-61.428572)"
         id="g3478">
        <rect
           y="403.84424"
           x="303.65237"
           height="26.263966"
           width="172.53304"
           id="rect5101-6-3-6"
           style="color:#000000;fill:#009de1;fill-opacity:0.4;fill-rule:nonzero;stroke:#060307;stroke-width:0.99999994;stroke-linecap:round;stroke-linejoin:round;stroke-miterlimit:4.19999981;stroke-opacity:1;stroke-dasharray:none;stroke-dashoffset:0;marker:none;visibility:visible;display:inline;overflow:visible;enable-background:accumulate" />
        <text
           xml:space="preserve"
           style="font-size:14px;font-style:normal;font-variant:normal;font-weight:normal;font-stretch:normal;line-height:125%;letter-spacing:0px;word-spacing:0px;fill:#000000;fill-opacity:1;stroke:none;font-family:CMU Bright;-inkscape-font-specification:Sans"
           x="310.05731"
           y="421.78522"
           id="text3020"
           sodipodi:linespacing="125%"><tspan
             sodipodi:role="line"
             id="tspan3022"
             x="310.05731"
             y="421.78522">Relation Extraction</tspan></text>
      </g>
      <g
         transform="translate(-2.1428572,-61.428572)"
         id="g3473">
        <rect
           y="331.47882"
           x="303.65237"
           height="26.263966"
           width="172.53304"
           id="rect5101-6-3-8"
           style="color:#000000;fill:#009de1;fill-opacity:0.4;fill-rule:nonzero;stroke:#060307;stroke-width:0.99999994;stroke-linecap:round;stroke-linejoin:round;stroke-miterlimit:4.19999981;stroke-opacity:1;stroke-dasharray:none;stroke-dashoffset:0;marker:none;visibility:visible;display:inline;overflow:visible;enable-background:accumulate" />
        <text
           xml:space="preserve"
           style="font-size:14px;font-style:normal;font-variant:normal;font-weight:normal;font-stretch:normal;line-height:125%;letter-spacing:0px;word-spacing:0px;fill:#000000;fill-opacity:1;stroke:none;font-family:CMU Bright;-inkscape-font-specification:Sans"
           x="310.01532"
           y="348.2438"
           id="text3125"
           sodipodi:linespacing="125%"><tspan
             sodipodi:role="line"
             id="tspan3127"
             x="310.01532"
             y="348.2438">Morphological Analysis</tspan></text>
      </g>
    </g>
    <path
       style="fill:none;stroke:#000000;stroke-width:1px;stroke-linecap:butt;stroke-linejoin:miter;stroke-opacity:1;marker-end:url(#Arrow2Mend)"
       d="m 201.02489,311.14628 18.68782,0"
       id="path6068-3-0-4-6"
       inkscape:connector-curvature="0"
       inkscape:export-filename="/home/stitch/Tese3/document/images/system/transfer-trans_2.png"
       inkscape:export-xdpi="300"
       inkscape:export-ydpi="300"
       sodipodi:nodetypes="cc" />
    <path
       style="fill:none;stroke:#000000;stroke-width:1px;stroke-linecap:butt;stroke-linejoin:miter;stroke-opacity:1;marker-end:url(#Arrow2Mend-08)"
       d="m 95.178033,279.35747 0,32.6987 9.576867,0"
       id="path3671"
       inkscape:connector-curvature="0"
       sodipodi:nodetypes="ccc"
       inkscape:export-filename="/home/stitch/Tese3/document/images/system/transfer-trans_2.png"
       inkscape:export-xdpi="300"
       inkscape:export-ydpi="300" />
    <g
       id="g4851"
       transform="translate(46.000013,0)"
       inkscape:export-filename="/home/stitch/Tese3/document/images/system/transfer-trans_2.png"
       inkscape:export-xdpi="300"
       inkscape:export-ydpi="300">
      <path
         sodipodi:nodetypes="cc"
         inkscape:export-ydpi="300"
         inkscape:export-xdpi="300"
         inkscape:export-filename="/home/stitch/Tese3/document/images/system/imp-nlp.png"
         inkscape:connector-curvature="0"
         id="path6068-3-0-4-1"
         d="m 276.21888,313.80036 24.63362,0"
         style="fill:none;stroke:#000000;stroke-width:1px;stroke-linecap:butt;stroke-linejoin:miter;stroke-opacity:1;marker-end:url(#Arrow2Mend)" />
      <path
         sodipodi:nodetypes="ccc"
         inkscape:connector-curvature="0"
         id="path3671-2"
         d="m 289.83527,313.57011 0,32.6987 11.25254,0"
         style="fill:none;stroke:#000000;stroke-width:1px;stroke-linecap:butt;stroke-linejoin:miter;stroke-opacity:1;marker-end:url(#Arrow2Mend-08)" />
      <path
         sodipodi:nodetypes="ccc"
         inkscape:connector-curvature="0"
         id="path3671-28"
         d="m 289.91178,313.10223 0,-38.75961 10.74746,0"
         style="fill:none;stroke:#000000;stroke-width:1px;stroke-linecap:butt;stroke-linejoin:miter;stroke-opacity:1;marker-end:url(#Arrow2Mend-08)" />
    </g>
    <g
       id="g4858"
       inkscape:export-filename="/home/stitch/Tese3/document/images/system/transfer-trans_2.png"
       inkscape:export-xdpi="300"
       inkscape:export-ydpi="300">
      <path
         sodipodi:nodetypes="cc"
         inkscape:export-ydpi="300"
         inkscape:export-xdpi="300"
         inkscape:export-filename="/home/stitch/Tese3/document/images/system/imp-nlp.png"
         inkscape:connector-curvature="0"
         id="path6068-3-0-4"
         d="m 519.21145,311.14625 27.27412,0"
         style="fill:none;stroke:#000000;stroke-width:1px;stroke-linecap:butt;stroke-linejoin:miter;stroke-opacity:1;marker-end:url(#Arrow2Mend)" />
      <path
         inkscape:connector-curvature="0"
         id="path4856"
         d="m 520.22856,274.54472 9.3412,0 0,73.23606 -9.3412,0"
         style="fill:none;stroke:#000000;stroke-width:1px;stroke-linecap:butt;stroke-linejoin:miter;stroke-opacity:1"
         sodipodi:nodetypes="cccc" />
    </g>
    <g
       id="g4884"
       transform="translate(221.22656,-164.75639)"
       inkscape:export-filename="/home/stitch/Tese3/document/images/system/transfer-trans_2.png"
       inkscape:export-xdpi="300"
       inkscape:export-ydpi="300">
      <rect
         style="color:#000000;fill:#009de1;fill-opacity:0.4;fill-rule:nonzero;stroke:#060307;stroke-width:0.99999994;stroke-linecap:round;stroke-linejoin:round;stroke-miterlimit:4.19999981;stroke-opacity:1;stroke-dasharray:none;stroke-dashoffset:0;marker:none;visibility:visible;display:inline;overflow:visible;enable-background:accumulate"
         id="rect5101-6-3-6-4"
         width="128.08632"
         height="26.263966"
         x="347.50952"
         y="412.79276" />
      <text
         sodipodi:linespacing="125%"
         id="text4862"
         y="429.96533"
         x="354.64246"
         style="font-size:14px;font-style:normal;font-variant:normal;font-weight:normal;font-stretch:normal;line-height:125%;letter-spacing:0px;word-spacing:0px;fill:#000000;fill-opacity:1;stroke:none;font-family:CMU Bright;-inkscape-font-specification:Sans"
         xml:space="preserve"><tspan
           y="429.96533"
           x="354.64246"
           id="tspan4864"
           sodipodi:role="line">Sentiment Analysis</tspan></text>
    </g>
    <path
       style="fill:none;stroke:#000000;stroke-width:1;stroke-linecap:butt;stroke-linejoin:miter;stroke-miterlimit:4;stroke-opacity:1;stroke-dasharray:4, 4;stroke-dashoffset:0;marker-end:url(#Arrow2Mend)"
       d="m 630.55845,274.91456 c 1.13643,22.34962 -78.91816,-19.06663 -110.73797,22.8547"
       id="path5882-1-0"
       inkscape:connector-curvature="0"
       sodipodi:nodetypes="cc"
       inkscape:export-filename="/home/stitch/Tese3/document/images/system/transfer-trans_2.png"
       inkscape:export-xdpi="300"
       inkscape:export-ydpi="300" />
    <path
       style="fill:none;stroke:#000000;stroke-width:1;stroke-linecap:butt;stroke-linejoin:miter;stroke-miterlimit:4;stroke-opacity:1;stroke-dasharray:4, 4;stroke-dashoffset:0;marker-end:url(#Arrow2Mend)"
       d="m 630.28617,274.95884 c 1.13643,22.34962 -98.11105,-23.61231 -109.72781,59.72528"
       id="path5882-1-0-8"
       inkscape:connector-curvature="0"
       sodipodi:nodetypes="cc"
       inkscape:export-filename="/home/stitch/Tese3/document/images/system/transfer-trans_2.png"
       inkscape:export-xdpi="300"
       inkscape:export-ydpi="300" />
    <g
       id="g3567-4"
       transform="translate(-53.742715,156.02404)"
       inkscape:export-filename="/home/stitch/Tese3/document/images/system/stat-trans.png"
       inkscape:export-xdpi="300"
       inkscape:export-ydpi="300">
      <rect
         style="color:#000000;fill:#009de1;fill-opacity:0.4;fill-rule:nonzero;stroke:#060307;stroke-width:0.99999988;stroke-linecap:round;stroke-linejoin:round;stroke-miterlimit:4.19999981;stroke-opacity:1;stroke-dasharray:none;stroke-dashoffset:0;marker:none;visibility:visible;display:inline;overflow:visible;enable-background:accumulate"
         id="rect5101-9-1"
         width="154.64977"
         height="26.263966"
         x="65.532257"
         y="279.23019" />
      <text
         sodipodi:linespacing="125%"
         id="text3004-7"
         y="296.05118"
         x="73.837799"
         style="font-size:14px;font-style:normal;font-variant:normal;font-weight:normal;font-stretch:normal;line-height:125%;letter-spacing:0px;word-spacing:0px;fill:#000000;fill-opacity:1;stroke:none;font-family:CMU Bright;-inkscape-font-specification:Sans"
         xml:space="preserve"><tspan
           y="296.05118"
           x="73.837799"
           id="tspan3006-1"
           sodipodi:role="line">Sentence segmentation</tspan></text>
    </g>
    <g
       id="g3572-1"
       transform="translate(5.6445252,194.6774)"
       inkscape:export-filename="/home/stitch/Tese3/document/images/system/stat-trans.png"
       inkscape:export-xdpi="300"
       inkscape:export-ydpi="300">
      <rect
         style="color:#000000;fill:#009de1;fill-opacity:0.4;fill-rule:nonzero;stroke:#060307;stroke-width:0.99999994;stroke-linecap:round;stroke-linejoin:round;stroke-miterlimit:4.19999981;stroke-opacity:1;stroke-dasharray:none;stroke-dashoffset:0;marker:none;visibility:visible;display:inline;overflow:visible;enable-background:accumulate"
         id="rect5101-2-1"
         width="94.649765"
         height="26.263966"
         x="83.389404"
         y="279.82193" />
      <text
         sodipodi:linespacing="125%"
         id="text3008-7"
         y="295.74258"
         x="93.121223"
         style="font-size:14px;font-style:normal;font-variant:normal;font-weight:normal;font-stretch:normal;line-height:125%;letter-spacing:0px;word-spacing:0px;fill:#000000;fill-opacity:1;stroke:none;font-family:CMU Bright;-inkscape-font-specification:Sans"
         xml:space="preserve"><tspan
           y="295.74258"
           x="93.121223"
           id="tspan3010-0"
           sodipodi:role="line">Tokenization</tspan></text>
    </g>
    <g
       id="g3626-4"
       transform="translate(34.448725,176.49466)"
       inkscape:export-filename="/home/stitch/Tese3/document/images/system/stat-trans.png"
       inkscape:export-xdpi="300"
       inkscape:export-ydpi="300">
      <g
         transform="translate(40.406102,-35.511251)"
         id="g3525-0">
        <rect
           y="325.76648"
           x="132.55873"
           height="41.762882"
           width="102.02541"
           id="rect5099-6-8"
           style="color:#000000;fill:#009de1;fill-opacity:0.4;stroke:#060307;stroke-width:0.99999994;stroke-linecap:round;stroke-linejoin:round;stroke-miterlimit:4.19999981;stroke-opacity:1;stroke-dasharray:none;stroke-dashoffset:0;marker:none;visibility:visible;display:inline;overflow:visible;enable-background:accumulate" />
        <text
           xml:space="preserve"
           style="font-size:14px;font-style:normal;font-variant:normal;font-weight:normal;font-stretch:normal;text-align:center;line-height:125%;letter-spacing:0px;word-spacing:0px;text-anchor:middle;fill:#000000;fill-opacity:1;stroke:none;font-family:CMU Bright;-inkscape-font-specification:Sans"
           x="183.46349"
           y="341.58688"
           id="text3012-5"
           sodipodi:linespacing="125%"><tspan
             sodipodi:role="line"
             id="tspan3014-1"
             x="183.46349"
             y="341.58688">Part-Of-Speech</tspan><tspan
             sodipodi:role="line"
             x="183.46349"
             y="359.08688"
             id="tspan3402-6">Tagging</tspan></text>
      </g>
      <g
         inkscape:export-ydpi="300"
         inkscape:export-xdpi="300"
         inkscape:export-filename="/home/stitch/Tese3/document/images/system/imp-nlp.png"
         transform="translate(-188.16306,162.9357)"
         id="g5092-3-62">
        <g
           id="g5088-0-19">
          <path
             inkscape:connector-curvature="0"
             id="rect3050-8-5-7-6"
             d="m 412.15625,200.4375 c -22.43188,0 -40.77677,2.79869 -42.1875,6.34375 l -0.125,0 0,33.9375 0.0937,0 c 1.22679,3.57836 19.68125,6.4375 42.21875,6.4375 23.35155,0 42.28125,-3.06256 42.28125,-6.8125 l -0.0937,0 0,-32.71875 c 0.05,-0.13528 0.0937,-0.26896 0.0937,-0.40625 0,-0.13886 -0.0426,-0.26946 -0.0937,-0.40625 -0.003,-0.009 0.003,-0.0226 0,-0.0312 -1.41073,-3.54506 -19.75562,-6.34375 -42.1875,-6.34375 z"
             style="color:#000000;fill:#009de1;fill-opacity:0.4;fill-rule:nonzero;stroke:#060307;stroke-width:0.99999994;stroke-linecap:round;stroke-linejoin:round;stroke-miterlimit:4.19999981;stroke-opacity:1;stroke-dasharray:none;stroke-dashoffset:0;marker:none;visibility:visible;display:inline;overflow:visible;enable-background:accumulate" />
          <path
             inkscape:connector-curvature="0"
             id="path5085-8-4"
             d="m 453.92856,213.07646 c 0,3.5504 -18.868,6.42857 -42.14285,6.42857 -23.27486,0 -42.14286,-2.87817 -42.14286,-6.42857 0,-3.5504 18.868,-6.42857 42.14286,-6.42857 23.27485,0 42.14285,2.87817 42.14285,6.42857 z"
             style="color:#000000;fill:none;stroke:#060307;stroke-width:0.99999994;stroke-linecap:round;stroke-linejoin:round;stroke-miterlimit:4.19999981;stroke-opacity:1;stroke-dashoffset:0;marker:none;visibility:visible;display:inline;overflow:visible;enable-background:accumulate"
             transform="translate(0.35714286,-6.0714286)" />
        </g>
        <text
           sodipodi:linespacing="125%"
           id="text3004-0-4-6-8"
           y="225.70296"
           x="411.72552"
           style="font-size:13px;font-style:normal;font-variant:normal;font-weight:500;font-stretch:normal;text-align:center;line-height:125%;letter-spacing:0px;word-spacing:0px;text-anchor:middle;fill:#000000;fill-opacity:1;stroke:none;font-family:CMU Bright;-inkscape-font-specification:CMU Bright Medium"
           xml:space="preserve"><tspan
             y="225.70296"
             x="411.72552"
             id="tspan3006-8-8-8-0"
             sodipodi:role="line">Portuguese</tspan><tspan
             id="tspan3162-8"
             y="241.95296"
             x="411.72552"
             sodipodi:role="line">Corpora</tspan></text>
      </g>
      <path
         style="fill:none;stroke:#000000;stroke-width:1px;stroke-linecap:butt;stroke-linejoin:miter;stroke-opacity:1;marker-start:url(#Arrow2Mstart);marker-end:url(#Arrow2Mend)"
         d="m 223.97754,333.42943 0,28.28427"
         id="path5250-6-1"
         inkscape:connector-curvature="0" />
    </g>
    <path
       style="fill:none;stroke:#000000;stroke-width:1px;stroke-linecap:butt;stroke-linejoin:miter;stroke-opacity:1;marker-end:url(#Arrow2Mend)"
       d="m 183.0146,487.64094 24.24366,0"
       id="path6068-3-0-4-6-0"
       inkscape:connector-curvature="0"
       inkscape:export-filename="/home/stitch/Tese3/document/images/system/stat-trans.png"
       inkscape:export-xdpi="300"
       inkscape:export-ydpi="300" />
    <path
       style="fill:none;stroke:#000000;stroke-width:1px;stroke-linecap:butt;stroke-linejoin:miter;stroke-opacity:1;marker-end:url(#Arrow2Mend-08)"
       d="m 69.07093,461.40797 0,27.14286 19,0"
       id="path3671-22"
       inkscape:connector-curvature="0"
       sodipodi:nodetypes="ccc"
       inkscape:export-filename="/home/stitch/Tese3/document/images/system/stat-trans.png"
       inkscape:export-xdpi="300"
       inkscape:export-ydpi="300" />
    <g
       id="g3572-7"
       transform="translate(294.99516,196.74676)"
       inkscape:export-filename="/home/stitch/Tese3/document/images/system/stat-trans.png"
       inkscape:export-xdpi="300"
       inkscape:export-ydpi="300">
      <rect
         style="color:#000000;fill:#009de1;fill-opacity:0.4;fill-rule:nonzero;stroke:#060307;stroke-width:0.99999988;stroke-linecap:round;stroke-linejoin:round;stroke-miterlimit:4.19999981;stroke-opacity:1;stroke-dasharray:none;stroke-dashoffset:0;marker:none;visibility:visible;display:inline;overflow:visible;enable-background:accumulate"
         id="rect5101-2-13"
         width="165.36044"
         height="34.345184"
         x="51.459251"
         y="273.71198" />
      <text
         sodipodi:linespacing="125%"
         id="text3008-3"
         y="295.74258"
         x="93.121223"
         style="font-size:14px;font-style:normal;font-variant:normal;font-weight:normal;font-stretch:normal;line-height:125%;letter-spacing:0px;word-spacing:0px;fill:#000000;fill-opacity:1;stroke:none;font-family:CMU Bright;-inkscape-font-specification:Sans"
         xml:space="preserve"><tspan
           y="295.74258"
           x="93.121223"
           id="tspan3010-3"
           sodipodi:role="line">Global Search</tspan></text>
    </g>
    <g
       id="g5214"
       transform="translate(-30,0)"
       inkscape:export-filename="/home/stitch/Tese3/document/images/system/stat-trans.png"
       inkscape:export-xdpi="300"
       inkscape:export-ydpi="300">
      <g
         inkscape:export-ydpi="300"
         inkscape:export-xdpi="300"
         inkscape:export-filename="/home/stitch/Tese3/document/images/system/imp-nlp.png"
         transform="translate(-4.03897,339.43036)"
         id="g5092-9">
        <g
           id="g5088-7">
          <path
             inkscape:connector-curvature="0"
             id="rect3050-8-5-5"
             d="m 412.15625,200.4375 c -22.43188,0 -40.77677,2.79869 -42.1875,6.34375 l -0.125,0 0,33.9375 0.0937,0 c 1.22679,3.57836 19.68125,6.4375 42.21875,6.4375 23.35155,0 42.28125,-3.06256 42.28125,-6.8125 l -0.0937,0 0,-32.71875 c 0.05,-0.13528 0.0937,-0.26896 0.0937,-0.40625 0,-0.13886 -0.0426,-0.26946 -0.0937,-0.40625 -0.003,-0.009 0.003,-0.0226 0,-0.0312 -1.41073,-3.54506 -19.75562,-6.34375 -42.1875,-6.34375 z"
             style="color:#000000;fill:#009de1;fill-opacity:0.4;fill-rule:nonzero;stroke:#060307;stroke-width:0.99999994;stroke-linecap:round;stroke-linejoin:round;stroke-miterlimit:4.19999981;stroke-opacity:1;stroke-dasharray:none;stroke-dashoffset:0;marker:none;visibility:visible;display:inline;overflow:visible;enable-background:accumulate" />
          <path
             inkscape:connector-curvature="0"
             id="path5085-6"
             d="m 453.92856,213.07646 c 0,3.5504 -18.868,6.42857 -42.14285,6.42857 -23.27486,0 -42.14286,-2.87817 -42.14286,-6.42857 0,-3.5504 18.868,-6.42857 42.14286,-6.42857 23.27485,0 42.14285,2.87817 42.14285,6.42857 z"
             style="color:#000000;fill:none;stroke:#060307;stroke-width:0.99999994;stroke-linecap:round;stroke-linejoin:round;stroke-miterlimit:4.19999981;stroke-opacity:1;stroke-dashoffset:0;marker:none;visibility:visible;display:inline;overflow:visible;enable-background:accumulate"
             transform="translate(0.35714286,-6.0714286)" />
        </g>
        <text
           sodipodi:linespacing="125%"
           id="text3004-0-4-4"
           y="225.70296"
           x="411.72552"
           style="font-size:13px;font-style:normal;font-variant:normal;font-weight:500;font-stretch:normal;text-align:center;line-height:125%;letter-spacing:0px;word-spacing:0px;text-anchor:middle;fill:#000000;fill-opacity:1;stroke:none;font-family:CMU Bright;-inkscape-font-specification:CMU Bright Medium"
           xml:space="preserve"><tspan
             y="225.70296"
             x="411.72552"
             id="tspan3006-8-8-6"
             sodipodi:role="line">Language</tspan><tspan
             id="tspan5104"
             y="241.95296"
             x="411.72552"
             sodipodi:role="line">Model</tspan></text>
      </g>
      <path
         inkscape:connector-curvature="0"
         id="path5250-6-1-5"
         d="m 408.10163,504.87332 0,33.33504"
         style="fill:none;stroke:#000000;stroke-width:1px;stroke-linecap:butt;stroke-linejoin:miter;stroke-opacity:1;marker-start:url(#Arrow2Mstart);marker-end:url(#Arrow2Mend)"
         sodipodi:nodetypes="cc" />
    </g>
    <g
       id="g5224"
       transform="translate(-34,0)"
       inkscape:export-filename="/home/stitch/Tese3/document/images/system/stat-trans.png"
       inkscape:export-xdpi="300"
       inkscape:export-ydpi="300">
      <g
         inkscape:export-ydpi="300"
         inkscape:export-xdpi="300"
         inkscape:export-filename="/home/stitch/Tese3/document/images/system/imp-nlp.png"
         transform="translate(102.02705,339.43036)"
         id="g5092-9-7">
        <g
           id="g5088-7-0">
          <path
             inkscape:connector-curvature="0"
             id="rect3050-8-5-5-3"
             d="m 412.15625,200.4375 c -22.43188,0 -40.77677,2.79869 -42.1875,6.34375 l -0.125,0 0,33.9375 0.0937,0 c 1.22679,3.57836 19.68125,6.4375 42.21875,6.4375 23.35155,0 42.28125,-3.06256 42.28125,-6.8125 l -0.0937,0 0,-32.71875 c 0.05,-0.13528 0.0937,-0.26896 0.0937,-0.40625 0,-0.13886 -0.0426,-0.26946 -0.0937,-0.40625 -0.003,-0.009 0.003,-0.0226 0,-0.0312 -1.41073,-3.54506 -19.75562,-6.34375 -42.1875,-6.34375 z"
             style="color:#000000;fill:#009de1;fill-opacity:0.4;fill-rule:nonzero;stroke:#060307;stroke-width:0.99999994;stroke-linecap:round;stroke-linejoin:round;stroke-miterlimit:4.19999981;stroke-opacity:1;stroke-dasharray:none;stroke-dashoffset:0;marker:none;visibility:visible;display:inline;overflow:visible;enable-background:accumulate" />
          <path
             inkscape:connector-curvature="0"
             id="path5085-6-4"
             d="m 453.92856,213.07646 c 0,3.5504 -18.868,6.42857 -42.14285,6.42857 -23.27486,0 -42.14286,-2.87817 -42.14286,-6.42857 0,-3.5504 18.868,-6.42857 42.14286,-6.42857 23.27485,0 42.14285,2.87817 42.14285,6.42857 z"
             style="color:#000000;fill:none;stroke:#060307;stroke-width:0.99999994;stroke-linecap:round;stroke-linejoin:round;stroke-miterlimit:4.19999981;stroke-opacity:1;stroke-dashoffset:0;marker:none;visibility:visible;display:inline;overflow:visible;enable-background:accumulate"
             transform="translate(0.35714286,-6.0714286)" />
        </g>
        <text
           sodipodi:linespacing="125%"
           id="text3004-0-4-4-6"
           y="225.70296"
           x="411.72552"
           style="font-size:13px;font-style:normal;font-variant:normal;font-weight:500;font-stretch:normal;text-align:center;line-height:125%;letter-spacing:0px;word-spacing:0px;text-anchor:middle;fill:#000000;fill-opacity:1;stroke:none;font-family:CMU Bright;-inkscape-font-specification:CMU Bright Medium"
           xml:space="preserve"><tspan
             y="225.70296"
             x="411.72552"
             id="tspan3006-8-8-6-3"
             sodipodi:role="line">Alignment</tspan><tspan
             id="tspan5104-6"
             y="241.95296"
             x="411.72552"
             sodipodi:role="line">Model</tspan></text>
      </g>
      <path
         inkscape:connector-curvature="0"
         id="path5250-6-1-3"
         d="m 514.16765,503.86317 0,34.34519"
         style="fill:none;stroke:#000000;stroke-width:1px;stroke-linecap:butt;stroke-linejoin:miter;stroke-opacity:1;marker-start:url(#Arrow2Mstart);marker-end:url(#Arrow2Mend)"
         sodipodi:nodetypes="cc" />
    </g>
    <path
       sodipodi:nodetypes="cc"
       inkscape:export-ydpi="300"
       inkscape:export-xdpi="300"
       inkscape:export-filename="/home/stitch/Tese3/document/images/system/stat-trans.png"
       inkscape:connector-curvature="0"
       id="path6068-3-0-4-10"
       d="m 310.31125,487.64094 35.35534,0"
       style="fill:none;stroke:#000000;stroke-width:1px;stroke-linecap:butt;stroke-linejoin:miter;stroke-opacity:1;marker-end:url(#Arrow2Mend)" />
    <g
       id="g5240-0"
       transform="translate(-526.89572,75.01525)"
       inkscape:export-filename="/home/stitch/Tese3/document/images/system/imp-nlp2.png"
       inkscape:export-xdpi="300"
       inkscape:export-ydpi="300">
      <text
         sodipodi:linespacing="125%"
         id="text3242-3"
         y="108.68694"
         x="566.45984"
         style="font-size:14px;font-style:normal;font-variant:normal;font-weight:normal;font-stretch:normal;line-height:125%;letter-spacing:0px;word-spacing:0px;fill:#000000;fill-opacity:1;stroke:none;font-family:CMU Bright;-inkscape-font-specification:Sans"
         xml:space="preserve"><tspan
           y="108.68694"
           x="566.45984"
           id="tspan3244-2"
           sodipodi:role="line"
           style="font-style:oblique;-inkscape-font-specification:CMU Bright Medium Oblique">Text input</tspan></text>
    </g>
    <path
       style="fill:none;stroke:#000000;stroke-width:1px;stroke-linecap:butt;stroke-linejoin:miter;stroke-opacity:1;marker-end:url(#Arrow2Mend)"
       d="m 72.177863,174.30822 0,-16.74366"
       id="path6068-6-5"
       inkscape:connector-curvature="0"
       inkscape:export-filename="/home/stitch/Tese3/document/images/system/imp-nlp2.png"
       inkscape:export-xdpi="300"
       inkscape:export-ydpi="300"
       sodipodi:nodetypes="cc" />
    <g
       id="g3322"
       transform="translate(-22.223356,0)"
       inkscape:export-filename="/home/stitch/Tese3/document/images/system/transfer-trans_2.png"
       inkscape:export-xdpi="300"
       inkscape:export-ydpi="300">
      <rect
         style="color:#000000;fill:#009de1;fill-opacity:0.4;fill-rule:nonzero;stroke:#060307;stroke-width:0.99999994;stroke-linecap:round;stroke-linejoin:round;stroke-miterlimit:4.19999981;stroke-opacity:1;stroke-dasharray:none;stroke-dashoffset:0;marker:none;visibility:visible;display:inline;overflow:visible;enable-background:accumulate"
         id="rect5101-6-3-6-1"
         width="172.53304"
         height="26.263966"
         x="370.32245"
         y="374.54984" />
      <text
         sodipodi:linespacing="125%"
         id="text3020-0"
         y="392.49081"
         x="376.72739"
         style="font-size:14px;font-style:normal;font-variant:normal;font-weight:normal;font-stretch:normal;line-height:125%;letter-spacing:0px;word-spacing:0px;fill:#000000;fill-opacity:1;stroke:none;font-family:CMU Bright;-inkscape-font-specification:Sans"
         xml:space="preserve"><tspan
           y="392.49081"
           x="376.72739"
           id="tspan3022-6"
           sodipodi:role="line">Parsing</tspan></text>
    </g>
    <path
       sodipodi:nodetypes="ccc"
       inkscape:connector-curvature="0"
       id="path3671-2-3"
       d="m 335.92156,345.89498 0,41.62727 11.25254,0"
       style="fill:none;stroke:#000000;stroke-width:1px;stroke-linecap:butt;stroke-linejoin:miter;stroke-opacity:1;marker-end:url(#Arrow2Mend-08)"
       inkscape:export-filename="/home/stitch/Tese3/document/images/system/transfer-trans_2.png"
       inkscape:export-xdpi="300"
       inkscape:export-ydpi="300" />
    <path
       inkscape:connector-curvature="0"
       id="path4856-3"
       d="m 529.56092,315.38701 0,73.23606 -9.3412,0"
       style="fill:none;stroke:#000000;stroke-width:1px;stroke-linecap:butt;stroke-linejoin:miter;stroke-opacity:1"
       sodipodi:nodetypes="ccc"
       inkscape:export-filename="/home/stitch/Tese3/document/images/system/transfer-trans_2.png"
       inkscape:export-xdpi="300"
       inkscape:export-ydpi="300" />
  </g>
</svg>
