<?xml version="1.0" encoding="UTF-8" standalone="no"?>
<!-- Created with Inkscape (http://www.inkscape.org/) -->

<svg
   xmlns:dc="http://purl.org/dc/elements/1.1/"
   xmlns:cc="http://creativecommons.org/ns#"
   xmlns:rdf="http://www.w3.org/1999/02/22-rdf-syntax-ns#"
   xmlns:svg="http://www.w3.org/2000/svg"
   xmlns="http://www.w3.org/2000/svg"
   xmlns:sodipodi="http://sodipodi.sourceforge.net/DTD/sodipodi-0.dtd"
   xmlns:inkscape="http://www.inkscape.org/namespaces/inkscape"
   width="744.09448819"
   height="1052.3622047"
   id="svg2"
   version="1.1"
   inkscape:version="0.48.4 r9939"
   sodipodi:docname="nlp_layout.svg">
  <defs
     id="defs4">
    <marker
       inkscape:stockid="Arrow2Mend"
       orient="auto"
       refY="0.0"
       refX="0.0"
       id="Arrow2Mend"
       style="overflow:visible;">
      <path
         id="path3969"
         style="fill-rule:evenodd;stroke-width:0.62500000;stroke-linejoin:round;"
         d="M 8.7185878,4.0337352 L -2.2072895,0.016013256 L 8.7185884,-4.0017078 C 6.9730900,-1.6296469 6.9831476,1.6157441 8.7185878,4.0337352 z "
         transform="scale(0.6) rotate(180) translate(0,0)" />
    </marker>
  </defs>
  <sodipodi:namedview
     id="base"
     pagecolor="#ffffff"
     bordercolor="#666666"
     borderopacity="1.0"
     inkscape:pageopacity="0.0"
     inkscape:pageshadow="2"
     inkscape:zoom="0.98994949"
     inkscape:cx="450.593"
     inkscape:cy="715.40776"
     inkscape:document-units="px"
     inkscape:current-layer="layer1"
     showgrid="false"
     borderlayer="true"
     inkscape:showpageshadow="false"
     inkscape:window-width="1280"
     inkscape:window-height="1004"
     inkscape:window-x="1364"
     inkscape:window-y="-3"
     inkscape:window-maximized="1" />
  <metadata
     id="metadata7">
    <rdf:RDF>
      <cc:Work
         rdf:about="">
        <dc:format>image/svg+xml</dc:format>
        <dc:type
           rdf:resource="http://purl.org/dc/dcmitype/StillImage" />
        <dc:title></dc:title>
      </cc:Work>
    </rdf:RDF>
  </metadata>
  <g
     inkscape:label="Layer 1"
     inkscape:groupmode="layer"
     id="layer1">
    <flowRoot
       xml:space="preserve"
       id="flowRoot2985"
       style="font-size:14px;font-style:normal;font-variant:normal;font-weight:normal;font-stretch:normal;line-height:125%;letter-spacing:0px;word-spacing:0px;fill:#000000;fill-opacity:1;stroke:none;font-family:CMU Bright;-inkscape-font-specification:Sans"
       transform="translate(-0.38439941,-10.054457)"><flowRegion
         id="flowRegion2987"><rect
           id="rect2989"
           width="661.18347"
           height="966.40753"
           x="42.857143"
           y="55.219326" /></flowRegion><flowPara
         id="flowPara2991"
         style="font-size:13px">Natural Language Processing</flowPara><flowPara
         id="flowPara2993"
         style="font-size:13px">- intro 'processing' - set of techniques, theories, fields of study and computer algorithms to *process* natural language aiming for some goal.</flowPara><flowPara
         id="flowPara2995"
         style="font-size:13px">- this chapter focus on an overview of concepts that will be used throughout this work, keeping in mind that there is a multitude of other topics and more in depth studies in every field.</flowPara><flowPara
         id="flowPara2997"
         style="font-size:13px">- field is active, with speech to speech.. text, evolving and having good results with google translate. possibly it is never going to approach human quality (get that nice quote here)</flowPara><flowPara
         id="flowPara2999"
         style="font-size:13px" /><flowPara
         id="flowPara3001"
         style="font-size:13px" /><flowPara
         id="flowPara3003"
         style="font-size:13px">*Natural Language*</flowPara><flowPara
         id="flowPara3005"
         style="font-size:13px">- natural vs synthetic. the natural ones are much more chaotic implying several problems for computer processing.</flowPara><flowPara
         id="flowPara3007"
         style="font-size:13px">- there are some inbetweens, that were built with the purpose of not having said problems and internationalization. mention interlingua (others are esperanto and ido)</flowPara><flowPara
         id="flowPara3009"
         style="font-size:13px">- natural language problems: ambiguity and linguistic variability</flowPara><flowPara
         id="flowPara3011"
         style="font-size:13px">- linguistic studies: phonology, morphology, syntax, semantics, discourse</flowPara><flowPara
         id="flowPara3013"
         style="font-size:13px">- 'interpretation/performance' - and prosody.</flowPara><flowPara
         id="flowPara3015"
         style="font-size:13px" /><flowPara
         id="flowPara3017"
         style="font-size:13px" /><flowPara
         id="flowPara3019"
         style="font-size:13px">*Processing*</flowPara><flowPara
         id="flowPara3021"
         style="font-size:13px">-fields are: linguistics, computer science, statistics and other math and algorithmia.</flowPara><flowPara
         id="flowPara3023"
         style="font-size:13px">-appliances are speech recognition, spell/grammar correction, analysis, translation ..</flowPara><flowPara
         id="flowPara3025"
         style="font-size:13px" /><flowPara
         id="flowPara3027"
         style="font-size:13px" /><flowPara
         id="flowPara3029"
         style="font-size:13px">*Machine Translation*</flowPara><flowPara
         id="flowPara3031"
         style="font-size:13px">-meaning</flowPara><flowPara
         id="flowPara3033"
         style="font-size:13px">-2 different approaches. both have to deal with the problems of ambiguity and linguistic variability and mixed approaches of the various 'trends'? are valid + adding any mechanism that adds to the knowledge base and improves disambiguation quality. These other knowledge comes from annotations coming from human linguists or analysis algorithms described in \ref{analysys-just-below} + world knowledge (for the context used)</flowPara><flowPara
         id="flowPara3035"
         style="font-size:13px">-rule-based</flowPara><flowPara
         id="flowPara3037"
         style="font-size:13px">-statistical: </flowPara><flowPara
         id="flowPara3039"
         style="font-size:13px">  - needs corpus for statistics. needs a bilingual corpus for translation. quality of the corpus (dimension, context eg. for weather reports only, annotation, etc)</flowPara><flowPara
         id="flowPara3041"
         style="font-size:13px">  - HMM/n-grams, need o bilingual corpus</flowPara><flowPara
         id="flowPara3043"
         style="font-size:13px">  - smoothing techniques</flowPara><flowPara
         style="font-size:13px"
         id="flowPara3100">  - lexicons and language models and alignment models</flowPara><flowPara
         id="flowPara3045"
         style="font-size:13px">  - evaluation 'classes'? / performance categories?</flowPara><flowPara
         id="flowPara3047"
         style="font-size:13px">-example-based / machine learning  (does this belong inside statistical?)</flowPara><flowPara
         id="flowPara3049"
         style="font-size:13px" /><flowPara
         id="flowPara3051"
         style="font-size:13px" /><flowPara
         id="flowPara3053"
         style="font-size:13px">*Analysis* ??</flowPara><flowPara
         id="flowPara3055"
         style="font-size:13px">-POSTaggers</flowPara><flowPara
         id="flowPara3057"
         style="font-size:13px">-Stemmers and other morphosyntax stuff - Morphological segmentation</flowPara><flowPara
         id="flowPara3059"
         style="font-size:13px">(see the nl class notebook)</flowPara><flowPara
         id="flowPara3061"
         style="font-size:13px">-sentiment analysis for performances</flowPara><flowPara
         id="flowPara3063"
         style="font-size:13px" /><flowPara
         id="flowPara3065"
         style="font-size:13px" /><flowPara
         id="flowPara3067"
         style="font-size:13px">*Sign Language Processing*</flowPara><flowPara
         id="flowPara3069"
         style="font-size:13px">-different medium, poses different challenges on top of all the others / in addition.</flowPara><flowPara
         id="flowPara3071"
         style="font-size:13px">-signing recognition is way more difficult. it is from a video instead of sound and has additional difficulties (copy from paper).</flowPara><flowPara
         id="flowPara3073"
         style="font-size:13px">-all the other processing for whatever purpose is very difficult too because there is no standard (or even near it) way of storing and annotate signs in a written form that can be used for computer processing. there are the writing methods mentioned in \ref{sec:bg_signwriting}. non is good, non is standard.-very few corpora, of little dimension/context, with again no standard for annotation, and not for every language. this has a very big impact on statistic based methods.-very few linguistic studies in comparison with spoken languages. has a very big impact on human built rule based methods. affects language models that are needed for both recognition and generation of the language.- chereme / phoneme and cherology - term coined by William Stokoe, overall replaced with 'phoneme' being this a more incorrect term because the later means literally a unit of 'sound'</flowPara><flowPara
         id="flowPara3075"
         style="font-size:13px" /><flowPara
         id="flowPara3077"
         style="font-size:13px" /><flowPara
         id="flowPara3079"
         style="font-size:13px" /></flowRoot>    <path
       style="fill:none;stroke:#ff0003;stroke-width:1px;stroke-linecap:butt;stroke-linejoin:miter;stroke-opacity:1"
       d="m 30.304576,362.42799 492.954444,0"
       id="path3102"
       inkscape:connector-curvature="0" />
    <path
       style="fill:none;stroke:#ff0003;stroke-width:1px;stroke-linecap:butt;stroke-linejoin:miter;stroke-opacity:1"
       d="m 35.35534,67.463451 679.83266,0"
       id="path3102-7"
       inkscape:connector-curvature="0"
       sodipodi:nodetypes="cc" />
    <path
       style="fill:none;stroke:#ff0003;stroke-width:1px;stroke-linecap:butt;stroke-linejoin:miter;stroke-opacity:1"
       d="M 37.880722,102.75788 711.65247,98.757875"
       id="path3102-7-1"
       inkscape:connector-curvature="0"
       sodipodi:nodetypes="cc" />
    <path
       style="fill:none;stroke:#ff0003;stroke-width:1px;stroke-linecap:butt;stroke-linejoin:miter;stroke-opacity:1"
       d="m 35.840112,133.16398 657.609298,0"
       id="path3102-7-9"
       inkscape:connector-curvature="0"
       sodipodi:nodetypes="cc" />
    <path
       style="fill:none;stroke:#ff0003;stroke-width:1px;stroke-linecap:butt;stroke-linejoin:miter;stroke-opacity:1"
       d="m 38.890875,117.93047 372.746285,0"
       id="path3102-7-15"
       inkscape:connector-curvature="0"
       sodipodi:nodetypes="cc" />
    <path
       style="fill:none;stroke:#ff0003;stroke-width:1px;stroke-linecap:butt;stroke-linejoin:miter;stroke-opacity:1"
       d="m 36.870569,150.29596 383.857971,0"
       id="path3102-7-4"
       inkscape:connector-curvature="0"
       sodipodi:nodetypes="cc" />
    <path
       style="fill:none;stroke:#ff0003;stroke-width:1px;stroke-linecap:butt;stroke-linejoin:miter;stroke-opacity:1"
       d="m 39.936537,85.646197 134.350293,0"
       id="path3102-7-92"
       inkscape:connector-curvature="0"
       sodipodi:nodetypes="cc" />
    <path
       style="fill:none;stroke:#ff0000;stroke-width:1px;stroke-linecap:butt;stroke-linejoin:miter;stroke-opacity:1;marker-end:url(#Arrow2Mend)"
       d="M 33.335034,342.22494 C 30.304576,303.83915 -25.253814,114.94062 31.314729,103.82894"
       id="path3936"
       inkscape:connector-curvature="0"
       sodipodi:nodetypes="cc" />
    <path
       style="fill:none;stroke:#ff0003;stroke-width:1px;stroke-linecap:butt;stroke-linejoin:miter;stroke-opacity:1"
       d="m 33.335035,378.59043 492.954445,0"
       id="path3102-4"
       inkscape:connector-curvature="0" />
    <path
       style="fill:none;stroke:#ff0003;stroke-width:1px;stroke-linecap:butt;stroke-linejoin:miter;stroke-opacity:1"
       d="m 33.335037,345.2554 82.832513,1.01015"
       id="path3102-9"
       inkscape:connector-curvature="0"
       sodipodi:nodetypes="cc" />
  </g>
</svg>
